20211215,0.2059,ag2112,4646,4646,4646,4646,0,
20211215,0.210001,ag2112,4646,4646,4646,4646,0,
20211215,0.210251,ag2112,4646,4646,4646,4646,0,
20211215,0.210301,ag2112,4646,4629,4629,4646,4,
20211215,0.2104,ag2112,4629,4629,4629,4629,0,
20211215,0.210508,ag2112,4629,4629,4629,4629,0,
20211215,0.210605,ag2112,4629,4629,4629,4629,0,
20211215,0.210702,ag2112,4629,4629,4629,4629,0,
20211215,0.210821,ag2112,4629,4629,4629,4629,0,
20211215,0.2109,ag2112,4629,4629,4629,4629,0,
20211215,0.211026,ag2112,4629,4629,4629,4629,0,
20211215,0.211106,ag2112,4629,4629,4629,4629,0,
20211215,0.21122,ag2112,4629,4627,4627,4629,2,
20211215,0.211309,ag2112,4627,4627,4627,4627,0,
20211215,0.211406,ag2112,4627,4627,4627,4627,0,
20211215,0.211512,ag2112,4627,4627,4627,4627,0,
20211215,0.211723,ag2112,4627,4627,4627,4627,0,
20211215,0.211805,ag2112,4627,4627,4627,4627,0,
20211215,0.2119,ag2112,4627,4627,4627,4627,0,
20211215,0.21203,ag2112,4627,4630,4627,4630,10,
20211215,0.213112,ag2112,4630,4630,4630,4630,0,
20211215,0.213205,ag2112,4630,4630,4630,4630,0,
20211215,0.213305,ag2112,4630,4615,4615,4630,6,
20211215,0.213501,ag2112,4615,4615,4615,4615,0,
20211215,0.213604,ag2112,4615,4615,4615,4615,0,
20211215,0.213701,ag2112,4615,4605,4605,4615,6,
20211215,0.213813,ag2112,4605,4605,4605,4605,0,
20211215,0.213925,ag2112,4605,4605,4605,4605,0,
20211215,0.214109,ag2112,4605,4605,4605,4605,0,
20211215,0.214339,ag2112,4605,4605,4605,4605,0,
20211215,0.21441,ag2112,4605,4605,4605,4605,0,
20211215,0.214639,ag2112,4605,4605,4605,4605,0,
20211215,0.214702,ag2112,4595,4595,4595,4595,4,
20211215,0.214809,ag2112,4595,4595,4595,4595,0,
20211215,0.214913,ag2112,4595,4595,4595,4595,0,
20211215,0.215011,ag2112,4595,4595,4595,4595,0,
20211215,0.215116,ag2112,4595,4595,4595,4595,0,
20211215,0.215358,ag2112,4595,4595,4595,4595,0,
20211215,0.215415,ag2112,4595,4595,4595,4595,0,
20211215,0.215538,ag2112,4595,4595,4595,4595,0,
20211215,0.2156,ag2112,4595,4595,4595,4595,0,
20211215,0.215703,ag2112,4595,4595,4595,4595,0,
20211215,0.215824,ag2112,4595,4595,4595,4595,0,
20211215,0.215907,ag2112,4595,4595,4595,4595,0,
20211215,0.220002,ag2112,4595,4595,4595,4595,4,
20211215,0.220109,ag2112,4595,4595,4595,4595,0,
20211215,0.22024,ag2112,4595,4595,4554,4595,12,
20211215,0.220301,ag2112,4595,4595,4595,4595,0,
20211215,0.220402,ag2112,4595,4595,4595,4595,0,
20211215,0.220604,ag2112,4595,4595,4595,4595,0,
20211215,0.220724,ag2112,4595,4595,4595,4595,0,
20211215,0.22085,ag2112,4595,4595,4595,4595,0,
20211215,0.220909,ag2112,4595,4595,4595,4595,0,
20211215,0.221153,ag2112,4595,4595,4595,4595,0,
20211215,0.2212,ag2112,4595,4595,4595,4595,0,
20211215,0.221428,ag2112,4595,4595,4595,4595,2,
20211215,0.221505,ag2112,4595,4595,4595,4595,0,
20211215,0.22195,ag2112,4595,4595,4595,4595,0,
20211215,0.222001,ag2112,4595,4595,4595,4595,0,
20211215,0.222201,ag2112,4595,4595,4595,4595,0,
20211215,0.2223,ag2112,4580,4585,4580,4585,10,
20211215,0.222416,ag2112,4585,4587,4585,4587,20,
20211215,0.222524,ag2112,4587,4590,4587,4590,12,
20211215,0.222711,ag2112,4590,4590,4590,4590,12,
20211215,0.222821,ag2112,4590,4591,4590,4592,22,
20211215,0.222907,ag2112,4591,4591,4591,4591,0,
20211215,0.223855,ag2112,4591,4595,4591,4595,16,
20211215,0.2239,ag2112,4595,4595,4595,4595,0,
20211215,0.224057,ag2112,4595,4595,4595,4595,0,
20211215,0.224105,ag2112,4595,4595,4595,4595,0,
20211215,0.2242,ag2112,4595,4595,4595,4595,0,
20211215,0.224322,ag2112,4595,4598,4595,4598,2,
20211215,0.224407,ag2112,4598,4598,4598,4598,0,
20211215,0.224504,ag2112,4598,4600,4598,4600,2,
20211215,0.224608,ag2112,4600,4600,4600,4600,0,
20211215,0.2247,ag2112,4600,4600,4600,4600,0,
20211215,0.224813,ag2112,4605,4605,4605,4605,4,
20211215,0.225042,ag2112,4605,4605,4605,4605,0,
20211215,0.225109,ag2112,4605,4605,4605,4605,0,
20211215,0.225457,ag2112,4605,4605,4605,4605,2,
20211215,0.225504,ag2112,4605,4605,4605,4605,0,
20211215,0.225601,ag2112,4605,4615,4605,4615,10,
20211215,0.225702,ag2112,4615,4620,4615,4620,2,
20211215,0.225801,ag2112,4620,4620,4620,4620,4,
20211215,0.225952,ag2112,4620,4620,4620,4620,0,
20211215,0.230319,ag2112,4620,4620,4620,4620,0,
20211215,0.230453,ag2112,4620,4620,4620,4620,0,
20211215,0.231135,ag2112,4620,4620,4620,4620,0,
20211215,0.231203,ag2112,4620,4620,4620,4620,0,
20211215,0.231348,ag2112,4620,4620,4620,4620,0,
20211215,0.2314,ag2112,4620,4620,4620,4620,0,
20211215,0.231514,ag2112,4620,4612,4612,4620,20,
20211215,0.2316,ag2112,4612,4612,4612,4612,0,
20211215,0.231728,ag2112,4612,4612,4612,4612,0,
20211215,0.232303,ag2112,4612,4612,4612,4612,0,
20211215,0.232408,ag2112,4612,4612,4612,4612,0,
20211215,0.232514,ag2112,4612,4612,4612,4612,0,
20211215,0.232603,ag2112,4612,4612,4612,4612,0,
20211215,0.232712,ag2112,4612,4612,4612,4612,0,
20211215,0.23281,ag2112,4612,4612,4612,4612,0,
20211215,0.233017,ag2112,4612,4612,4612,4612,0,
20211215,0.23384,ag2112,4547,4615,4547,4615,14,
20211215,0.233918,ag2112,4615,4615,4615,4615,0,
20211215,0.235402,ag2112,4612,4612,4612,4612,0,
20211215,0.235518,ag2112,4612,4612,4612,4612,0,
20211215,0.001654,ag2112,4612,4612,4612,4612,0,
20211215,0.001728,ag2112,4612,4612,4612,4612,0,
20211215,0.001811,ag2112,4612,4612,4612,4612,0,
20211215,0.002912,ag2112,4612,4612,4612,4612,0,
20211215,0.00541,ag2112,4612,4612,4612,4612,0,
20211215,0.005955,ag2112,4612,4612,4612,4612,0,
20211215,0.023002,ag2112,4612,4612,4612,4612,0,
20211215,0.090001,ag2112,4612,4612,4612,4612,0,
20211215,0.090101,ag2112,4612,4612,4612,4612,0,
20211215,0.090202,ag2112,4612,4600,4600,4612,12,
20211215,0.090306,ag2112,4600,4603,4600,4603,30,
20211215,0.0904,ag2112,4604,4601,4600,4604,6,
20211215,0.090529,ag2112,4601,4604,4600,4604,20,
20211215,0.090613,ag2112,4604,4604,4604,4604,0,
20211215,0.0907,ag2112,4604,4600,4600,4604,20,
20211215,0.090803,ag2112,4600,4597,4597,4600,46,
20211215,0.090904,ag2112,4597,4598,4597,4598,20,
20211215,0.091002,ag2112,4598,4598,4598,4598,0,
20211215,0.091104,ag2112,4598,4597,4597,4598,14,
20211215,0.091203,ag2112,4597,4595,4595,4597,170,
20211215,0.09131,ag2112,4595,4595,4594,4595,166,
20211215,0.091401,ag2112,4595,4595,4594,4595,42,
20211215,0.0915,ag2112,4596,4596,4596,4596,10,
20211215,0.0916,ag2112,4596,4596,4596,4596,0,
20211215,0.091702,ag2112,4596,4594,4590,4596,102,
20211215,0.091821,ag2112,4594,4594,4594,4594,0,
20211215,0.091925,ag2112,4594,4594,4594,4594,0,
20211215,0.092021,ag2112,4594,4594,4594,4594,0,
20211215,0.092154,ag2112,4594,4595,4593,4595,12,
20211215,0.092202,ag2112,4595,4595,4595,4595,0,
20211215,0.092302,ag2112,4595,4595,4595,4595,42,
20211215,0.092403,ag2112,4596,4596,4596,4596,14,
20211215,0.092525,ag2112,4596,4599,4596,4599,40,
20211215,0.092605,ag2112,4599,4599,4599,4599,2,
20211215,0.092722,ag2112,4599,4599,4599,4599,0,
20211215,0.092829,ag2112,4599,4599,4599,4599,0,
20211215,0.093036,ag2112,4599,4595,4595,4599,2,
20211215,0.093342,ag2112,4595,4590,4590,4595,2,
20211215,0.093404,ag2112,4590,4590,4590,4590,0,
20211215,0.093502,ag2112,4590,4590,4590,4590,0,
20211215,0.093604,ag2112,4590,4595,4590,4595,2,
20211215,0.093724,ag2112,4595,4598,4595,4598,6,
20211215,0.093929,ag2112,4598,4598,4598,4598,0,
20211215,0.094005,ag2112,4598,4597,4597,4598,2,
20211215,0.094144,ag2112,4598,4598,4598,4598,0,
20211215,0.09421,ag2112,4598,4598,4598,4598,0,
20211215,0.094318,ag2112,4598,4598,4598,4598,0,
20211215,0.094655,ag2112,4598,4598,4598,4598,0,
20211215,0.094715,ag2112,4598,4598,4598,4598,0,
20211215,0.094801,ag2112,4598,4598,4598,4598,0,
20211215,0.094907,ag2112,4598,4598,4598,4598,0,
20211215,0.095015,ag2112,4598,4595,4595,4598,14,
20211215,0.095123,ag2112,4596,4595,4595,4596,2,
20211215,0.0952,ag2112,4595,4595,4590,4596,20,
20211215,0.095303,ag2112,4595,4590,4590,4595,20,
20211215,0.095426,ag2112,4590,4594,4590,4594,6,
20211215,0.095508,ag2112,4595,4592,4590,4596,24,
20211215,0.095618,ag2112,4596,4596,4596,4596,2,
20211215,0.095741,ag2112,4596,4596,4596,4596,2,
20211215,0.0958,ag2112,4596,4596,4596,4596,2,
20211215,0.095924,ag2112,4596,4596,4596,4596,4,
20211215,0.100044,ag2112,4594,4594,4594,4594,0,
20211215,0.1001,ag2112,4594,4594,4594,4594,0,
20211215,0.100202,ag2112,4594,4597,4594,4597,6,
20211215,0.100301,ag2112,4597,4598,4597,4598,14,
20211215,0.10041,ag2112,4598,4598,4598,4598,0,
20211215,0.100509,ag2112,4598,4599,4598,4599,12,
20211215,0.100601,ag2112,4599,4600,4599,4600,6,
20211215,0.10073,ag2112,4600,4598,4598,4600,8,
20211215,0.100803,ag2112,4598,4598,4598,4598,0,
20211215,0.100907,ag2112,4598,4598,4598,4598,0,
20211215,0.101001,ag2112,4598,4598,4598,4598,0,
20211215,0.101107,ag2112,4598,4598,4598,4598,0,
20211215,0.101219,ag2112,4598,4598,4598,4598,0,
20211215,0.101304,ag2112,4598,4598,4598,4598,0,
20211215,0.101501,ag2112,4598,4598,4598,4598,0,
20211215,0.103001,ag2112,4598,4598,4598,4598,0,
20211215,0.103112,ag2112,4598,4598,4598,4598,0,
20211215,0.103211,ag2112,4598,4598,4598,4598,0,
20211215,0.103306,ag2112,4598,4598,4598,4598,0,
20211215,0.103405,ag2112,4598,4598,4598,4598,0,
20211215,0.103547,ag2112,4598,4598,4598,4598,0,
20211215,0.103614,ag2112,4598,4598,4598,4598,0,
20211215,0.103706,ag2112,4598,4598,4598,4598,0,
20211215,0.103815,ag2112,4598,4598,4598,4598,0,
20211215,0.10392,ag2112,4598,4598,4598,4598,0,
20211215,0.104002,ag2112,4598,4598,4598,4598,0,
20211215,0.10422,ag2112,4598,4598,4598,4598,0,
20211215,0.104302,ag2112,4598,4593,4593,4598,4,
20211215,0.104453,ag2112,4593,4593,4593,4593,0,
20211215,0.104701,ag2112,4593,4593,4593,4593,0,
20211215,0.104802,ag2112,4593,4593,4593,4593,0,
20211215,0.104904,ag2112,4593,4593,4593,4593,0,
20211215,0.105004,ag2112,4593,4593,4593,4593,0,
20211215,0.1051,ag2112,4593,4593,4593,4593,0,
20211215,0.105254,ag2112,4593,4593,4593,4593,0,
20211215,0.105327,ag2112,4593,4593,4593,4593,0,
20211215,0.105408,ag2112,4593,4593,4593,4593,0,
20211215,0.105501,ag2112,4593,4593,4593,4593,0,
20211215,0.105605,ag2112,4593,4593,4593,4593,0,
20211215,0.105739,ag2112,4589,4589,4589,4589,0,
20211215,0.10581,ag2112,4589,4589,4589,4589,0,
20211215,0.105905,ag2112,4589,4589,4589,4589,2,
20211215,0.11,ag2112,4589,4589,4589,4589,0,
20211215,0.110109,ag2112,4589,4589,4589,4589,0,
20211215,0.110205,ag2112,4589,4589,4589,4589,0,
20211215,0.110303,ag2112,4590,4590,4590,4590,0,
20211215,0.110421,ag2112,4590,4590,4590,4590,0,
20211215,0.110506,ag2112,4590,4587,4587,4590,2,
20211215,0.110611,ag2112,4587,4585,4585,4587,6,
20211215,0.110936,ag2112,4589,4589,4589,4589,0,
20211215,0.111012,ag2112,4589,4589,4589,4589,0,
20211215,0.111122,ag2112,4589,4589,4589,4589,0,
20211215,0.111201,ag2112,4589,4580,4580,4589,6,
20211215,0.111308,ag2112,4580,4580,4580,4580,0,
20211215,0.111402,ag2112,4580,4583,4580,4584,26,
20211215,0.111504,ag2112,4583,4586,4583,4586,6,
20211215,0.111602,ag2112,4586,4586,4586,4586,0,
20211215,0.111705,ag2112,4586,4586,4586,4586,0,
20211215,0.111813,ag2112,4586,4586,4586,4586,0,
20211215,0.111902,ag2112,4586,4586,4586,4586,0,
20211215,0.11201,ag2112,4586,4586,4586,4586,0,
20211215,0.112122,ag2112,4586,4586,4586,4586,0,
20211215,0.112206,ag2112,4586,4586,4586,4586,0,
20211215,0.112308,ag2112,4586,4586,4586,4586,0,
20211215,0.112418,ag2112,4586,4586,4586,4586,0,
20211215,0.112525,ag2112,4586,4586,4586,4586,0,
20211215,0.112606,ag2112,4586,4586,4586,4586,0,
20211215,0.112714,ag2112,4586,4586,4586,4586,0,
20211215,0.112803,ag2112,4586,4586,4586,4586,0,
20211215,0.112907,ag2112,4586,4582,4582,4586,2,
20211215,0.113001,ag2112,4582,4582,4582,4582,0,
