20220128,0.205901,ag2205,4744,4744,4744,4744,0,
20220128,0.210001,ag2205,4745,4745,4745,4745,0,
20220128,0.210101,ag2205,4750,4745,4743,4754,389,
20220128,0.2102,ag2205,4744,4750,4744,4751,128,
20220128,0.2103,ag2205,4750,4758,4749,4758,93,
20220128,0.2104,ag2205,4758,4761,4758,4764,110,
20220128,0.2105,ag2205,4760,4757,4756,4764,69,
20220128,0.2106,ag2205,4757,4767,4757,4769,276,
20220128,0.2107,ag2205,4767,4767,4765,4774,183,
20220128,0.2108,ag2205,4767,4767,4766,4771,82,
20220128,0.2109,ag2205,4767,4762,4760,4769,111,
20220128,0.211,ag2205,4762,4758,4757,4763,74,
20220128,0.2111,ag2205,4758,4752,4751,4760,89,
20220128,0.2112,ag2205,4752,4761,4752,4761,62,
20220128,0.2113,ag2205,4762,4761,4759,4763,114,
20220128,0.2114,ag2205,4761,4762,4760,4763,64,
20220128,0.2115,ag2205,4761,4761,4759,4762,53,
20220128,0.2116,ag2205,4761,4767,4759,4769,115,
20220128,0.211701,ag2205,4767,4768,4767,4768,34,
20220128,0.2118,ag2205,4769,4770,4767,4771,61,
20220128,0.2119,ag2205,4770,4767,4767,4771,59,
20220128,0.212,ag2205,4767,4761,4761,4767,109,
20220128,0.2121,ag2205,4760,4759,4758,4763,173,
20220128,0.2122,ag2205,4759,4756,4755,4761,92,
20220128,0.2123,ag2205,4757,4759,4756,4759,66,
20220128,0.2124,ag2205,4759,4759,4759,4767,122,
20220128,0.2125,ag2205,4759,4758,4757,4759,34,
20220128,0.2126,ag2205,4758,4754,4751,4758,111,
20220128,0.2127,ag2205,4754,4754,4751,4754,56,
20220128,0.2128,ag2205,4755,4755,4754,4756,17,
20220128,0.2129,ag2205,4755,4754,4754,4758,35,
20220128,0.213001,ag2205,4754,4756,4752,4757,39,
20220128,0.2131,ag2205,4756,4756,4749,4757,548,
20220128,0.2132,ag2205,4756,4749,4749,4760,335,
20220128,0.2133,ag2205,4749,4747,4742,4749,102,
20220128,0.2134,ag2205,4747,4751,4742,4751,179,
20220128,0.2135,ag2205,4751,4752,4750,4753,152,
20220128,0.2136,ag2205,4752,4754,4751,4755,43,
20220128,0.2137,ag2205,4754,4751,4750,4755,72,
20220128,0.2138,ag2205,4751,4749,4749,4752,84,
20220128,0.2139,ag2205,4749,4750,4749,4750,27,
20220128,0.214,ag2205,4749,4746,4746,4750,74,
20220128,0.2141,ag2205,4746,4751,4742,4751,189,
20220128,0.2142,ag2205,4751,4752,4751,4753,66,
20220128,0.2143,ag2205,4751,4747,4747,4752,41,
20220128,0.2144,ag2205,4748,4750,4746,4751,49,
20220128,0.2145,ag2205,4750,4748,4748,4751,58,
20220128,0.2146,ag2205,4748,4745,4744,4748,130,
20220128,0.2147,ag2205,4745,4746,4745,4748,48,
20220128,0.2148,ag2205,4746,4743,4742,4746,42,
20220128,0.214905,ag2205,4743,4746,4743,4746,75,
20220128,0.215,ag2205,4746,4750,4746,4752,93,
20220128,0.2151,ag2205,4750,4751,4748,4752,97,
20220128,0.2152,ag2205,4751,4753,4750,4755,145,
20220128,0.2153,ag2205,4753,4755,4751,4755,106,
20220128,0.2154,ag2205,4755,4751,4750,4758,161,
20220128,0.2155,ag2205,4751,4745,4745,4751,150,
20220128,0.2156,ag2205,4745,4735,4733,4745,249,
20220128,0.2157,ag2205,4735,4738,4732,4741,186,
20220128,0.2158,ag2205,4738,4741,4738,4742,62,
20220128,0.2159,ag2205,4741,4744,4739,4744,59,
20220128,0.22,ag2205,4744,4743,4742,4746,95,
20220128,0.2201,ag2205,4743,4739,4737,4743,158,
20220128,0.2202,ag2205,4739,4744,4739,4745,84,
20220128,0.2203,ag2205,4743,4747,4743,4748,136,
20220128,0.2204,ag2205,4749,4746,4745,4749,50,
20220128,0.2205,ag2205,4746,4747,4743,4747,96,
20220128,0.2206,ag2205,4747,4752,4745,4752,92,
20220128,0.2207,ag2205,4752,4748,4748,4752,75,
20220128,0.2208,ag2205,4748,4747,4747,4748,18,
20220128,0.2209,ag2205,4747,4750,4746,4751,142,
20220128,0.221,ag2205,4750,4750,4747,4750,55,
20220128,0.2211,ag2205,4750,4749,4747,4751,142,
20220128,0.2212,ag2205,4749,4741,4741,4749,172,
20220128,0.2213,ag2205,4740,4740,4738,4742,57,
20220128,0.2214,ag2205,4740,4741,4739,4743,40,
20220128,0.2215,ag2205,4741,4740,4739,4741,60,
20220128,0.2216,ag2205,4740,4739,4739,4742,39,
20220128,0.2217,ag2205,4739,4738,4737,4741,28,
20220128,0.2218,ag2205,4738,4739,4737,4739,21,
20220128,0.221901,ag2205,4739,4734,4731,4739,187,
20220128,0.222,ag2205,4734,4718,4718,4734,601,
20220128,0.2221,ag2205,4717,4714,4712,4719,449,
20220128,0.2222,ag2205,4714,4722,4714,4723,99,
20220128,0.2223,ag2205,4722,4724,4721,4725,59,
20220128,0.2224,ag2205,4724,4731,4724,4733,63,
20220128,0.2225,ag2205,4731,4732,4729,4734,67,
20220128,0.2226,ag2205,4732,4733,4732,4735,43,
20220128,0.2227,ag2205,4733,4727,4726,4733,136,
20220128,0.222802,ag2205,4727,4731,4727,4732,40,
20220128,0.2229,ag2205,4731,4729,4728,4731,47,
20220128,0.223,ag2205,4728,4726,4724,4730,71,
20220128,0.2231,ag2205,4726,4727,4725,4731,116,
20220128,0.2232,ag2205,4727,4727,4724,4729,220,
20220128,0.2233,ag2205,4727,4741,4727,4741,254,
20220128,0.2234,ag2205,4740,4741,4737,4744,324,
20220128,0.2235,ag2205,4741,4737,4736,4743,96,
20220128,0.2236,ag2205,4736,4735,4734,4742,541,
20220128,0.2237,ag2205,4735,4737,4733,4737,132,
20220128,0.2238,ag2205,4737,4746,4737,4749,328,
20220128,0.2239,ag2205,4746,4759,4746,4762,460,
20220128,0.224,ag2205,4758,4760,4752,4762,265,
20220128,0.2241,ag2205,4760,4764,4756,4767,279,
20220128,0.2242,ag2205,4764,4762,4759,4764,174,
20220128,0.2243,ag2205,4762,4763,4757,4763,145,
20220128,0.2244,ag2205,4763,4759,4759,4764,92,
20220128,0.2245,ag2205,4759,4750,4750,4759,229,
20220128,0.2246,ag2205,4752,4752,4750,4755,99,
20220128,0.2247,ag2205,4752,4752,4751,4754,45,
20220128,0.2248,ag2205,4752,4751,4751,4753,47,
20220128,0.2249,ag2205,4751,4753,4751,4760,145,
20220128,0.225,ag2205,4753,4753,4751,4754,82,
20220128,0.2251,ag2205,4753,4755,4752,4757,93,
20220128,0.2252,ag2205,4755,4752,4752,4758,47,
20220128,0.2253,ag2205,4754,4756,4754,4758,49,
20220128,0.2254,ag2205,4756,4752,4749,4756,117,
20220128,0.2255,ag2205,4752,4752,4749,4755,72,
20220128,0.2256,ag2205,4752,4759,4750,4761,129,
20220128,0.2257,ag2205,4759,4751,4748,4761,214,
20220128,0.2258,ag2205,4751,4748,4747,4751,52,
20220128,0.2259,ag2205,4746,4747,4746,4750,68,
20220128,0.23,ag2205,4747,4747,4746,4749,51,
20220128,0.2301,ag2205,4747,4737,4737,4747,241,
20220128,0.2302,ag2205,4737,4743,4737,4745,155,
20220128,0.2303,ag2205,4743,4746,4742,4747,89,
20220128,0.2304,ag2205,4746,4746,4744,4746,33,
20220128,0.2305,ag2205,4746,4743,4742,4747,129,
20220128,0.2306,ag2205,4743,4745,4743,4745,23,
20220128,0.230701,ag2205,4745,4744,4743,4746,48,
20220128,0.2308,ag2205,4744,4745,4744,4745,12,
20220128,0.2309,ag2205,4745,4754,4745,4754,92,
20220128,0.231,ag2205,4754,4752,4752,4758,146,
20220128,0.2311,ag2205,4752,4752,4750,4752,56,
20220128,0.2312,ag2205,4752,4753,4752,4755,45,
20220128,0.2313,ag2205,4753,4750,4749,4753,84,
20220128,0.2314,ag2205,4750,4750,4750,4751,33,
20220128,0.2315,ag2205,4750,4748,4748,4750,33,
20220128,0.2316,ag2205,4748,4744,4744,4749,73,
20220128,0.2317,ag2205,4744,4745,4744,4747,68,
20220128,0.2318,ag2205,4745,4743,4743,4745,39,
20220128,0.2319,ag2205,4743,4744,4741,4744,60,
20220128,0.232,ag2205,4744,4742,4742,4744,69,
20220128,0.2321,ag2205,4742,4742,4742,4746,44,
20220128,0.2322,ag2205,4742,4745,4742,4746,46,
20220128,0.2323,ag2205,4745,4745,4744,4748,107,
20220128,0.2324,ag2205,4745,4741,4738,4745,90,
20220128,0.2325,ag2205,4741,4740,4740,4742,39,
20220128,0.2326,ag2205,4740,4739,4739,4740,38,
20220128,0.2327,ag2205,4739,4737,4735,4739,85,
20220128,0.2328,ag2205,4737,4735,4735,4737,42,
20220128,0.2329,ag2205,4735,4732,4732,4736,84,
20220128,0.233,ag2205,4732,4732,4732,4734,60,
20220128,0.233101,ag2205,4732,4733,4732,4734,41,
20220128,0.2332,ag2205,4731,4727,4725,4731,158,
20220128,0.2333,ag2205,4727,4727,4726,4728,67,
20220128,0.2334,ag2205,4727,4728,4726,4729,91,
20220128,0.2335,ag2205,4728,4720,4720,4729,347,
20220128,0.2336,ag2205,4720,4721,4716,4721,191,
20220128,0.2337,ag2205,4721,4721,4720,4723,92,
20220128,0.2338,ag2205,4721,4717,4717,4721,310,
20220128,0.2339,ag2205,4717,4723,4716,4723,92,
20220128,0.234,ag2205,4723,4716,4716,4723,73,
20220128,0.2341,ag2205,4716,4720,4714,4720,68,
20220128,0.2342,ag2205,4720,4721,4719,4721,41,
20220128,0.2343,ag2205,4721,4723,4721,4724,64,
20220128,0.2344,ag2205,4723,4723,4720,4723,49,
20220128,0.2345,ag2205,4723,4720,4720,4724,43,
20220128,0.2346,ag2205,4720,4718,4717,4721,49,
20220128,0.2347,ag2205,4718,4715,4712,4718,120,
20220128,0.2348,ag2205,4715,4715,4713,4716,87,
20220128,0.2349,ag2205,4715,4705,4705,4715,177,
20220128,0.235,ag2205,4707,4702,4702,4707,118,
20220128,0.2351,ag2205,4703,4709,4703,4712,301,
20220128,0.2352,ag2205,4709,4712,4709,4712,87,
20220128,0.2353,ag2205,4712,4712,4712,4713,17,
20220128,0.2354,ag2205,4712,4708,4708,4712,96,
20220128,0.2355,ag2205,4707,4703,4702,4707,115,
20220128,0.2356,ag2205,4703,4706,4703,4707,95,
20220128,0.2357,ag2205,4705,4706,4705,4706,18,
20220128,0.2358,ag2205,4706,4705,4705,4709,66,
20220128,0.2359,ag2205,4705,4708,4705,4709,53,
20220128,0,ag2205,4708,4705,4704,4710,59,
20220128,0.0001,ag2205,4705,4709,4702,4709,48,
20220128,0.0002,ag2205,4709,4711,4709,4711,22,
20220128,0.0003,ag2205,4711,4712,4711,4713,66,
20220128,0.0004,ag2205,4712,4712,4711,4713,28,
20220128,0.0005,ag2205,4712,4712,4709,4713,133,
20220128,0.0006,ag2205,4712,4712,4709,4712,58,
20220128,0.0007,ag2205,4712,4712,4711,4712,47,
20220128,0.0008,ag2205,4712,4706,4705,4712,80,
20220128,0.000901,ag2205,4706,4708,4706,4708,51,
20220128,0.001,ag2205,4708,4709,4708,4710,28,
20220128,0.0011,ag2205,4710,4710,4709,4710,14,
20220128,0.0012,ag2205,4710,4711,4709,4711,31,
20220128,0.0013,ag2205,4711,4713,4710,4713,31,
20220128,0.0014,ag2205,4713,4716,4713,4716,38,
20220128,0.0015,ag2205,4716,4715,4714,4717,44,
20220128,0.0016,ag2205,4715,4713,4713,4715,44,
20220128,0.0017,ag2205,4713,4711,4711,4713,9,
20220128,0.0018,ag2205,4711,4710,4710,4711,6,
20220128,0.0019,ag2205,4710,4712,4710,4713,18,
20220128,0.002001,ag2205,4712,4713,4710,4713,20,
20220128,0.0021,ag2205,4713,4711,4711,4714,24,
20220128,0.0022,ag2205,4711,4712,4711,4713,23,
20220128,0.002301,ag2205,4712,4713,4712,4713,12,
20220128,0.002401,ag2205,4713,4710,4710,4713,11,
20220128,0.0025,ag2205,4711,4706,4704,4711,241,
20220128,0.0026,ag2205,4706,4706,4706,4707,72,
20220128,0.0027,ag2205,4706,4707,4705,4707,49,
20220128,0.002801,ag2205,4707,4711,4707,4712,32,
20220128,0.0029,ag2205,4711,4713,4711,4713,8,
20220128,0.003,ag2205,4713,4718,4713,4720,138,
20220128,0.0031,ag2205,4718,4719,4718,4720,62,
20220128,0.0032,ag2205,4719,4717,4716,4719,38,
20220128,0.0033,ag2205,4717,4715,4715,4717,37,
20220128,0.003401,ag2205,4715,4719,4715,4719,50,
20220128,0.0035,ag2205,4720,4718,4718,4720,32,
20220128,0.0036,ag2205,4718,4722,4718,4723,47,
20220128,0.0037,ag2205,4722,4725,4721,4725,69,
20220128,0.003801,ag2205,4725,4723,4723,4725,34,
20220128,0.0039,ag2205,4723,4722,4722,4724,34,
20220128,0.004001,ag2205,4722,4720,4720,4722,37,
20220128,0.0041,ag2205,4720,4722,4719,4722,61,
20220128,0.0042,ag2205,4722,4722,4720,4722,17,
20220128,0.0043,ag2205,4722,4719,4718,4722,15,
20220128,0.0044,ag2205,4720,4720,4719,4720,6,
20220128,0.0045,ag2205,4720,4719,4719,4720,3,
20220128,0.0046,ag2205,4719,4721,4719,4723,25,
20220128,0.0047,ag2205,4721,4721,4721,4722,10,
20220128,0.0048,ag2205,4721,4721,4721,4722,25,
20220128,0.0049,ag2205,4721,4720,4718,4721,25,
20220128,0.005,ag2205,4720,4719,4719,4720,3,
20220128,0.0051,ag2205,4718,4719,4718,4719,14,
20220128,0.0052,ag2205,4719,4718,4718,4719,30,
20220128,0.0053,ag2205,4718,4716,4715,4718,48,
20220128,0.0054,ag2205,4716,4714,4713,4716,35,
20220128,0.005501,ag2205,4714,4716,4714,4716,6,
20220128,0.0056,ag2205,4716,4714,4714,4717,35,
20220128,0.0057,ag2205,4714,4713,4713,4714,12,
20220128,0.005802,ag2205,4713,4714,4713,4715,18,
20220128,0.0059,ag2205,4714,4717,4714,4718,18,
20220128,0.01,ag2205,4717,4717,4717,4717,21,
20220128,0.0101,ag2205,4717,4719,4717,4720,44,
20220128,0.010201,ag2205,4719,4719,4719,4719,3,
20220128,0.0103,ag2205,4719,4720,4719,4721,81,
20220128,0.0104,ag2205,4720,4720,4720,4721,29,
20220128,0.0105,ag2205,4720,4722,4720,4722,52,
20220128,0.0106,ag2205,4722,4721,4721,4722,21,
20220128,0.010701,ag2205,4721,4720,4720,4721,18,
20220128,0.0108,ag2205,4720,4720,4720,4720,1,
20220128,0.0109,ag2205,4720,4720,4720,4720,2,
20220128,0.011,ag2205,4720,4719,4718,4720,26,
20220128,0.0111,ag2205,4719,4716,4715,4719,22,
20220128,0.0112,ag2205,4716,4717,4716,4717,5,
20220128,0.0113,ag2205,4717,4718,4717,4719,6,
20220128,0.011401,ag2205,4718,4719,4718,4719,2,
20220128,0.0115,ag2205,4719,4718,4717,4720,13,
20220128,0.0116,ag2205,4718,4716,4716,4718,15,
20220128,0.0117,ag2205,4716,4715,4715,4716,9,
20220128,0.0118,ag2205,4715,4716,4715,4716,3,
20220128,0.0119,ag2205,4716,4713,4713,4716,10,
20220128,0.012,ag2205,4713,4714,4713,4714,12,
20220128,0.0121,ag2205,4714,4716,4714,4716,8,
20220128,0.0122,ag2205,4716,4716,4716,4716,2,
20220128,0.0123,ag2205,4716,4714,4714,4716,34,
20220128,0.0124,ag2205,4714,4717,4714,4717,30,
20220128,0.0125,ag2205,4717,4715,4715,4717,14,
20220128,0.012601,ag2205,4715,4714,4714,4715,7,
20220128,0.0127,ag2205,4714,4714,4712,4714,48,
20220128,0.0128,ag2205,4714,4711,4711,4714,31,
20220128,0.0129,ag2205,4711,4710,4710,4711,12,
20220128,0.013,ag2205,4710,4711,4710,4711,17,
20220128,0.0131,ag2205,4711,4712,4711,4713,23,
20220128,0.013202,ag2205,4712,4709,4709,4712,23,
20220128,0.013303,ag2205,4709,4710,4709,4712,15,
20220128,0.0134,ag2205,4710,4708,4708,4710,20,
20220128,0.0135,ag2205,4708,4707,4707,4708,34,
20220128,0.013602,ag2205,4707,4709,4707,4709,12,
20220128,0.0137,ag2205,4709,4709,4709,4709,4,
20220128,0.0138,ag2205,4709,4709,4709,4709,0,
20220128,0.013901,ag2205,4709,4708,4708,4709,40,
20220128,0.014,ag2205,4708,4708,4708,4708,11,
20220128,0.014101,ag2205,4708,4709,4708,4709,3,
20220128,0.0142,ag2205,4709,4709,4708,4709,12,
20220128,0.0143,ag2205,4709,4712,4709,4712,17,
20220128,0.0144,ag2205,4712,4712,4712,4712,7,
20220128,0.014502,ag2205,4712,4710,4710,4712,5,
20220128,0.0146,ag2205,4710,4709,4709,4710,5,
20220128,0.0147,ag2205,4709,4706,4706,4709,31,
20220128,0.014801,ag2205,4706,4706,4706,4706,7,
20220128,0.0149,ag2205,4706,4701,4701,4706,77,
20220128,0.015002,ag2205,4701,4702,4701,4703,13,
20220128,0.0151,ag2205,4702,4707,4702,4707,19,
20220128,0.0152,ag2205,4707,4708,4707,4708,4,
20220128,0.0153,ag2205,4708,4710,4708,4710,10,
20220128,0.0154,ag2205,4709,4709,4709,4709,13,
20220128,0.0155,ag2205,4709,4712,4709,4713,40,
20220128,0.015601,ag2205,4712,4711,4711,4712,7,
20220128,0.0157,ag2205,4711,4710,4710,4711,3,
20220128,0.0158,ag2205,4710,4711,4710,4711,7,
20220128,0.015901,ag2205,4711,4705,4705,4711,65,
20220128,0.02,ag2205,4705,4705,4705,4706,12,
20220128,0.0201,ag2205,4706,4707,4706,4707,23,
20220128,0.0202,ag2205,4707,4704,4704,4707,20,
20220128,0.020302,ag2205,4704,4704,4704,4705,19,
20220128,0.0204,ag2205,4704,4704,4704,4704,2,
20220128,0.020501,ag2205,4704,4702,4702,4705,27,
20220128,0.0206,ag2205,4702,4701,4696,4702,226,
20220128,0.0207,ag2205,4701,4699,4699,4701,17,
20220128,0.0208,ag2205,4699,4698,4698,4699,7,
20220128,0.0209,ag2205,4698,4704,4698,4704,33,
20220128,0.021,ag2205,4703,4704,4703,4704,10,
20220128,0.0211,ag2205,4704,4707,4704,4707,28,
20220128,0.0212,ag2205,4707,4708,4706,4708,14,
20220128,0.021301,ag2205,4708,4707,4707,4708,11,
20220128,0.021401,ag2205,4707,4709,4707,4709,10,
20220128,0.0215,ag2205,4709,4711,4709,4713,50,
20220128,0.0216,ag2205,4711,4716,4710,4716,59,
20220128,0.0217,ag2205,4716,4715,4715,4717,24,
20220128,0.021801,ag2205,4715,4713,4712,4715,10,
20220128,0.0219,ag2205,4713,4713,4712,4713,15,
20220128,0.022002,ag2205,4713,4714,4713,4715,7,
20220128,0.0221,ag2205,4714,4714,4714,4715,15,
20220128,0.0222,ag2205,4714,4710,4710,4714,11,
20220128,0.022301,ag2205,4710,4710,4708,4710,11,
20220128,0.0224,ag2205,4710,4710,4709,4710,5,
20220128,0.0225,ag2205,4711,4713,4710,4713,11,
20220128,0.0226,ag2205,4713,4714,4711,4714,8,
20220128,0.0227,ag2205,4714,4714,4714,4717,15,
20220128,0.0228,ag2205,4714,4713,4713,4715,21,
20220128,0.0229,ag2205,4713,4714,4713,4714,3,
20220128,0.023,ag2205,4714,4705,4705,4714,18,
20220128,0.090001,ag2205,4705,4715,4705,4715,1,
20220128,0.0901,ag2205,4715,4707,4706,4715,235,
20220128,0.0902,ag2205,4707,4705,4701,4708,106,
20220128,0.0903,ag2205,4705,4712,4701,4712,126,
20220128,0.0904,ag2205,4711,4704,4704,4712,134,
20220128,0.0905,ag2205,4704,4704,4704,4706,40,
20220128,0.0906,ag2205,4704,4698,4698,4706,135,
20220128,0.0907,ag2205,4697,4704,4696,4705,98,
20220128,0.0908,ag2205,4704,4699,4698,4704,166,
20220128,0.0909,ag2205,4699,4703,4699,4705,31,
20220128,0.091,ag2205,4703,4704,4703,4704,85,
20220128,0.0911,ag2205,4704,4707,4704,4707,82,
20220128,0.0912,ag2205,4707,4703,4703,4707,26,
20220128,0.0913,ag2205,4703,4704,4703,4706,41,
20220128,0.0914,ag2205,4704,4704,4703,4704,16,
20220128,0.0915,ag2205,4704,4704,4704,4706,29,
20220128,0.0916,ag2205,4705,4702,4702,4705,24,
20220128,0.0917,ag2205,4702,4703,4700,4704,228,
20220128,0.0918,ag2205,4703,4705,4703,4706,53,
20220128,0.0919,ag2205,4705,4701,4700,4705,102,
20220128,0.092,ag2205,4701,4700,4700,4702,22,
20220128,0.0921,ag2205,4700,4701,4699,4701,50,
20220128,0.0922,ag2205,4701,4704,4701,4704,19,
20220128,0.0923,ag2205,4704,4704,4704,4704,11,
20220128,0.0924,ag2205,4704,4702,4702,4704,27,
20220128,0.0925,ag2205,4702,4702,4701,4702,6,
20220128,0.0926,ag2205,4702,4702,4702,4703,37,
20220128,0.0927,ag2205,4702,4703,4701,4703,3,
20220128,0.0928,ag2205,4703,4704,4703,4705,13,
20220128,0.0929,ag2205,4704,4706,4703,4707,57,
20220128,0.093,ag2205,4706,4706,4706,4708,35,
20220128,0.0931,ag2205,4706,4706,4706,4707,18,
20220128,0.0932,ag2205,4706,4707,4706,4707,8,
20220128,0.0933,ag2205,4707,4704,4704,4707,26,
20220128,0.0934,ag2205,4704,4702,4702,4704,23,
20220128,0.0935,ag2205,4702,4700,4700,4702,58,
20220128,0.093601,ag2205,4700,4702,4700,4702,11,
20220128,0.0937,ag2205,4702,4702,4702,4704,17,
20220128,0.0938,ag2205,4702,4702,4702,4703,11,
20220128,0.0939,ag2205,4702,4701,4701,4703,15,
20220128,0.094,ag2205,4701,4702,4701,4702,3,
20220128,0.094101,ag2205,4702,4701,4701,4703,7,
20220128,0.094201,ag2205,4701,4700,4700,4701,4,
20220128,0.0943,ag2205,4701,4704,4701,4704,27,
20220128,0.0944,ag2205,4704,4705,4704,4706,39,
20220128,0.0945,ag2205,4705,4705,4704,4705,29,
20220128,0.0946,ag2205,4705,4706,4705,4707,23,
20220128,0.0947,ag2205,4706,4710,4706,4710,62,
20220128,0.0948,ag2205,4710,4706,4704,4710,74,
20220128,0.0949,ag2205,4706,4706,4706,4706,5,
20220128,0.095,ag2205,4706,4709,4705,4709,36,
20220128,0.0951,ag2205,4709,4709,4708,4709,20,
20220128,0.0952,ag2205,4709,4708,4708,4709,13,
20220128,0.095301,ag2205,4708,4709,4708,4709,1,
20220128,0.0954,ag2205,4709,4709,4709,4710,40,
20220128,0.0955,ag2205,4709,4706,4706,4709,25,
20220128,0.095601,ag2205,4706,4707,4706,4708,5,
20220128,0.095701,ag2205,4707,4707,4707,4707,9,
20220128,0.0958,ag2205,4707,4707,4706,4707,41,
20220128,0.0959,ag2205,4707,4707,4707,4707,10,
20220128,0.1,ag2205,4707,4707,4706,4707,10,
20220128,0.1001,ag2205,4707,4705,4703,4707,45,
20220128,0.1002,ag2205,4705,4704,4703,4705,13,
20220128,0.1003,ag2205,4704,4703,4702,4704,24,
20220128,0.1004,ag2205,4703,4704,4703,4704,13,
20220128,0.1005,ag2205,4704,4702,4702,4704,5,
20220128,0.1006,ag2205,4702,4701,4698,4702,61,
20220128,0.1007,ag2205,4701,4698,4698,4701,19,
20220128,0.100801,ag2205,4698,4699,4698,4699,15,
20220128,0.100901,ag2205,4699,4700,4699,4700,9,
20220128,0.101,ag2205,4700,4700,4699,4700,3,
20220128,0.1011,ag2205,4700,4701,4700,4701,7,
20220128,0.1012,ag2205,4701,4701,4701,4702,9,
20220128,0.1013,ag2205,4701,4700,4700,4703,19,
20220128,0.1014,ag2205,4700,4700,4700,4700,9,
20220128,0.1015,ag2205,4700,4702,4699,4702,15,
20220128,0.103001,ag2205,4702,4705,4702,4705,12,
20220128,0.1031,ag2205,4704,4707,4704,4708,58,
20220128,0.1032,ag2205,4707,4704,4704,4707,24,
20220128,0.1033,ag2205,4704,4704,4701,4704,41,
20220128,0.103402,ag2205,4704,4705,4704,4705,6,
20220128,0.103501,ag2205,4705,4703,4703,4705,7,
20220128,0.1036,ag2205,4703,4703,4702,4703,24,
20220128,0.1037,ag2205,4703,4703,4703,4704,19,
20220128,0.1038,ag2205,4703,4703,4703,4703,3,
20220128,0.1039,ag2205,4703,4703,4703,4703,8,
20220128,0.104001,ag2205,4703,4703,4702,4703,7,
20220128,0.1041,ag2205,4703,4705,4703,4705,20,
20220128,0.104203,ag2205,4705,4702,4701,4705,19,
20220128,0.1043,ag2205,4701,4703,4701,4703,7,
20220128,0.104403,ag2205,4703,4703,4702,4703,3,
20220128,0.1045,ag2205,4703,4704,4703,4704,1,
20220128,0.1046,ag2205,4704,4702,4702,4704,14,
20220128,0.1047,ag2205,4702,4703,4702,4703,8,
20220128,0.104802,ag2205,4703,4705,4703,4705,14,
20220128,0.1049,ag2205,4705,4704,4704,4705,1,
20220128,0.105,ag2205,4705,4707,4705,4707,19,
20220128,0.1051,ag2205,4707,4706,4705,4708,36,
20220128,0.1052,ag2205,4706,4710,4706,4710,61,
20220128,0.105311,ag2205,4710,4710,4710,4710,10,
20220128,0.105406,ag2205,4710,4710,4710,4710,0,
20220128,0.105503,ag2205,4710,4710,4710,4710,0,
20220128,0.105601,ag2205,4709,4709,4709,4709,0,
20220128,0.1057,ag2205,4709,4710,4709,4710,10,
20220128,0.1058,ag2205,4710,4709,4709,4710,5,
20220128,0.1059,ag2205,4709,4707,4706,4709,23,
20220128,0.11,ag2205,4707,4708,4707,4708,5,
20220128,0.1101,ag2205,4708,4707,4707,4708,9,
20220128,0.1102,ag2205,4707,4709,4707,4709,26,
20220128,0.1103,ag2205,4709,4709,4708,4709,4,
20220128,0.110401,ag2205,4709,4708,4707,4709,15,
20220128,0.110501,ag2205,4708,4709,4708,4709,1,
20220128,0.110601,ag2205,4709,4707,4707,4709,18,
20220128,0.1107,ag2205,4707,4708,4707,4708,27,
20220128,0.110801,ag2205,4708,4708,4708,4708,0,
20220128,0.1109,ag2205,4708,4707,4707,4708,2,
20220128,0.111,ag2205,4707,4707,4707,4707,7,
20220128,0.1111,ag2205,4707,4708,4707,4708,5,
20220128,0.1112,ag2205,4708,4711,4708,4711,51,
20220128,0.111302,ag2205,4711,4710,4710,4711,12,
20220128,0.1114,ag2205,4710,4711,4709,4711,9,
20220128,0.1115,ag2205,4711,4709,4709,4711,3,
20220128,0.111601,ag2205,4709,4708,4708,4709,1,
20220128,0.1117,ag2205,4708,4707,4707,4708,22,
20220128,0.1118,ag2205,4707,4705,4704,4707,43,
20220128,0.1119,ag2205,4705,4703,4702,4705,12,
20220128,0.112,ag2205,4703,4703,4703,4704,17,
20220128,0.1121,ag2205,4703,4704,4703,4706,12,
20220128,0.1122,ag2205,4704,4705,4704,4706,10,
20220128,0.1123,ag2205,4705,4704,4703,4705,16,
20220128,0.1124,ag2205,4704,4703,4702,4704,9,
20220128,0.112501,ag2205,4703,4702,4702,4703,21,
20220128,0.1126,ag2205,4702,4701,4700,4702,15,
20220128,0.1127,ag2205,4701,4701,4701,4701,14,
20220128,0.1128,ag2205,4701,4700,4700,4701,20,
20220128,0.1129,ag2205,4700,4701,4700,4702,14,
20220128,0.113,ag2205,4701,4702,4701,4704,22,
20220128,0.1331,ag2205,4702,4706,4702,4709,207,
20220128,0.1332,ag2205,4706,4708,4706,4708,28,
20220128,0.1333,ag2205,4708,4708,4708,4709,21,
20220128,0.133401,ag2205,4708,4712,4708,4714,99,
20220128,0.133501,ag2205,4712,4714,4712,4717,145,
20220128,0.1336,ag2205,4714,4711,4711,4714,108,
20220128,0.1337,ag2205,4711,4705,4702,4711,171,
20220128,0.1338,ag2205,4705,4705,4704,4706,55,
20220128,0.133901,ag2205,4705,4706,4705,4706,4,
20220128,0.134012,ag2205,4706,4706,4706,4706,0,
20220128,0.1341,ag2205,4706,4706,4705,4706,83,
20220128,0.134213,ag2205,4706,4707,4706,4708,15,
20220128,0.134304,ag2205,4707,4706,4706,4707,1,
20220128,0.134402,ag2205,4706,4705,4705,4706,12,
20220128,0.1345,ag2205,4705,4707,4705,4707,16,
20220128,0.134602,ag2205,4707,4707,4707,4707,0,
20220128,0.1347,ag2205,4707,4706,4706,4707,5,
20220128,0.1348,ag2205,4706,4705,4705,4706,26,
20220128,0.1349,ag2205,4705,4701,4701,4705,51,
20220128,0.135,ag2205,4701,4703,4701,4703,15,
20220128,0.1351,ag2205,4703,4705,4703,4705,22,
20220128,0.1352,ag2205,4705,4705,4705,4707,21,
20220128,0.1353,ag2205,4705,4705,4705,4705,4,
20220128,0.1354,ag2205,4705,4704,4704,4705,5,
20220128,0.1355,ag2205,4704,4704,4704,4704,10,
20220128,0.1356,ag2205,4704,4706,4704,4706,6,
20220128,0.1357,ag2205,4706,4703,4702,4706,30,
20220128,0.1358,ag2205,4703,4703,4702,4703,14,
20220128,0.1359,ag2205,4703,4702,4702,4703,5,
20220128,0.14,ag2205,4702,4703,4702,4703,18,
20220128,0.1401,ag2205,4703,4702,4701,4703,14,
20220128,0.1402,ag2205,4702,4701,4701,4703,28,
20220128,0.1403,ag2205,4701,4704,4701,4704,18,
20220128,0.1404,ag2205,4704,4704,4704,4704,16,
20220128,0.140502,ag2205,4704,4704,4704,4704,2,
20220128,0.140602,ag2205,4705,4706,4704,4706,34,
20220128,0.1407,ag2205,4706,4703,4703,4706,20,
20220128,0.1408,ag2205,4703,4700,4700,4703,54,
20220128,0.140901,ag2205,4700,4698,4698,4700,53,
20220128,0.141,ag2205,4698,4700,4698,4701,32,
20220128,0.1411,ag2205,4700,4701,4700,4702,31,
20220128,0.1412,ag2205,4701,4695,4695,4701,104,
20220128,0.1413,ag2205,4695,4698,4695,4698,51,
20220128,0.1414,ag2205,4698,4695,4695,4699,69,
20220128,0.1415,ag2205,4695,4695,4694,4697,59,
20220128,0.1416,ag2205,4695,4696,4695,4696,16,
20220128,0.1417,ag2205,4696,4691,4691,4696,119,
20220128,0.1418,ag2205,4691,4693,4691,4693,63,
20220128,0.1419,ag2205,4693,4697,4693,4698,35,
20220128,0.142,ag2205,4697,4698,4697,4699,9,
20220128,0.1421,ag2205,4698,4696,4696,4698,33,
20220128,0.1422,ag2205,4696,4698,4696,4701,82,
20220128,0.1423,ag2205,4698,4700,4698,4701,39,
20220128,0.1424,ag2205,4700,4699,4696,4700,30,
20220128,0.142501,ag2205,4699,4698,4698,4699,5,
20220128,0.1426,ag2205,4698,4699,4698,4700,26,
20220128,0.1427,ag2205,4699,4695,4695,4699,18,
20220128,0.1428,ag2205,4695,4695,4695,4695,16,
20220128,0.142901,ag2205,4695,4693,4693,4695,26,
20220128,0.143,ag2205,4693,4691,4690,4693,43,
20220128,0.143102,ag2205,4691,4691,4691,4694,38,
20220128,0.1432,ag2205,4691,4693,4691,4693,36,
20220128,0.1433,ag2205,4693,4694,4693,4695,30,
20220128,0.143402,ag2205,4694,4696,4694,4696,9,
20220128,0.143501,ag2205,4696,4696,4695,4697,19,
20220128,0.143604,ag2205,4696,4696,4696,4696,1,
20220128,0.143702,ag2205,4696,4696,4696,4696,0,
20220128,0.1438,ag2205,4696,4698,4696,4698,80,
20220128,0.1439,ag2205,4698,4701,4698,4701,55,
20220128,0.144,ag2205,4701,4700,4699,4701,26,
20220128,0.144101,ag2205,4700,4700,4700,4700,32,
20220128,0.1442,ag2205,4700,4700,4700,4702,72,
20220128,0.1443,ag2205,4700,4702,4700,4702,24,
20220128,0.1444,ag2205,4702,4702,4702,4702,13,
20220128,0.1445,ag2205,4702,4699,4699,4702,32,
20220128,0.1446,ag2205,4699,4699,4699,4699,2,
20220128,0.1447,ag2205,4699,4701,4699,4701,9,
20220128,0.1448,ag2205,4701,4700,4700,4701,7,
20220128,0.1449,ag2205,4700,4698,4697,4700,40,
20220128,0.145,ag2205,4698,4698,4698,4698,6,
20220128,0.145104,ag2205,4698,4699,4698,4700,42,
20220128,0.145201,ag2205,4699,4695,4695,4699,50,
20220128,0.1453,ag2205,4695,4697,4694,4697,23,
20220128,0.1454,ag2205,4697,4699,4697,4699,17,
20220128,0.1455,ag2205,4699,4698,4698,4699,68,
20220128,0.1456,ag2205,4698,4697,4697,4699,34,
20220128,0.1457,ag2205,4697,4699,4697,4699,12,
20220128,0.1458,ag2205,4700,4696,4696,4700,39,
20220128,0.1459,ag2205,4696,4695,4695,4697,25,
20220128,0.15,ag2205,4696,4694,4691,4696,168,
20220128,0.152112,ag2205,4694,4694,4694,4694,0,
