20211215,0.205901,al2112,19195,19195,19195,19195,0,
20211215,0.210001,al2112,19195,19195,19195,19195,0,
20211215,0.2101,al2112,19195,19200,19195,19200,225,
20211215,0.210207,al2112,19200,19200,19200,19200,0,
20211215,0.210308,al2112,19200,19200,19200,19200,0,
20211215,0.21063,al2112,19200,19200,19200,19200,0,
20211215,0.210925,al2112,19200,19200,19200,19200,0,
20211215,0.211015,al2112,19200,19200,19200,19200,0,
20211215,0.211557,al2112,19200,19105,19105,19200,5,
20211215,0.2116,al2112,19105,19105,19105,19105,0,
20211215,0.211741,al2112,19105,19180,19105,19180,30,
20211215,0.211805,al2112,19180,19180,19180,19180,0,
20211215,0.212004,al2112,19180,19180,19180,19180,0,
20211215,0.212308,al2112,19180,19180,19180,19180,20,
20211215,0.212418,al2112,19180,19180,19180,19180,50,
20211215,0.212528,al2112,19180,19180,19180,19180,5,
20211215,0.212608,al2112,19180,19180,19180,19180,0,
20211215,0.212714,al2112,19180,19180,19180,19180,0,
20211215,0.212939,al2112,19180,19190,19180,19190,30,
20211215,0.213107,al2112,19190,19190,19190,19190,0,
20211215,0.213347,al2112,19190,19190,19190,19190,0,
20211215,0.213447,al2112,19190,19190,19190,19190,0,
20211215,0.213605,al2112,19190,19190,19190,19190,0,
20211215,0.213731,al2112,19190,19160,19160,19190,50,
20211215,0.213809,al2112,19160,19150,19150,19160,20,
20211215,0.214117,al2112,19150,19150,19150,19150,30,
20211215,0.214307,al2112,19150,19150,19150,19150,0,
20211215,0.214519,al2112,19150,19180,19150,19180,50,
20211215,0.214706,al2112,19180,19180,19180,19180,0,
20211215,0.214814,al2112,19180,19180,19180,19180,0,
20211215,0.215135,al2112,19180,19180,19180,19180,0,
20211215,0.215324,al2112,19180,19180,19180,19180,0,
20211215,0.215438,al2112,19180,19180,19180,19180,0,
20211215,0.215503,al2112,19180,19180,19180,19180,0,
20211215,0.215622,al2112,19180,19150,19150,19180,20,
20211215,0.215707,al2112,19150,19150,19150,19150,0,
20211215,0.220003,al2112,19150,19150,19150,19150,20,
20211215,0.220144,al2112,19140,19140,19140,19140,0,
20211215,0.220312,al2112,19140,19140,19140,19140,0,
20211215,0.220411,al2112,19140,19140,19140,19140,0,
20211215,0.220627,al2112,19140,19140,19140,19140,0,
20211215,0.220812,al2112,19140,19140,19140,19140,0,
20211215,0.220913,al2112,19140,19140,19140,19140,20,
20211215,0.221025,al2112,19140,19140,19140,19140,0,
20211215,0.221352,al2112,19140,19140,19140,19140,0,
20211215,0.221407,al2112,19140,19140,19140,19140,0,
20211215,0.221527,al2112,19140,19140,19140,19140,0,
20211215,0.221618,al2112,19140,19140,19140,19140,0,
20211215,0.221714,al2112,19140,19140,19140,19140,0,
20211215,0.221805,al2112,19140,19140,19140,19140,0,
20211215,0.221901,al2112,19140,19140,19140,19140,0,
20211215,0.222115,al2112,19140,19140,19140,19140,10,
20211215,0.222215,al2112,19140,19140,19140,19140,5,
20211215,0.222635,al2112,19140,19140,19140,19140,0,
20211215,0.222718,al2112,19140,19140,19140,19140,0,
20211215,0.222921,al2112,19135,19135,19135,19135,0,
20211215,0.223018,al2112,19135,19135,19135,19135,0,
20211215,0.223114,al2112,19135,19135,19135,19135,0,
20211215,0.223228,al2112,19135,19140,19135,19140,10,
20211215,0.224143,al2112,19180,19180,19180,19180,0,
20211215,0.224412,al2112,19180,19180,19180,19180,0,
20211215,0.224501,al2112,19180,19180,19180,19180,0,
20211215,0.224739,al2112,19180,19180,19180,19180,0,
20211215,0.224808,al2112,19180,19160,19160,19180,10,
20211215,0.224915,al2112,19150,19150,19150,19150,0,
20211215,0.225122,al2112,19150,19150,19150,19150,0,
20211215,0.225204,al2112,19150,19150,19150,19150,0,
20211215,0.225942,al2112,19150,19150,19150,19150,0,
20211215,0.230022,al2112,19150,19150,19150,19150,0,
20211215,0.231121,al2112,19150,19150,19150,19150,0,
20211215,0.231401,al2112,19150,19150,19150,19150,0,
20211215,0.231535,al2112,19150,19150,19150,19150,0,
20211215,0.233831,al2112,19150,19150,19150,19150,0,
20211215,0.234017,al2112,19150,19150,19150,19150,0,
20211215,0.234113,al2112,19150,19150,19150,19150,0,
20211215,0.234218,al2112,19150,19155,19150,19155,5,
20211215,0.234633,al2112,19155,19155,19155,19155,0,
20211215,0.235302,al2112,19155,19155,19155,19155,0,
20211215,0.235537,al2112,19155,19155,19155,19155,0,
20211215,0.235622,al2112,19155,19155,19155,19155,0,
20211215,0.235934,al2112,19155,19155,19155,19155,0,
20211215,5e-06,al2112,19155,19155,19155,19155,0,
20211215,0.000104,al2112,19155,19155,19155,19155,0,
20211215,0.00024,al2112,19155,19155,19155,19155,0,
20211215,0.000324,al2112,19155,19155,19155,19155,5,
20211215,0.000431,al2112,19155,19155,19155,19155,0,
20211215,0.000535,al2112,19155,19155,19155,19155,0,
20211215,0.000618,al2112,19155,19155,19155,19155,0,
20211215,0.000809,al2112,19155,19155,19155,19155,0,
20211215,0.001158,al2112,19155,19155,19155,19155,0,
20211215,0.001207,al2112,19155,19155,19155,19155,0,
20211215,0.001353,al2112,19155,19155,19155,19155,0,
20211215,0.001406,al2112,19155,19155,19155,19155,0,
20211215,0.001619,al2112,19155,19155,19155,19155,0,
20211215,0.001704,al2112,19155,19155,19155,19155,0,
20211215,0.001802,al2112,19155,19155,19155,19155,0,
20211215,0.001919,al2112,19155,19155,19155,19155,0,
20211215,0.002005,al2112,19155,19155,19155,19155,0,
20211215,0.002113,al2112,19155,19155,19155,19155,0,
20211215,0.002214,al2112,19155,19155,19155,19155,0,
20211215,0.0023,al2112,19155,19155,19155,19155,0,
20211215,0.002434,al2112,19155,19155,19155,19155,0,
20211215,0.00252,al2112,19155,19155,19155,19155,0,
20211215,0.002638,al2112,19155,19155,19155,19155,0,
20211215,0.0028,al2112,19155,19155,19155,19155,0,
20211215,0.002924,al2112,19155,19155,19155,19155,0,
20211215,0.003207,al2112,19155,19155,19155,19155,0,
20211215,0.003302,al2112,19155,19155,19155,19155,0,
20211215,0.0034,al2112,19155,19155,19155,19155,0,
20211215,0.003634,al2112,19155,19155,19155,19155,0,
20211215,0.003826,al2112,19155,19155,19155,19155,0,
20211215,0.003902,al2112,19155,19155,19155,19155,0,
20211215,0.004026,al2112,19155,19155,19155,19155,0,
20211215,0.004206,al2112,19155,19155,19155,19155,0,
20211215,0.004315,al2112,19155,19155,19155,19155,0,
20211215,0.004418,al2112,19155,19155,19155,19155,0,
20211215,0.004503,al2112,19155,19155,19155,19155,0,
20211215,0.004658,al2112,19155,19155,19155,19155,0,
20211215,0.004702,al2112,19155,19155,19155,19155,0,
20211215,0.00494,al2112,19155,19150,19150,19155,5,
20211215,0.005018,al2112,19150,19145,19145,19150,5,
20211215,0.005104,al2112,19140,19140,19140,19140,0,
20211215,0.005227,al2112,19140,19140,19140,19140,0,
20211215,0.005402,al2112,19130,19130,19130,19130,0,
20211215,0.005525,al2112,19130,19130,19130,19130,0,
20211215,0.005604,al2112,19130,19130,19130,19130,0,
20211215,0.010002,al2112,19130,19130,19130,19130,0,
20211215,0.090102,al2112,19130,19100,19100,19130,55,
20211215,0.090214,al2112,19100,19095,19095,19100,75,
20211215,0.090306,al2112,19095,19095,19095,19095,0,
20211215,0.090405,al2112,19095,19100,19095,19100,10,
20211215,0.090502,al2112,19100,19100,19100,19100,55,
20211215,0.090611,al2112,19100,19090,19090,19150,60,
20211215,0.090714,al2112,19090,19090,19090,19090,440,
20211215,0.090821,al2112,19090,19090,19090,19090,0,
20211215,0.090921,al2112,19090,19090,19090,19090,0,
20211215,0.091,al2112,19090,19090,19090,19090,0,
20211215,0.091112,al2112,19090,19090,19090,19090,0,
20211215,0.091223,al2112,19090,19090,19090,19090,0,
20211215,0.091302,al2112,19090,19090,19090,19090,5,
20211215,0.091421,al2112,19090,19090,19090,19090,0,
20211215,0.091512,al2112,19090,19080,19080,19090,10,
20211215,0.091621,al2112,19080,19080,19080,19080,0,
20211215,0.091716,al2112,19080,19080,19080,19080,0,
20211215,0.091802,al2112,19080,19070,19070,19080,10,
20211215,0.091909,al2112,19070,19060,19060,19070,20,
20211215,0.092006,al2112,19060,19050,19050,19060,45,
20211215,0.092106,al2112,19030,19000,19000,19030,10,
20211215,0.092208,al2112,19000,19090,19000,19090,15,
20211215,0.0923,al2112,19000,19090,19000,19090,55,
20211215,0.092413,al2112,19090,19035,19035,19090,25,
20211215,0.09251,al2112,19035,19050,19035,19050,50,
20211215,0.0926,al2112,19050,19050,19050,19050,0,
20211215,0.092711,al2112,19050,19030,19030,19050,40,
20211215,0.092809,al2112,19030,19030,19030,19030,0,
20211215,0.092954,al2112,19030,19030,19030,19030,0,
20211215,0.093011,al2112,19030,19030,19030,19030,20,
20211215,0.093134,al2112,19030,19000,19000,19030,40,
20211215,0.0932,al2112,19000,19000,19000,19000,0,
20211215,0.09331,al2112,19000,19000,19000,19000,0,
20211215,0.093441,al2112,19000,19000,19000,19000,0,
20211215,0.093516,al2112,19000,19000,19000,19000,5,
20211215,0.093643,al2112,19000,19000,19000,19000,0,
20211215,0.093705,al2112,19000,19000,19000,19000,0,
20211215,0.093855,al2112,19000,19000,19000,19000,0,
20211215,0.094025,al2112,19000,19000,19000,19000,0,
20211215,0.094121,al2112,19000,19000,19000,19000,0,
20211215,0.094209,al2112,19000,19000,19000,19000,5,
20211215,0.094308,al2112,19000,19000,19000,19000,0,
20211215,0.094424,al2112,19000,19000,19000,19000,0,
20211215,0.094511,al2112,19000,19000,19000,19000,5,
20211215,0.094629,al2112,19000,18990,18990,19000,20,
20211215,0.094718,al2112,18990,18990,18990,18990,0,
20211215,0.094822,al2112,18990,18990,18990,18990,0,
20211215,0.094903,al2112,18990,18990,18990,18990,0,
20211215,0.095009,al2112,18990,19000,18990,19000,10,
20211215,0.095108,al2112,19000,19000,19000,19000,0,
20211215,0.095226,al2112,19000,19000,19000,19000,0,
20211215,0.095328,al2112,19000,19000,19000,19000,50,
20211215,0.095405,al2112,19000,19000,19000,19000,0,
20211215,0.095545,al2112,19000,19000,19000,19000,0,
20211215,0.095601,al2112,19020,19020,19020,19020,0,
20211215,0.095749,al2112,19020,19030,19020,19030,10,
20211215,0.095801,al2112,19030,19030,19030,19030,0,
20211215,0.095933,al2112,19030,19030,19030,19030,0,
20211215,0.100002,al2112,19030,19030,19030,19030,0,
20211215,0.100207,al2112,19030,19030,19030,19030,0,
20211215,0.100308,al2112,19030,19030,19030,19030,0,
20211215,0.100408,al2112,19080,19090,19080,19090,60,
20211215,0.100519,al2112,19090,19090,19090,19090,10,
20211215,0.100609,al2112,19090,19090,19080,19090,50,
20211215,0.100717,al2112,19090,19100,19090,19100,70,
20211215,0.100819,al2112,19100,19100,19100,19100,0,
20211215,0.1009,al2112,19100,19100,19100,19100,0,
20211215,0.101012,al2112,19100,19080,19080,19100,10,
20211215,0.101103,al2112,19080,19080,19080,19080,0,
20211215,0.10122,al2112,19090,19110,19090,19110,20,
20211215,0.101314,al2112,19110,19120,19110,19120,30,
20211215,0.101401,al2112,19120,19120,19120,19120,25,
20211215,0.101501,al2112,19120,19120,19120,19120,20,
20211215,0.103001,al2112,19120,19120,19120,19120,0,
20211215,0.103105,al2112,19090,19090,19090,19090,60,
20211215,0.103202,al2112,19090,19090,19085,19090,65,
20211215,0.103319,al2112,19085,19090,19085,19090,50,
20211215,0.103506,al2112,19090,19085,19085,19090,20,
20211215,0.103626,al2112,19085,19085,19085,19085,0,
20211215,0.103706,al2112,19085,19085,19085,19085,0,
20211215,0.103801,al2112,19085,19060,19060,19085,35,
20211215,0.103919,al2112,19060,19060,19060,19060,0,
20211215,0.1042,al2112,19060,19060,19060,19060,30,
20211215,0.104511,al2112,19060,19060,19060,19060,0,
20211215,0.104648,al2112,19060,19060,19060,19060,0,
20211215,0.10473,al2112,19060,19060,19060,19060,0,
20211215,0.104836,al2112,19060,19075,19060,19075,5,
20211215,0.104925,al2112,19075,19075,19075,19075,0,
20211215,0.105218,al2112,19075,19075,19075,19075,0,
20211215,0.105319,al2112,19075,19075,19075,19075,0,
20211215,0.105644,al2112,19075,19075,19075,19075,0,
20211215,0.10572,al2112,19075,19075,19075,19075,0,
20211215,0.105806,al2112,19080,19080,19080,19080,0,
20211215,0.105955,al2112,19080,19080,19080,19080,30,
20211215,0.110002,al2112,19080,19080,19080,19080,0,
20211215,0.110252,al2112,19080,19080,19080,19080,0,
20211215,0.11035,al2112,19080,19080,19080,19080,0,
20211215,0.110654,al2112,19080,19080,19080,19080,0,
20211215,0.111053,al2112,19080,19080,19080,19080,0,
20211215,0.111219,al2112,19080,19080,19080,19080,0,
20211215,0.111303,al2112,19080,19050,19050,19080,10,
20211215,0.111418,al2112,19050,19050,19050,19050,0,
20211215,0.111544,al2112,19050,19050,19050,19050,0,
20211215,0.111724,al2112,19050,19050,19050,19050,0,
20211215,0.111847,al2112,19050,19000,19000,19050,5,
20211215,0.112021,al2112,19000,19000,19000,19000,0,
20211215,0.112103,al2112,19000,19000,19000,19000,0,
20211215,0.112203,al2112,19000,19000,19000,19000,0,
20211215,0.112315,al2112,19000,19000,19000,19000,0,
20211215,0.112509,al2112,19000,19000,19000,19000,0,
20211215,0.11263,al2112,19000,19020,19000,19020,50,
20211215,0.112754,al2112,19020,19020,19020,19020,0,
20211215,0.112858,al2112,19020,19020,19020,19020,0,
20211215,0.112913,al2112,19020,19020,19020,19020,0,
20211215,0.113001,al2112,19020,19020,19020,19020,5,
