20220110,0.205901,hc2205,4670,4670,4670,4670,0,
20220110,0.210001,hc2205,4674,4674,4674,4674,0,
20220110,0.2101,hc2205,4675,4670,4668,4683,6361,
20220110,0.2102,hc2205,4669,4666,4666,4671,2417,
20220110,0.2103,hc2205,4665,4671,4664,4672,2981,
20220110,0.2104,hc2205,4670,4663,4662,4671,2330,
20220110,0.2105,hc2205,4664,4663,4663,4670,1222,
20220110,0.2106,hc2205,4663,4671,4662,4673,2119,
20220110,0.2107,hc2205,4671,4677,4671,4677,1822,
20220110,0.2108,hc2205,4677,4674,4674,4680,1348,
20220110,0.2109,hc2205,4675,4674,4674,4678,1736,
20220110,0.211,hc2205,4674,4669,4668,4677,881,
20220110,0.2111,hc2205,4667,4669,4664,4670,1313,
20220110,0.2112,hc2205,4670,4669,4666,4672,953,
20220110,0.2113,hc2205,4668,4669,4666,4669,865,
20220110,0.2114,hc2205,4667,4665,4665,4668,977,
20220110,0.2115,hc2205,4665,4672,4665,4674,886,
20220110,0.2116,hc2205,4673,4674,4672,4675,714,
20220110,0.2117,hc2205,4674,4674,4671,4675,553,
20220110,0.2118,hc2205,4674,4670,4670,4675,788,
20220110,0.2119,hc2205,4671,4670,4668,4672,590,
20220110,0.212,hc2205,4670,4673,4666,4673,981,
20220110,0.2121,hc2205,4672,4671,4670,4673,657,
20220110,0.2122,hc2205,4671,4668,4667,4672,439,
20220110,0.2123,hc2205,4668,4668,4667,4669,467,
20220110,0.2124,hc2205,4669,4668,4667,4670,402,
20220110,0.2125,hc2205,4669,4673,4669,4674,765,
20220110,0.2126,hc2205,4674,4671,4670,4675,561,
20220110,0.2127,hc2205,4671,4668,4668,4673,503,
20220110,0.2128,hc2205,4668,4667,4667,4670,273,
20220110,0.2129,hc2205,4667,4666,4665,4669,677,
20220110,0.213,hc2205,4666,4664,4664,4669,572,
20220110,0.2131,hc2205,4662,4671,4662,4671,659,
20220110,0.2132,hc2205,4671,4668,4668,4672,283,
20220110,0.2133,hc2205,4668,4665,4664,4669,719,
20220110,0.2134,hc2205,4665,4668,4665,4670,324,
20220110,0.2135,hc2205,4668,4669,4667,4670,222,
20220110,0.213601,hc2205,4669,4668,4668,4670,226,
20220110,0.2137,hc2205,4668,4663,4662,4668,726,
20220110,0.2138,hc2205,4663,4666,4663,4667,379,
20220110,0.2139,hc2205,4666,4667,4666,4668,229,
20220110,0.214,hc2205,4666,4665,4664,4668,224,
20220110,0.2141,hc2205,4666,4664,4664,4666,508,
20220110,0.2142,hc2205,4664,4661,4660,4665,1091,
20220110,0.2143,hc2205,4661,4664,4661,4665,423,
20220110,0.2144,hc2205,4665,4661,4661,4665,566,
20220110,0.2145,hc2205,4661,4663,4661,4664,666,
20220110,0.2146,hc2205,4663,4665,4663,4666,307,
20220110,0.2147,hc2205,4666,4668,4665,4668,401,
20220110,0.2148,hc2205,4668,4665,4665,4668,292,
20220110,0.2149,hc2205,4666,4664,4663,4666,279,
20220110,0.215001,hc2205,4664,4662,4662,4665,298,
20220110,0.2151,hc2205,4662,4664,4662,4665,360,
20220110,0.2152,hc2205,4664,4657,4657,4664,1207,
20220110,0.2153,hc2205,4655,4661,4655,4662,1264,
20220110,0.2154,hc2205,4661,4662,4660,4663,416,
20220110,0.2155,hc2205,4662,4659,4659,4662,387,
20220110,0.2156,hc2205,4659,4660,4658,4662,585,
20220110,0.2157,hc2205,4660,4660,4659,4661,274,
20220110,0.2158,hc2205,4660,4658,4657,4660,612,
20220110,0.2159,hc2205,4659,4658,4657,4659,217,
20220110,0.22,hc2205,4658,4662,4658,4662,357,
20220110,0.2201,hc2205,4662,4663,4662,4663,371,
20220110,0.2202,hc2205,4663,4659,4658,4663,400,
20220110,0.2203,hc2205,4660,4663,4658,4663,406,
20220110,0.2204,hc2205,4663,4659,4658,4663,360,
20220110,0.2205,hc2205,4660,4658,4658,4660,356,
20220110,0.2206,hc2205,4659,4661,4658,4662,236,
20220110,0.2207,hc2205,4661,4664,4659,4664,292,
20220110,0.2208,hc2205,4664,4664,4662,4664,242,
20220110,0.2209,hc2205,4663,4666,4663,4667,558,
20220110,0.221,hc2205,4666,4662,4661,4666,523,
20220110,0.2211,hc2205,4662,4662,4661,4664,230,
20220110,0.2212,hc2205,4662,4661,4659,4663,304,
20220110,0.2213,hc2205,4661,4658,4658,4661,531,
20220110,0.2214,hc2205,4658,4659,4658,4659,286,
20220110,0.2215,hc2205,4659,4664,4659,4664,337,
20220110,0.2216,hc2205,4664,4664,4662,4664,221,
20220110,0.2217,hc2205,4664,4662,4662,4664,157,
20220110,0.2218,hc2205,4662,4661,4660,4663,244,
20220110,0.2219,hc2205,4661,4659,4658,4661,361,
20220110,0.222,hc2205,4659,4659,4658,4660,261,
20220110,0.2221,hc2205,4659,4662,4659,4663,484,
20220110,0.2222,hc2205,4662,4663,4661,4664,161,
20220110,0.2223,hc2205,4663,4664,4663,4664,236,
20220110,0.2224,hc2205,4664,4666,4663,4667,921,
20220110,0.2225,hc2205,4666,4666,4665,4666,160,
20220110,0.2226,hc2205,4665,4671,4665,4673,1664,
20220110,0.2227,hc2205,4671,4670,4669,4672,370,
20220110,0.2228,hc2205,4670,4669,4669,4672,421,
20220110,0.2229,hc2205,4670,4669,4667,4671,462,
20220110,0.223,hc2205,4669,4667,4667,4669,124,
20220110,0.2231,hc2205,4667,4672,4666,4672,369,
20220110,0.2232,hc2205,4671,4669,4669,4672,221,
20220110,0.2233,hc2205,4669,4664,4664,4670,486,
20220110,0.2234,hc2205,4664,4666,4663,4666,186,
20220110,0.2235,hc2205,4665,4662,4661,4665,536,
20220110,0.2236,hc2205,4662,4662,4661,4663,505,
20220110,0.2237,hc2205,4662,4663,4661,4664,544,
20220110,0.2238,hc2205,4663,4666,4663,4666,511,
20220110,0.2239,hc2205,4665,4667,4665,4668,289,
20220110,0.224,hc2205,4667,4667,4667,4668,319,
20220110,0.2241,hc2205,4667,4668,4666,4668,391,
20220110,0.2242,hc2205,4667,4664,4664,4670,677,
20220110,0.2243,hc2205,4664,4662,4660,4664,838,
20220110,0.2244,hc2205,4662,4661,4661,4662,81,
20220110,0.2245,hc2205,4662,4662,4661,4663,215,
20220110,0.2246,hc2205,4662,4666,4661,4666,579,
20220110,0.224701,hc2205,4666,4664,4664,4667,170,
20220110,0.2248,hc2205,4665,4664,4663,4665,379,
20220110,0.2249,hc2205,4663,4665,4663,4665,125,
20220110,0.225,hc2205,4665,4663,4663,4665,166,
20220110,0.2251,hc2205,4663,4665,4662,4665,202,
20220110,0.2252,hc2205,4665,4664,4664,4667,463,
20220110,0.2253,hc2205,4663,4663,4661,4664,584,
20220110,0.2254,hc2205,4664,4665,4662,4665,283,
20220110,0.2255,hc2205,4663,4663,4661,4665,219,
20220110,0.2256,hc2205,4662,4661,4659,4664,724,
20220110,0.2257,hc2205,4661,4660,4659,4661,482,
20220110,0.2258,hc2205,4660,4660,4658,4661,520,
20220110,0.2259,hc2205,4660,4656,4656,4660,1272,
20220110,0.23,hc2205,4656,4653,4652,4658,2414,
