20220110,0.205901,hc2203,4785,4785,4785,4785,0,
20220110,0.210001,hc2203,4785,4785,4785,4785,0,
20220110,0.210101,hc2203,4785,4786,4785,4792,18,
20220110,0.2102,hc2203,4786,4786,4784,4786,11,
20220110,0.2103,hc2203,4786,4786,4784,4786,27,
20220110,0.2104,hc2203,4789,4782,4782,4789,10,
20220110,0.2105,hc2203,4782,4778,4778,4782,73,
20220110,0.2106,hc2203,4778,4779,4778,4781,15,
20220110,0.2107,hc2203,4779,4786,4779,4786,72,
20220110,0.2108,hc2203,4786,4782,4782,4786,5,
20220110,0.2109,hc2203,4782,4785,4782,4785,4,
20220110,0.211,hc2203,4785,4785,4783,4787,13,
20220110,0.2111,hc2203,4785,4783,4782,4785,19,
20220110,0.2112,hc2203,4783,4787,4783,4787,5,
20220110,0.2113,hc2203,4787,4786,4785,4787,7,
20220110,0.2114,hc2203,4786,4786,4786,4786,1,
20220110,0.2115,hc2203,4786,4795,4786,4795,7,
20220110,0.2116,hc2203,4795,4792,4790,4795,152,
20220110,0.2117,hc2203,4792,4791,4790,4792,13,
20220110,0.2118,hc2203,4791,4790,4788,4791,22,
20220110,0.2119,hc2203,4790,4789,4788,4790,9,
20220110,0.212,hc2203,4789,4792,4788,4792,17,
20220110,0.2121,hc2203,4792,4790,4790,4792,2,
20220110,0.2122,hc2203,4790,4788,4788,4790,2,
20220110,0.2123,hc2203,4788,4788,4788,4788,0,
20220110,0.2124,hc2203,4788,4788,4788,4788,0,
20220110,0.2125,hc2203,4788,4791,4788,4791,1,
20220110,0.2126,hc2203,4791,4791,4791,4795,2,
20220110,0.2127,hc2203,4791,4791,4791,4792,3,
20220110,0.2128,hc2203,4791,4791,4790,4792,7,
20220110,0.2129,hc2203,4791,4787,4787,4791,6,
20220110,0.213,hc2203,4787,4786,4786,4788,7,
20220110,0.2131,hc2203,4785,4790,4785,4790,2,
20220110,0.2132,hc2203,4790,4791,4790,4791,3,
20220110,0.2133,hc2203,4791,4789,4789,4791,25,
20220110,0.2134,hc2203,4789,4789,4789,4789,0,
20220110,0.2135,hc2203,4789,4789,4789,4789,0,
20220110,0.2136,hc2203,4789,4789,4789,4789,0,
20220110,0.2137,hc2203,4789,4783,4783,4790,51,
20220110,0.2138,hc2203,4783,4785,4783,4785,3,
20220110,0.2139,hc2203,4785,4785,4785,4785,0,
20220110,0.214,hc2203,4785,4785,4785,4785,1,
20220110,0.2141,hc2203,4785,4785,4785,4785,2,
20220110,0.2142,hc2203,4785,4783,4783,4785,3,
20220110,0.2143,hc2203,4783,4783,4783,4783,0,
20220110,0.2144,hc2203,4783,4782,4782,4784,3,
20220110,0.2145,hc2203,4782,4784,4782,4784,1,
20220110,0.2146,hc2203,4784,4784,4784,4784,0,
20220110,0.2147,hc2203,4784,4784,4784,4784,0,
20220110,0.2148,hc2203,4784,4784,4784,4784,3,
20220110,0.2149,hc2203,4784,4784,4784,4784,0,
20220110,0.215,hc2203,4784,4784,4784,4784,0,
20220110,0.2151,hc2203,4784,4784,4784,4784,0,
20220110,0.2152,hc2203,4784,4778,4778,4784,12,
20220110,0.2153,hc2203,4776,4779,4776,4779,4,
20220110,0.2154,hc2203,4779,4779,4779,4779,0,
20220110,0.2155,hc2203,4779,4779,4779,4779,0,
20220110,0.2156,hc2203,4779,4781,4779,4781,2,
20220110,0.2157,hc2203,4781,4781,4781,4781,0,
20220110,0.2158,hc2203,4781,4781,4781,4781,0,
20220110,0.2159,hc2203,4781,4781,4781,4781,0,
20220110,0.22,hc2203,4781,4781,4781,4781,0,
20220110,0.2201,hc2203,4781,4781,4781,4781,0,
20220110,0.2202,hc2203,4781,4781,4781,4781,0,
20220110,0.2203,hc2203,4781,4784,4781,4784,6,
20220110,0.2204,hc2203,4784,4783,4782,4784,3,
20220110,0.2205,hc2203,4783,4782,4782,4783,3,
20220110,0.2206,hc2203,4782,4782,4782,4782,3,
20220110,0.2207,hc2203,4782,4782,4782,4782,0,
20220110,0.2208,hc2203,4782,4782,4782,4782,0,
20220110,0.2209,hc2203,4782,4789,4782,4789,1,
20220110,0.221,hc2203,4789,4789,4789,4789,0,
20220110,0.2211,hc2203,4789,4789,4789,4789,0,
20220110,0.2212,hc2203,4789,4789,4789,4789,0,
20220110,0.2213,hc2203,4789,4781,4781,4789,3,
20220110,0.2214,hc2203,4781,4781,4781,4781,3,
20220110,0.2215,hc2203,4781,4785,4781,4785,1,
20220110,0.2216,hc2203,4785,4785,4785,4785,2,
20220110,0.2217,hc2203,4785,4785,4785,4785,0,
20220110,0.2218,hc2203,4785,4785,4785,4785,1,
20220110,0.2219,hc2203,4785,4785,4785,4785,0,
20220110,0.222,hc2203,4785,4785,4785,4785,0,
20220110,0.2221,hc2203,4785,4785,4785,4785,0,
20220110,0.2222,hc2203,4785,4785,4785,4785,0,
20220110,0.2223,hc2203,4785,4785,4785,4785,0,
20220110,0.2224,hc2203,4785,4785,4785,4785,0,
20220110,0.2225,hc2203,4785,4785,4785,4785,0,
20220110,0.2226,hc2203,4785,4794,4785,4794,3,
20220110,0.2227,hc2203,4794,4794,4794,4794,0,
20220110,0.2228,hc2203,4794,4793,4793,4794,1,
20220110,0.2229,hc2203,4793,4792,4788,4793,8,
20220110,0.223,hc2203,4792,4788,4788,4792,5,
20220110,0.2231,hc2203,4788,4792,4788,4792,4,
20220110,0.2232,hc2203,4792,4793,4792,4793,3,
20220110,0.2233,hc2203,4793,4786,4786,4793,5,
20220110,0.2234,hc2203,4786,4786,4786,4786,0,
20220110,0.2235,hc2203,4786,4786,4784,4786,12,
20220110,0.2236,hc2203,4786,4782,4782,4786,10,
20220110,0.2237,hc2203,4782,4783,4782,4783,1,
20220110,0.2238,hc2203,4783,4783,4783,4783,0,
20220110,0.2239,hc2203,4783,4783,4783,4783,0,
20220110,0.224,hc2203,4783,4783,4783,4783,0,
20220110,0.2241,hc2203,4783,4783,4783,4783,0,
20220110,0.2242,hc2203,4783,4786,4783,4786,5,
20220110,0.2243,hc2203,4786,4784,4782,4786,4,
20220110,0.2244,hc2203,4784,4784,4784,4784,0,
20220110,0.2245,hc2203,4784,4784,4784,4784,0,
20220110,0.2246,hc2203,4784,4785,4784,4785,3,
20220110,0.2247,hc2203,4785,4785,4785,4785,0,
20220110,0.2248,hc2203,4785,4785,4785,4785,0,
20220110,0.2249,hc2203,4785,4785,4785,4785,0,
20220110,0.225,hc2203,4785,4785,4785,4785,0,
20220110,0.2251,hc2203,4782,4782,4782,4782,5,
20220110,0.2252,hc2203,4782,4786,4782,4786,3,
20220110,0.2253,hc2203,4786,4786,4786,4786,0,
20220110,0.2254,hc2203,4786,4786,4786,4786,0,
20220110,0.2255,hc2203,4786,4786,4786,4786,0,
20220110,0.2256,hc2203,4786,4780,4778,4786,16,
20220110,0.2257,hc2203,4780,4779,4779,4780,15,
20220110,0.2258,hc2203,4779,4783,4779,4783,4,
20220110,0.225901,hc2203,4783,4782,4782,4783,3,
20220110,0.230001,hc2203,4782,4785,4778,4785,2,
