,datetime,recordid,tradingday,klinetime,instrumentid,open,close,low,high,vol
0,2021-11-22 20:59:00,00000001,20211122.0,0.2059,a2201,6279.0,6279.0,6279.0,6279.0,0.0
1,2021-11-22 21:00:00,00000002,20211122.0,0.210001,a2201,6276.0,6276.0,6276.0,6276.0,0.0
2,2021-11-22 21:01:00,00000003,20211122.0,0.2101,a2201,6268.0,6267.0,6255.0,6276.0,6032.0
3,2021-11-22 21:02:00,00000004,20211122.0,0.2102,a2201,6268.0,6264.0,6261.0,6269.0,2726.0
4,2021-11-22 21:03:00,00000005,20211122.0,0.2103,a2201,6264.0,6272.0,6264.0,6273.0,2118.0
5,2021-11-22 21:04:00,00000006,20211122.0,0.2104,a2201,6272.0,6257.0,6256.0,6272.0,2250.0
6,2021-11-22 21:05:00,00000007,20211122.0,0.2105,a2201,6256.0,6253.0,6253.0,6258.0,2274.0
7,2021-11-22 21:06:00,00000008,20211122.0,0.2106,a2201,6253.0,6251.0,6250.0,6257.0,3182.0
8,2021-11-22 21:07:00,00000009,20211122.0,0.2107,a2201,6251.0,6260.0,6250.0,6260.0,1179.0
9,2021-11-22 21:08:00,00000010,20211122.0,0.2108,a2201,6260.0,6255.0,6255.0,6261.0,1001.0
10,2021-11-22 21:09:00,00000011,20211122.0,0.2109,a2201,6256.0,6259.0,6254.0,6261.0,967.0
11,2021-11-22 21:10:00,00000012,20211122.0,0.211,a2201,6259.0,6262.0,6254.0,6262.0,1090.0
12,2021-11-22 21:11:00,00000013,20211122.0,0.2111,a2201,6263.0,6263.0,6257.0,6264.0,1184.0
13,2021-11-22 21:12:00,00000014,20211122.0,0.2112,a2201,6263.0,6265.0,6263.0,6269.0,904.0
14,2021-11-22 21:13:00,00000015,20211122.0,0.2113,a2201,6266.0,6267.0,6264.0,6270.0,623.0
15,2021-11-22 21:14:00,00000016,20211122.0,0.2114,a2201,6267.0,6270.0,6264.0,6275.0,1040.0
16,2021-11-22 21:15:00,00000017,20211122.0,0.2115,a2201,6270.0,6271.0,6268.0,6273.0,967.0
17,2021-11-22 21:16:00,00000018,20211122.0,0.2116,a2201,6271.0,6268.0,6268.0,6273.0,1000.0
18,2021-11-22 21:17:00,00000019,20211122.0,0.2117,a2201,6269.0,6271.0,6269.0,6272.0,492.0
19,2021-11-22 21:18:00,00000020,20211122.0,0.2118,a2201,6271.0,6267.0,6267.0,6271.0,302.0
20,2021-11-22 21:19:00,00000021,20211122.0,0.2119,a2201,6266.0,6265.0,6263.0,6268.0,411.0
21,2021-11-22 21:20:00,00000022,20211122.0,0.212,a2201,6264.0,6261.0,6261.0,6265.0,427.0
22,2021-11-22 21:21:00,00000023,20211122.0,0.2121,a2201,6261.0,6260.0,6259.0,6264.0,775.0
23,2021-11-22 21:22:00,00000024,20211122.0,0.2122,a2201,6260.0,6261.0,6260.0,6262.0,173.0
24,2021-11-22 21:23:00,00000025,20211122.0,0.2123,a2201,6261.0,6257.0,6257.0,6262.0,394.0
25,2021-11-22 21:24:00,00000026,20211122.0,0.212401,a2201,6257.0,6259.0,6256.0,6260.0,289.0
26,2021-11-22 21:25:00,00000027,20211122.0,0.2125,a2201,6259.0,6259.0,6257.0,6260.0,338.0
27,2021-11-22 21:26:00,00000028,20211122.0,0.2126,a2201,6258.0,6259.0,6255.0,6260.0,835.0
28,2021-11-22 21:27:00,00000029,20211122.0,0.2127,a2201,6258.0,6258.0,6257.0,6261.0,390.0
29,2021-11-22 21:28:00,00000030,20211122.0,0.212801,a2201,6257.0,6259.0,6256.0,6260.0,251.0
30,2021-11-22 21:29:00,00000031,20211122.0,0.212901,a2201,6258.0,6257.0,6255.0,6258.0,381.0
31,2021-11-22 21:30:00,00000032,20211122.0,0.213,a2201,6257.0,6260.0,6257.0,6260.0,248.0
32,2021-11-22 21:31:00,00000033,20211122.0,0.2131,a2201,6259.0,6258.0,6258.0,6260.0,186.0
33,2021-11-22 21:32:00,00000034,20211122.0,0.2132,a2201,6258.0,6257.0,6253.0,6258.0,870.0
34,2021-11-22 21:33:00,00000035,20211122.0,0.2133,a2201,6256.0,6254.0,6252.0,6256.0,304.0
35,2021-11-22 21:34:00,00000036,20211122.0,0.2134,a2201,6255.0,6252.0,6251.0,6256.0,635.0
36,2021-11-22 21:35:00,00000037,20211122.0,0.2135,a2201,6252.0,6252.0,6251.0,6254.0,342.0
37,2021-11-22 21:36:00,00000038,20211122.0,0.2136,a2201,6251.0,6253.0,6251.0,6254.0,240.0
38,2021-11-22 21:37:00,00000039,20211122.0,0.2137,a2201,6253.0,6260.0,6251.0,6261.0,542.0
39,2021-11-22 21:38:00,00000040,20211122.0,0.2138,a2201,6260.0,6261.0,6256.0,6261.0,506.0
40,2021-11-22 21:39:00,00000041,20211122.0,0.2139,a2201,6261.0,6256.0,6255.0,6261.0,362.0
41,2021-11-22 21:40:00,00000042,20211122.0,0.214,a2201,6256.0,6260.0,6256.0,6260.0,210.0
42,2021-11-22 21:41:00,00000043,20211122.0,0.2141,a2201,6260.0,6263.0,6259.0,6264.0,310.0
43,2021-11-22 21:42:00,00000044,20211122.0,0.2142,a2201,6263.0,6264.0,6260.0,6265.0,319.0
44,2021-11-22 21:43:00,00000045,20211122.0,0.2143,a2201,6264.0,6266.0,6263.0,6267.0,285.0
45,2021-11-22 21:44:00,00000046,20211122.0,0.214401,a2201,6266.0,6266.0,6265.0,6267.0,194.0
46,2021-11-22 21:45:00,00000047,20211122.0,0.2145,a2201,6266.0,6267.0,6264.0,6268.0,288.0
47,2021-11-22 21:46:00,00000048,20211122.0,0.2146,a2201,6267.0,6266.0,6265.0,6269.0,281.0
48,2021-11-22 21:47:00,00000049,20211122.0,0.2147,a2201,6265.0,6259.0,6259.0,6265.0,384.0
49,2021-11-22 21:48:00,00000050,20211122.0,0.2148,a2201,6259.0,6257.0,6256.0,6259.0,316.0
50,2021-11-22 21:49:00,00000051,20211122.0,0.214901,a2201,6257.0,6259.0,6256.0,6259.0,222.0
51,2021-11-22 21:50:00,00000052,20211122.0,0.215003,a2201,6259.0,6256.0,6256.0,6260.0,184.0
52,2021-11-22 21:51:00,00000053,20211122.0,0.2151,a2201,6256.0,6254.0,6254.0,6257.0,254.0
53,2021-11-22 21:52:00,00000054,20211122.0,0.2152,a2201,6254.0,6253.0,6253.0,6255.0,270.0
54,2021-11-22 21:53:00,00000055,20211122.0,0.2153,a2201,6252.0,6253.0,6252.0,6254.0,267.0
55,2021-11-22 21:54:00,00000056,20211122.0,0.215401,a2201,6254.0,6253.0,6252.0,6254.0,107.0
56,2021-11-22 21:55:00,00000057,20211122.0,0.2155,a2201,6253.0,6252.0,6252.0,6254.0,174.0
57,2021-11-22 21:56:00,00000058,20211122.0,0.2156,a2201,6252.0,6251.0,6251.0,6254.0,704.0
58,2021-11-22 21:57:00,00000059,20211122.0,0.2157,a2201,6252.0,6251.0,6250.0,6253.0,567.0
59,2021-11-22 21:58:00,00000060,20211122.0,0.2158,a2201,6250.0,6244.0,6244.0,6254.0,2243.0
60,2021-11-22 21:59:00,00000061,20211122.0,0.2159,a2201,6244.0,6245.0,6243.0,6248.0,1280.0
61,2021-11-22 22:00:00,00000062,20211122.0,0.22,a2201,6245.0,6247.0,6245.0,6250.0,630.0
62,2021-11-22 22:01:00,00000063,20211122.0,0.2201,a2201,6246.0,6245.0,6244.0,6249.0,748.0
63,2021-11-22 22:02:00,00000064,20211122.0,0.2202,a2201,6245.0,6253.0,6245.0,6253.0,718.0
64,2021-11-22 22:03:00,00000065,20211122.0,0.220301,a2201,6252.0,6253.0,6252.0,6257.0,342.0
65,2021-11-22 22:04:00,00000066,20211122.0,0.2204,a2201,6252.0,6254.0,6250.0,6255.0,229.0
66,2021-11-22 22:05:00,00000067,20211122.0,0.2205,a2201,6254.0,6252.0,6252.0,6255.0,127.0
67,2021-11-22 22:06:00,00000068,20211122.0,0.2206,a2201,6252.0,6256.0,6249.0,6256.0,418.0
68,2021-11-22 22:07:00,00000069,20211122.0,0.220701,a2201,6256.0,6256.0,6254.0,6258.0,398.0
69,2021-11-22 22:08:00,00000070,20211122.0,0.2208,a2201,6255.0,6252.0,6252.0,6256.0,174.0
70,2021-11-22 22:09:00,00000071,20211122.0,0.2209,a2201,6252.0,6249.0,6249.0,6254.0,316.0
71,2021-11-22 22:10:00,00000072,20211122.0,0.221001,a2201,6249.0,6250.0,6248.0,6251.0,136.0
72,2021-11-22 22:11:00,00000073,20211122.0,0.2211,a2201,6250.0,6250.0,6249.0,6250.0,107.0
73,2021-11-22 22:12:00,00000074,20211122.0,0.221201,a2201,6250.0,6248.0,6248.0,6250.0,128.0
74,2021-11-22 22:13:00,00000075,20211122.0,0.2213,a2201,6248.0,6255.0,6248.0,6255.0,375.0
75,2021-11-22 22:14:00,00000076,20211122.0,0.2214,a2201,6255.0,6258.0,6254.0,6258.0,329.0
76,2021-11-22 22:15:00,00000077,20211122.0,0.2215,a2201,6257.0,6256.0,6255.0,6257.0,193.0
77,2021-11-22 22:16:00,00000078,20211122.0,0.2216,a2201,6257.0,6257.0,6256.0,6260.0,372.0
78,2021-11-22 22:17:00,00000079,20211122.0,0.2217,a2201,6257.0,6260.0,6256.0,6262.0,311.0
79,2021-11-22 22:18:00,00000080,20211122.0,0.2218,a2201,6260.0,6257.0,6256.0,6260.0,184.0
80,2021-11-22 22:19:00,00000081,20211122.0,0.2219,a2201,6257.0,6254.0,6254.0,6257.0,71.0
81,2021-11-22 22:20:00,00000082,20211122.0,0.222,a2201,6254.0,6258.0,6254.0,6259.0,208.0
82,2021-11-22 22:21:00,00000083,20211122.0,0.2221,a2201,6257.0,6258.0,6257.0,6259.0,110.0
83,2021-11-22 22:22:00,00000084,20211122.0,0.2222,a2201,6259.0,6262.0,6258.0,6263.0,426.0
84,2021-11-22 22:23:00,00000085,20211122.0,0.2223,a2201,6262.0,6263.0,6261.0,6265.0,317.0
85,2021-11-22 22:24:00,00000086,20211122.0,0.2224,a2201,6262.0,6261.0,6258.0,6265.0,450.0
86,2021-11-22 22:25:00,00000087,20211122.0,0.2225,a2201,6262.0,6265.0,6261.0,6266.0,268.0
87,2021-11-22 22:26:00,00000088,20211122.0,0.2226,a2201,6265.0,6258.0,6258.0,6265.0,255.0
88,2021-11-22 22:27:00,00000089,20211122.0,0.222701,a2201,6258.0,6257.0,6257.0,6260.0,153.0
89,2021-11-22 22:28:00,00000090,20211122.0,0.2228,a2201,6257.0,6256.0,6254.0,6259.0,329.0
90,2021-11-22 22:29:00,00000091,20211122.0,0.222901,a2201,6256.0,6260.0,6255.0,6260.0,323.0
91,2021-11-22 22:30:00,00000092,20211122.0,0.223001,a2201,6260.0,6262.0,6260.0,6262.0,144.0
92,2021-11-22 22:31:00,00000093,20211122.0,0.2231,a2201,6262.0,6261.0,6260.0,6264.0,537.0
93,2021-11-22 22:32:00,00000094,20211122.0,0.2232,a2201,6261.0,6257.0,6257.0,6262.0,190.0
94,2021-11-22 22:33:00,00000095,20211122.0,0.223301,a2201,6257.0,6263.0,6257.0,6265.0,388.0
95,2021-11-22 22:34:00,00000096,20211122.0,0.2234,a2201,6264.0,6265.0,6263.0,6268.0,490.0
96,2021-11-22 22:35:00,00000097,20211122.0,0.2235,a2201,6266.0,6267.0,6263.0,6267.0,212.0
97,2021-11-22 22:36:00,00000098,20211122.0,0.2236,a2201,6267.0,6264.0,6264.0,6268.0,213.0
98,2021-11-22 22:37:00,00000099,20211122.0,0.223701,a2201,6264.0,6267.0,6264.0,6268.0,159.0
99,2021-11-22 22:38:00,00000100,20211122.0,0.2238,a2201,6267.0,6264.0,6261.0,6268.0,340.0
100,2021-11-22 22:39:00,00000101,20211122.0,0.2239,a2201,6265.0,6269.0,6265.0,6269.0,258.0
101,2021-11-22 22:40:00,00000102,20211122.0,0.224,a2201,6269.0,6267.0,6265.0,6269.0,211.0
102,2021-11-22 22:41:00,00000103,20211122.0,0.2241,a2201,6267.0,6271.0,6267.0,6271.0,376.0
103,2021-11-22 22:42:00,00000104,20211122.0,0.2242,a2201,6271.0,6266.0,6264.0,6274.0,654.0
104,2021-11-22 22:43:00,00000105,20211122.0,0.2243,a2201,6265.0,6260.0,6260.0,6265.0,328.0
105,2021-11-22 22:44:00,00000106,20211122.0,0.224401,a2201,6260.0,6262.0,6258.0,6262.0,268.0
106,2021-11-22 22:45:00,00000107,20211122.0,0.2245,a2201,6261.0,6260.0,6257.0,6262.0,363.0
107,2021-11-22 22:46:00,00000108,20211122.0,0.224602,a2201,6260.0,6260.0,6259.0,6264.0,168.0
108,2021-11-22 22:47:00,00000109,20211122.0,0.2247,a2201,6260.0,6257.0,6255.0,6263.0,449.0
109,2021-11-22 22:48:00,00000110,20211122.0,0.2248,a2201,6257.0,6263.0,6257.0,6263.0,255.0
110,2021-11-22 22:49:00,00000111,20211122.0,0.2249,a2201,6263.0,6264.0,6263.0,6265.0,141.0
111,2021-11-22 22:50:00,00000112,20211122.0,0.225,a2201,6264.0,6265.0,6263.0,6265.0,126.0
112,2021-11-22 22:51:00,00000113,20211122.0,0.2251,a2201,6264.0,6264.0,6262.0,6265.0,115.0
113,2021-11-22 22:52:00,00000114,20211122.0,0.225202,a2201,6264.0,6264.0,6263.0,6265.0,66.0
114,2021-11-22 22:53:00,00000115,20211122.0,0.2253,a2201,6264.0,6269.0,6264.0,6270.0,302.0
115,2021-11-22 22:54:00,00000116,20211122.0,0.225401,a2201,6269.0,6267.0,6266.0,6269.0,314.0
116,2021-11-22 22:55:00,00000117,20211122.0,0.2255,a2201,6266.0,6271.0,6266.0,6271.0,201.0
117,2021-11-22 22:56:00,00000118,20211122.0,0.2256,a2201,6271.0,6268.0,6265.0,6271.0,247.0
118,2021-11-22 22:57:00,00000119,20211122.0,0.2257,a2201,6269.0,6267.0,6266.0,6269.0,260.0
119,2021-11-22 22:58:00,00000120,20211122.0,0.225801,a2201,6267.0,6269.0,6267.0,6270.0,199.0
120,2021-11-22 22:59:00,00000121,20211122.0,0.2259,a2201,6268.0,6264.0,6264.0,6268.0,314.0
