2021-12-12 01:27:46 断开与交易服务器连接OnFrontDisconnected
2021-12-12 01:38:15 断开与交易服务器连接OnFrontDisconnected
2021-12-12 01:44:31 断开与交易服务器连接OnFrontDisconnected
2021-12-12 02:03:04 断开与交易服务器连接OnFrontDisconnected
2021-12-12 02:08:21 断开与交易服务器连接OnFrontDisconnected
2021-12-12 02:13:40 断开与交易服务器连接OnFrontDisconnected
2021-12-12 02:18:46 断开与交易服务器连接OnFrontDisconnected
2021-12-12 02:28:49 断开与交易服务器连接OnFrontDisconnected
2021-12-12 02:33:51 断开与交易服务器连接OnFrontDisconnected
2021-12-12 03:16:50 断开与交易服务器连接OnFrontDisconnected
2021-12-12 03:24:34 断开与交易服务器连接OnFrontDisconnected
2021-12-12 03:33:19 断开与交易服务器连接OnFrontDisconnected
2021-12-12 03:38:32 断开与交易服务器连接OnFrontDisconnected
2021-12-12 03:43:40 断开与交易服务器连接OnFrontDisconnected
2021-12-12 03:48:40 断开与交易服务器连接OnFrontDisconnected
2021-12-12 03:55:57 断开与交易服务器连接OnFrontDisconnected
2021-12-12 04:02:58 断开与交易服务器连接OnFrontDisconnected
2021-12-12 04:08:17 断开与交易服务器连接OnFrontDisconnected
2021-12-12 04:14:03 断开与交易服务器连接OnFrontDisconnected
2021-12-12 04:19:22 断开与交易服务器连接OnFrontDisconnected
2021-12-12 04:24:32 断开与交易服务器连接OnFrontDisconnected
2021-12-12 04:29:37 断开与交易服务器连接OnFrontDisconnected
2021-12-12 04:34:42 断开与交易服务器连接OnFrontDisconnected
2021-12-12 04:39:48 断开与交易服务器连接OnFrontDisconnected
2021-12-12 04:44:53 断开与交易服务器连接OnFrontDisconnected
2021-12-12 04:49:58 断开与交易服务器连接OnFrontDisconnected
2021-12-12 04:55:33 断开与交易服务器连接OnFrontDisconnected
2021-12-12 05:00:39 断开与交易服务器连接OnFrontDisconnected
2021-12-12 05:05:46 断开与交易服务器连接OnFrontDisconnected
2021-12-12 05:12:52 断开与交易服务器连接OnFrontDisconnected
2021-12-12 05:17:57 断开与交易服务器连接OnFrontDisconnected
2021-12-12 05:23:02 断开与交易服务器连接OnFrontDisconnected
2021-12-12 05:28:29 断开与交易服务器连接OnFrontDisconnected
2021-12-12 05:33:36 断开与交易服务器连接OnFrontDisconnected
2021-12-12 05:43:02 断开与交易服务器连接OnFrontDisconnected
2021-12-12 05:51:50 断开与交易服务器连接OnFrontDisconnected
2021-12-12 05:58:25 断开与交易服务器连接OnFrontDisconnected
2021-12-12 06:03:30 断开与交易服务器连接OnFrontDisconnected
2021-12-12 06:08:36 断开与交易服务器连接OnFrontDisconnected
2021-12-12 06:13:41 断开与交易服务器连接OnFrontDisconnected
2021-12-12 06:18:46 断开与交易服务器连接OnFrontDisconnected
2021-12-12 06:27:12 断开与交易服务器连接OnFrontDisconnected
2021-12-12 06:34:08 断开与交易服务器连接OnFrontDisconnected
2021-12-12 06:39:24 断开与交易服务器连接OnFrontDisconnected
2021-12-12 06:47:20 断开与交易服务器连接OnFrontDisconnected
2021-12-12 06:52:25 断开与交易服务器连接OnFrontDisconnected
2021-12-12 06:57:52 断开与交易服务器连接OnFrontDisconnected
2021-12-12 07:06:09 断开与交易服务器连接OnFrontDisconnected
2021-12-12 07:11:15 断开与交易服务器连接OnFrontDisconnected
2021-12-12 07:17:30 断开与交易服务器连接OnFrontDisconnected
2021-12-12 07:22:36 断开与交易服务器连接OnFrontDisconnected
2021-12-12 07:28:13 断开与交易服务器连接OnFrontDisconnected
2021-12-12 07:33:15 断开与交易服务器连接OnFrontDisconnected
2021-12-12 07:39:09 断开与交易服务器连接OnFrontDisconnected
2021-12-12 07:44:21 断开与交易服务器连接OnFrontDisconnected
2021-12-12 07:49:22 断开与交易服务器连接OnFrontDisconnected
2021-12-12 07:54:23 断开与交易服务器连接OnFrontDisconnected
2021-12-12 08:04:23 断开与交易服务器连接OnFrontDisconnected
2021-12-12 08:09:24 断开与交易服务器连接OnFrontDisconnected
2021-12-12 11:50:16 断开与交易服务器连接OnFrontDisconnected
2021-12-12 11:56:42 断开与交易服务器连接OnFrontDisconnected
2021-12-12 12:01:42 断开与交易服务器连接OnFrontDisconnected
2021-12-12 12:15:28 断开与交易服务器连接OnFrontDisconnected
2021-12-12 12:20:32 断开与交易服务器连接OnFrontDisconnected
2021-12-12 12:30:27 断开与交易服务器连接OnFrontDisconnected
2021-12-12 12:35:43 断开与交易服务器连接OnFrontDisconnected
2021-12-12 12:40:45 断开与交易服务器连接OnFrontDisconnected
2021-12-12 12:50:32 断开与交易服务器连接OnFrontDisconnected
2021-12-12 12:55:56 断开与交易服务器连接OnFrontDisconnected
2021-12-12 13:01:02 断开与交易服务器连接OnFrontDisconnected
2021-12-12 13:06:06 断开与交易服务器连接OnFrontDisconnected
2021-12-12 13:11:08 断开与交易服务器连接OnFrontDisconnected
2021-12-12 13:16:09 断开与交易服务器连接OnFrontDisconnected
2021-12-12 13:24:46 断开与交易服务器连接OnFrontDisconnected
2021-12-12 13:31:14 断开与交易服务器连接OnFrontDisconnected
2021-12-12 13:36:19 断开与交易服务器连接OnFrontDisconnected
2021-12-12 13:41:21 断开与交易服务器连接OnFrontDisconnected
2021-12-12 23:16:15 断开与交易服务器连接OnFrontDisconnected
2021-12-12 23:26:22 断开与交易服务器连接OnFrontDisconnected
2021-12-12 23:47:49 断开与交易服务器连接OnFrontDisconnected
