2021-11-07 16:13:08 断开与交易服务器连接OnFrontDisconnected
2021-11-07 16:27:19 断开与交易服务器连接OnFrontDisconnected
2021-11-07 16:38:16 断开与交易服务器连接OnFrontDisconnected
2021-11-07 16:46:53 断开与交易服务器连接OnFrontDisconnected
2021-11-07 17:22:52 断开与交易服务器连接OnFrontDisconnected
2021-11-07 17:32:57 断开与交易服务器连接OnFrontDisconnected
2021-11-07 21:22:23 断开与交易服务器连接OnFrontDisconnected
2021-11-07 21:27:25 断开与交易服务器连接OnFrontDisconnected
2021-11-07 22:42:49 断开与交易服务器连接OnFrontDisconnected
2021-11-07 22:57:46 断开与交易服务器连接OnFrontDisconnected
2021-11-07 23:02:54 断开与交易服务器连接OnFrontDisconnected
2021-11-07 23:07:55 断开与交易服务器连接OnFrontDisconnected
2021-11-07 23:14:05 断开与交易服务器连接OnFrontDisconnected
2021-11-07 23:22:23 断开与交易服务器连接OnFrontDisconnected
2021-11-07 23:30:30 断开与交易服务器连接OnFrontDisconnected
