2021-11-16 22:04:51 连接交易服务器成功OnFrontConnected
2021-11-16 22:04:52 交易登录成功OnRspUserLogin
2021-11-16 22:11:10 连接交易服务器成功OnFrontConnected
2021-11-16 22:11:10 交易登录成功OnRspUserLogin
2021-11-16 23:01:59 连接交易服务器成功OnFrontConnected
2021-11-16 23:02:03 交易登录成功OnRspUserLogin
2021-11-16 23:14:39 连接交易服务器成功OnFrontConnected
2021-11-16 23:14:40 交易登录成功OnRspUserLogin
2021-11-16 23:20:49 连接交易服务器成功OnFrontConnected
2021-11-16 23:20:50 交易登录成功OnRspUserLogin
2021-11-16 23:26:36 连接交易服务器成功OnFrontConnected
2021-11-16 23:26:37 交易登录成功OnRspUserLogin
2021-11-16 23:43:46 连接交易服务器成功OnFrontConnected
2021-11-16 23:43:47 交易登录成功OnRspUserLogin
