2021-11-13 17:47:27 断开与交易服务器连接OnFrontDisconnected
2021-11-13 20:12:30 断开与交易服务器连接OnFrontDisconnected
2021-11-13 20:42:13 断开与交易服务器连接OnFrontDisconnected
2021-11-13 20:47:29 断开与交易服务器连接OnFrontDisconnected
2021-11-13 20:56:16 断开与交易服务器连接OnFrontDisconnected
2021-11-13 21:16:56 断开与交易服务器连接OnFrontDisconnected
2021-11-13 21:21:59 断开与交易服务器连接OnFrontDisconnected
2021-11-13 21:36:20 断开与交易服务器连接OnFrontDisconnected
