2021-11-24 00:25:29 连接交易服务器成功OnFrontConnected
2021-11-24 00:25:30 交易登录成功OnRspUserLogin
2021-11-24 00:56:35 连接交易服务器成功OnFrontConnected
2021-11-24 00:56:35 交易登录成功OnRspUserLogin
2021-11-24 01:05:20 连接交易服务器成功OnFrontConnected
2021-11-24 01:05:20 交易登录成功OnRspUserLogin
2021-11-24 01:13:09 连接交易服务器成功OnFrontConnected
2021-11-24 01:13:09 交易登录成功OnRspUserLogin
2021-11-24 01:14:16 连接交易服务器成功OnFrontConnected
2021-11-24 01:14:16 交易登录成功OnRspUserLogin
2021-11-24 01:23:21 连接交易服务器成功OnFrontConnected
2021-11-24 01:23:21 交易登录成功OnRspUserLogin
2021-11-24 01:23:57 连接交易服务器成功OnFrontConnected
2021-11-24 01:23:57 交易登录成功OnRspUserLogin
2021-11-24 01:26:46 连接交易服务器成功OnFrontConnected
2021-11-24 01:26:46 交易登录成功OnRspUserLogin
2021-11-24 01:31:51 连接交易服务器成功OnFrontConnected
2021-11-24 01:31:51 交易登录成功OnRspUserLogin
2021-11-24 01:33:26 连接交易服务器成功OnFrontConnected
2021-11-24 01:33:26 交易登录成功OnRspUserLogin
2021-11-24 01:35:35 连接交易服务器成功OnFrontConnected
2021-11-24 01:35:35 交易登录成功OnRspUserLogin
2021-11-24 01:36:19 连接交易服务器成功OnFrontConnected
2021-11-24 01:36:19 交易登录成功OnRspUserLogin
2021-11-24 01:37:58 连接交易服务器成功OnFrontConnected
2021-11-24 01:37:58 交易登录成功OnRspUserLogin
2021-11-24 01:39:37 连接交易服务器成功OnFrontConnected
2021-11-24 01:39:37 交易登录成功OnRspUserLogin
2021-11-24 01:41:25 连接交易服务器成功OnFrontConnected
2021-11-24 01:41:25 交易登录成功OnRspUserLogin
2021-11-24 01:44:37 连接交易服务器成功OnFrontConnected
2021-11-24 01:44:37 交易登录成功OnRspUserLogin
2021-11-24 01:45:35 连接交易服务器成功OnFrontConnected
2021-11-24 01:45:35 交易登录成功OnRspUserLogin
2021-11-24 01:46:14 连接交易服务器成功OnFrontConnected
2021-11-24 01:46:14 交易登录成功OnRspUserLogin
2021-11-24 01:52:01 连接交易服务器成功OnFrontConnected
2021-11-24 01:52:01 交易登录成功OnRspUserLogin
2021-11-24 01:54:13 连接交易服务器成功OnFrontConnected
2021-11-24 01:54:13 交易登录成功OnRspUserLogin
2021-11-24 01:56:57 连接交易服务器成功OnFrontConnected
2021-11-24 01:56:57 交易登录成功OnRspUserLogin
2021-11-24 01:58:32 连接交易服务器成功OnFrontConnected
2021-11-24 01:58:33 交易登录成功OnRspUserLogin
2021-11-24 02:00:17 连接交易服务器成功OnFrontConnected
2021-11-24 02:00:17 交易登录成功OnRspUserLogin
2021-11-24 02:01:12 连接交易服务器成功OnFrontConnected
2021-11-24 02:01:12 交易登录成功OnRspUserLogin
2021-11-24 02:02:08 连接交易服务器成功OnFrontConnected
2021-11-24 02:02:08 交易登录成功OnRspUserLogin
2021-11-24 02:02:18 连接交易服务器成功OnFrontConnected
2021-11-24 02:02:19 交易登录成功OnRspUserLogin
2021-11-24 02:04:57 连接交易服务器成功OnFrontConnected
2021-11-24 02:04:58 交易登录成功OnRspUserLogin
2021-11-24 02:06:23 连接交易服务器成功OnFrontConnected
2021-11-24 02:06:24 交易登录成功OnRspUserLogin
2021-11-24 02:08:13 连接交易服务器成功OnFrontConnected
2021-11-24 02:08:13 交易登录成功OnRspUserLogin
2021-11-24 02:09:14 连接交易服务器成功OnFrontConnected
2021-11-24 02:09:14 交易登录成功OnRspUserLogin
2021-11-24 02:10:29 连接交易服务器成功OnFrontConnected
2021-11-24 02:10:30 交易登录成功OnRspUserLogin
2021-11-24 02:27:23 连接交易服务器成功OnFrontConnected
2021-11-24 02:27:24 交易登录成功OnRspUserLogin
2021-11-24 02:34:09 连接交易服务器成功OnFrontConnected
2021-11-24 02:34:10 交易登录成功OnRspUserLogin
2021-11-24 02:35:57 连接交易服务器成功OnFrontConnected
2021-11-24 02:35:57 交易登录成功OnRspUserLogin
2021-11-24 02:40:03 连接交易服务器成功OnFrontConnected
2021-11-24 02:40:04 交易登录成功OnRspUserLogin
2021-11-24 02:41:31 连接交易服务器成功OnFrontConnected
2021-11-24 02:41:32 交易登录成功OnRspUserLogin
2021-11-24 02:43:42 连接交易服务器成功OnFrontConnected
2021-11-24 02:43:42 交易登录成功OnRspUserLogin
2021-11-24 02:46:23 连接交易服务器成功OnFrontConnected
2021-11-24 02:46:24 交易登录成功OnRspUserLogin
2021-11-24 02:49:27 连接交易服务器成功OnFrontConnected
2021-11-24 02:49:28 交易登录成功OnRspUserLogin
2021-11-24 02:55:22 连接交易服务器成功OnFrontConnected
2021-11-24 02:55:22 交易登录成功OnRspUserLogin
2021-11-24 02:56:06 连接交易服务器成功OnFrontConnected
2021-11-24 02:56:06 交易登录成功OnRspUserLogin
2021-11-24 02:57:34 连接交易服务器成功OnFrontConnected
2021-11-24 02:57:35 交易登录成功OnRspUserLogin
2021-11-24 03:00:17 连接交易服务器成功OnFrontConnected
2021-11-24 03:00:18 交易登录成功OnRspUserLogin
2021-11-24 03:00:55 连接交易服务器成功OnFrontConnected
2021-11-24 03:00:55 交易登录成功OnRspUserLogin
2021-11-24 03:02:23 连接交易服务器成功OnFrontConnected
2021-11-24 03:02:24 交易登录成功OnRspUserLogin
2021-11-24 03:06:58 连接交易服务器成功OnFrontConnected
2021-11-24 03:06:58 交易登录成功OnRspUserLogin
2021-11-24 03:08:46 连接交易服务器成功OnFrontConnected
2021-11-24 03:08:46 交易登录成功OnRspUserLogin
2021-11-24 03:09:32 连接交易服务器成功OnFrontConnected
2021-11-24 03:09:32 交易登录成功OnRspUserLogin
2021-11-24 03:11:26 连接交易服务器成功OnFrontConnected
2021-11-24 03:11:27 交易登录成功OnRspUserLogin
2021-11-24 03:12:28 断开与交易服务器连接OnFrontDisconnected
2021-11-24 03:12:29 连接交易服务器成功OnFrontConnected
2021-11-24 03:12:29 交易登录成功OnRspUserLogin
2021-11-24 03:13:11 连接交易服务器成功OnFrontConnected
2021-11-24 03:13:11 交易登录成功OnRspUserLogin
2021-11-24 03:16:14 连接交易服务器成功OnFrontConnected
2021-11-24 03:16:14 交易登录成功OnRspUserLogin
2021-11-24 03:17:01 连接交易服务器成功OnFrontConnected
2021-11-24 03:17:01 交易登录成功OnRspUserLogin
2021-11-24 03:17:48 连接交易服务器成功OnFrontConnected
2021-11-24 03:17:49 交易登录成功OnRspUserLogin
2021-11-24 03:18:32 连接交易服务器成功OnFrontConnected
2021-11-24 03:18:32 交易登录成功OnRspUserLogin
2021-11-24 03:18:40 连接交易服务器成功OnFrontConnected
2021-11-24 03:18:40 交易登录成功OnRspUserLogin
2021-11-24 03:19:38 连接交易服务器成功OnFrontConnected
2021-11-24 03:19:38 交易登录成功OnRspUserLogin
2021-11-24 03:22:34 连接交易服务器成功OnFrontConnected
2021-11-24 03:22:34 交易登录成功OnRspUserLogin
2021-11-24 03:23:53 连接交易服务器成功OnFrontConnected
2021-11-24 03:23:53 交易登录成功OnRspUserLogin
2021-11-24 03:24:02 连接交易服务器成功OnFrontConnected
2021-11-24 03:24:02 交易登录成功OnRspUserLogin
2021-11-24 03:25:10 连接交易服务器成功OnFrontConnected
2021-11-24 03:25:10 交易登录成功OnRspUserLogin
2021-11-24 03:27:21 连接交易服务器成功OnFrontConnected
2021-11-24 03:27:21 交易登录成功OnRspUserLogin
2021-11-24 03:28:57 连接交易服务器成功OnFrontConnected
2021-11-24 03:28:57 交易登录成功OnRspUserLogin
2021-11-24 03:29:13 连接交易服务器成功OnFrontConnected
2021-11-24 03:29:13 交易登录成功OnRspUserLogin
2021-11-24 03:30:34 连接交易服务器成功OnFrontConnected
2021-11-24 03:30:34 交易登录成功OnRspUserLogin
2021-11-24 03:31:46 连接交易服务器成功OnFrontConnected
2021-11-24 03:31:46 交易登录成功OnRspUserLogin
2021-11-24 03:32:53 连接交易服务器成功OnFrontConnected
2021-11-24 03:32:53 交易登录成功OnRspUserLogin
2021-11-24 03:34:04 连接交易服务器成功OnFrontConnected
2021-11-24 03:34:04 交易登录成功OnRspUserLogin
2021-11-24 03:34:18 连接交易服务器成功OnFrontConnected
2021-11-24 03:34:19 交易登录成功OnRspUserLogin
2021-11-24 03:35:11 连接交易服务器成功OnFrontConnected
2021-11-24 03:35:11 交易登录成功OnRspUserLogin
2021-11-24 03:35:24 连接交易服务器成功OnFrontConnected
2021-11-24 03:35:24 交易登录成功OnRspUserLogin
2021-11-24 03:35:38 连接交易服务器成功OnFrontConnected
2021-11-24 03:35:38 交易登录成功OnRspUserLogin
2021-11-24 03:36:22 连接交易服务器成功OnFrontConnected
2021-11-24 03:36:22 交易登录成功OnRspUserLogin
2021-11-24 03:37:01 连接交易服务器成功OnFrontConnected
2021-11-24 03:37:01 交易登录成功OnRspUserLogin
2021-11-24 03:37:51 连接交易服务器成功OnFrontConnected
2021-11-24 03:37:51 交易登录成功OnRspUserLogin
2021-11-24 03:38:59 连接交易服务器成功OnFrontConnected
2021-11-24 03:38:59 交易登录成功OnRspUserLogin
2021-11-24 03:42:37 连接交易服务器成功OnFrontConnected
2021-11-24 03:42:37 交易登录成功OnRspUserLogin
2021-11-24 03:43:54 连接交易服务器成功OnFrontConnected
2021-11-24 03:43:55 交易登录成功OnRspUserLogin
2021-11-24 03:44:07 连接交易服务器成功OnFrontConnected
2021-11-24 03:44:08 交易登录成功OnRspUserLogin
2021-11-24 03:45:02 连接交易服务器成功OnFrontConnected
2021-11-24 03:45:03 交易登录成功OnRspUserLogin
2021-11-24 03:45:15 连接交易服务器成功OnFrontConnected
2021-11-24 03:45:15 交易登录成功OnRspUserLogin
2021-11-24 03:46:10 连接交易服务器成功OnFrontConnected
2021-11-24 03:46:10 交易登录成功OnRspUserLogin
2021-11-24 03:46:38 连接交易服务器成功OnFrontConnected
2021-11-24 03:46:38 交易登录成功OnRspUserLogin
2021-11-24 03:47:57 连接交易服务器成功OnFrontConnected
2021-11-24 03:47:57 交易登录成功OnRspUserLogin
2021-11-24 03:48:57 连接交易服务器成功OnFrontConnected
2021-11-24 03:48:57 交易登录成功OnRspUserLogin
2021-11-24 03:49:11 连接交易服务器成功OnFrontConnected
2021-11-24 03:49:11 交易登录成功OnRspUserLogin
2021-11-24 03:51:06 连接交易服务器成功OnFrontConnected
2021-11-24 03:51:06 交易登录成功OnRspUserLogin
2021-11-24 03:51:48 连接交易服务器成功OnFrontConnected
2021-11-24 03:51:49 交易登录成功OnRspUserLogin
2021-11-24 03:55:02 连接交易服务器成功OnFrontConnected
2021-11-24 03:55:03 交易登录成功OnRspUserLogin
2021-11-24 03:56:43 连接交易服务器成功OnFrontConnected
2021-11-24 03:56:43 交易登录成功OnRspUserLogin
2021-11-24 03:57:38 连接交易服务器成功OnFrontConnected
2021-11-24 03:57:38 交易登录成功OnRspUserLogin
2021-11-24 03:58:34 连接交易服务器成功OnFrontConnected
2021-11-24 03:58:34 交易登录成功OnRspUserLogin
2021-11-24 04:00:27 连接交易服务器成功OnFrontConnected
2021-11-24 04:00:27 交易登录成功OnRspUserLogin
2021-11-24 04:01:26 连接交易服务器成功OnFrontConnected
2021-11-24 04:01:27 交易登录成功OnRspUserLogin
2021-11-24 04:02:21 连接交易服务器成功OnFrontConnected
2021-11-24 04:02:22 交易登录成功OnRspUserLogin
2021-11-24 04:03:31 连接交易服务器成功OnFrontConnected
2021-11-24 04:03:31 交易登录成功OnRspUserLogin
2021-11-24 04:03:44 连接交易服务器成功OnFrontConnected
2021-11-24 04:03:44 交易登录成功OnRspUserLogin
2021-11-24 04:04:33 连接交易服务器成功OnFrontConnected
2021-11-24 04:04:33 交易登录成功OnRspUserLogin
2021-11-24 04:06:28 连接交易服务器成功OnFrontConnected
2021-11-24 04:06:29 交易登录成功OnRspUserLogin
2021-11-24 04:07:08 连接交易服务器成功OnFrontConnected
2021-11-24 04:07:09 交易登录成功OnRspUserLogin
2021-11-24 04:09:49 断开与交易服务器连接OnFrontDisconnected
2021-11-24 04:09:49 连接交易服务器成功OnFrontConnected
2021-11-24 04:09:50 交易登录成功OnRspUserLogin
2021-11-24 04:12:04 连接交易服务器成功OnFrontConnected
2021-11-24 04:12:04 交易登录成功OnRspUserLogin
2021-11-24 04:14:01 连接交易服务器成功OnFrontConnected
2021-11-24 04:14:01 交易登录成功OnRspUserLogin
2021-11-24 04:16:43 连接交易服务器成功OnFrontConnected
2021-11-24 04:16:43 交易登录成功OnRspUserLogin
2021-11-24 04:18:40 连接交易服务器成功OnFrontConnected
2021-11-24 04:18:40 交易登录成功OnRspUserLogin
2021-11-24 10:59:36 连接交易服务器成功OnFrontConnected
2021-11-24 10:59:38 交易登录成功OnRspUserLogin
2021-11-24 13:13:49 连接交易服务器成功OnFrontConnected
2021-11-24 13:13:49 交易登录成功OnRspUserLogin
2021-11-24 13:25:02 连接交易服务器成功OnFrontConnected
2021-11-24 13:25:03 交易登录成功OnRspUserLogin
2021-11-24 13:25:58 连接交易服务器成功OnFrontConnected
2021-11-24 13:25:58 交易登录成功OnRspUserLogin
2021-11-24 13:27:39 连接交易服务器成功OnFrontConnected
2021-11-24 13:27:40 交易登录成功OnRspUserLogin
2021-11-24 13:27:51 连接交易服务器成功OnFrontConnected
2021-11-24 13:27:51 交易登录成功OnRspUserLogin
2021-11-24 13:28:52 连接交易服务器成功OnFrontConnected
2021-11-24 13:28:52 交易登录成功OnRspUserLogin
2021-11-24 13:29:05 连接交易服务器成功OnFrontConnected
2021-11-24 13:29:05 交易登录成功OnRspUserLogin
2021-11-24 13:31:41 连接交易服务器成功OnFrontConnected
2021-11-24 13:31:41 交易登录成功OnRspUserLogin
2021-11-24 13:33:00 连接交易服务器成功OnFrontConnected
2021-11-24 13:33:01 交易登录成功OnRspUserLogin
2021-11-24 13:33:52 连接交易服务器成功OnFrontConnected
2021-11-24 13:33:53 交易登录成功OnRspUserLogin
2021-11-24 13:34:35 连接交易服务器成功OnFrontConnected
2021-11-24 13:34:35 交易登录成功OnRspUserLogin
2021-11-24 13:37:12 连接交易服务器成功OnFrontConnected
2021-11-24 13:37:13 交易登录成功OnRspUserLogin
2021-11-24 13:38:16 连接交易服务器成功OnFrontConnected
2021-11-24 13:38:16 交易登录成功OnRspUserLogin
2021-11-24 13:40:43 连接交易服务器成功OnFrontConnected
2021-11-24 13:40:44 交易登录成功OnRspUserLogin
2021-11-24 13:42:46 连接交易服务器成功OnFrontConnected
2021-11-24 13:42:46 交易登录成功OnRspUserLogin
2021-11-24 13:42:56 连接交易服务器成功OnFrontConnected
2021-11-24 13:42:56 交易登录成功OnRspUserLogin
2021-11-24 13:46:59 连接交易服务器成功OnFrontConnected
2021-11-24 13:46:59 交易登录成功OnRspUserLogin
2021-11-24 13:47:13 连接交易服务器成功OnFrontConnected
2021-11-24 13:47:13 交易登录成功OnRspUserLogin
2021-11-24 13:48:16 连接交易服务器成功OnFrontConnected
2021-11-24 13:48:16 交易登录成功OnRspUserLogin
2021-11-24 13:48:36 连接交易服务器成功OnFrontConnected
2021-11-24 13:48:37 交易登录成功OnRspUserLogin
2021-11-24 13:48:50 连接交易服务器成功OnFrontConnected
2021-11-24 13:48:50 交易登录成功OnRspUserLogin
2021-11-24 13:52:22 连接交易服务器成功OnFrontConnected
2021-11-24 13:52:22 交易登录成功OnRspUserLogin
2021-11-24 13:54:09 连接交易服务器成功OnFrontConnected
2021-11-24 13:54:09 交易登录成功OnRspUserLogin
2021-11-24 14:00:29 连接交易服务器成功OnFrontConnected
2021-11-24 14:00:30 交易登录成功OnRspUserLogin
2021-11-24 14:00:45 连接交易服务器成功OnFrontConnected
2021-11-24 14:00:45 交易登录成功OnRspUserLogin
2021-11-24 14:01:02 连接交易服务器成功OnFrontConnected
2021-11-24 14:01:02 交易登录成功OnRspUserLogin
2021-11-24 14:04:11 连接交易服务器成功OnFrontConnected
2021-11-24 14:04:11 交易登录成功OnRspUserLogin
2021-11-24 14:05:12 连接交易服务器成功OnFrontConnected
2021-11-24 14:05:13 交易登录成功OnRspUserLogin
2021-11-24 14:07:33 连接交易服务器成功OnFrontConnected
2021-11-24 14:07:34 交易登录成功OnRspUserLogin
2021-11-24 14:09:10 连接交易服务器成功OnFrontConnected
2021-11-24 14:09:10 交易登录成功OnRspUserLogin
2021-11-24 14:09:57 连接交易服务器成功OnFrontConnected
2021-11-24 14:09:57 交易登录成功OnRspUserLogin
2021-11-24 14:12:32 断开与交易服务器连接OnFrontDisconnected
2021-11-24 14:12:32 连接交易服务器成功OnFrontConnected
2021-11-24 14:12:32 交易登录成功OnRspUserLogin
2021-11-24 14:17:40 连接交易服务器成功OnFrontConnected
2021-11-24 14:17:41 交易登录成功OnRspUserLogin
2021-11-24 14:26:40 连接交易服务器成功OnFrontConnected
2021-11-24 14:26:40 交易登录成功OnRspUserLogin
2021-11-24 14:27:03 连接交易服务器成功OnFrontConnected
2021-11-24 14:27:03 交易登录成功OnRspUserLogin
2021-11-24 14:29:43 连接交易服务器成功OnFrontConnected
2021-11-24 14:29:43 交易登录成功OnRspUserLogin
2021-11-24 14:40:21 连接交易服务器成功OnFrontConnected
2021-11-24 14:40:21 交易登录成功OnRspUserLogin
2021-11-24 14:41:04 连接交易服务器成功OnFrontConnected
2021-11-24 14:41:05 交易登录成功OnRspUserLogin
2021-11-24 14:41:52 连接交易服务器成功OnFrontConnected
2021-11-24 14:41:53 交易登录成功OnRspUserLogin
2021-11-24 14:42:45 断开与交易服务器连接OnFrontDisconnected
2021-11-24 14:42:52 连接交易服务器成功OnFrontConnected
2021-11-24 14:42:53 交易登录成功OnRspUserLogin
2021-11-24 14:43:24 连接交易服务器成功OnFrontConnected
2021-11-24 14:43:25 交易登录成功OnRspUserLogin
2021-11-24 14:44:54 连接交易服务器成功OnFrontConnected
2021-11-24 14:44:54 交易登录成功OnRspUserLogin
2021-11-24 14:45:33 连接交易服务器成功OnFrontConnected
2021-11-24 14:45:33 交易登录成功OnRspUserLogin
2021-11-24 15:06:07 连接交易服务器成功OnFrontConnected
2021-11-24 15:06:08 交易登录成功OnRspUserLogin
2021-11-24 20:05:15 连接交易服务器成功OnFrontConnected
2021-11-24 20:05:16 交易登录成功OnRspUserLogin
2021-11-24 20:05:48 连接交易服务器成功OnFrontConnected
2021-11-24 20:05:48 交易登录成功OnRspUserLogin
2021-11-24 20:07:10 连接交易服务器成功OnFrontConnected
2021-11-24 20:07:10 交易登录成功OnRspUserLogin
2021-11-24 20:10:53 连接交易服务器成功OnFrontConnected
2021-11-24 20:10:54 交易登录成功OnRspUserLogin
2021-11-24 20:12:12 连接交易服务器成功OnFrontConnected
2021-11-24 20:12:12 交易登录成功OnRspUserLogin
2021-11-24 20:30:46 连接交易服务器成功OnFrontConnected
2021-11-24 20:30:47 交易登录成功OnRspUserLogin
2021-11-24 20:36:51 连接交易服务器成功OnFrontConnected
2021-11-24 20:36:51 交易登录成功OnRspUserLogin
2021-11-24 20:38:15 连接交易服务器成功OnFrontConnected
2021-11-24 20:38:16 交易登录成功OnRspUserLogin
2021-11-24 20:43:02 连接交易服务器成功OnFrontConnected
2021-11-24 20:43:02 交易登录成功OnRspUserLogin
2021-11-24 20:47:38 连接交易服务器成功OnFrontConnected
2021-11-24 20:47:39 交易登录成功OnRspUserLogin
2021-11-24 20:49:01 连接交易服务器成功OnFrontConnected
2021-11-24 20:49:01 交易登录成功OnRspUserLogin
2021-11-24 20:50:43 连接交易服务器成功OnFrontConnected
2021-11-24 20:50:43 交易登录成功OnRspUserLogin
2021-11-24 20:59:18 连接交易服务器成功OnFrontConnected
2021-11-24 20:59:18 交易登录成功OnRspUserLogin
2021-11-24 21:00:15 连接交易服务器成功OnFrontConnected
2021-11-24 21:00:15 交易登录成功OnRspUserLogin
2021-11-24 21:00:39 连接交易服务器成功OnFrontConnected
2021-11-24 21:00:39 交易登录成功OnRspUserLogin
2021-11-24 21:01:48 连接交易服务器成功OnFrontConnected
2021-11-24 21:01:48 交易登录成功OnRspUserLogin
2021-11-24 21:02:08 连接交易服务器成功OnFrontConnected
2021-11-24 21:02:08 交易登录成功OnRspUserLogin
2021-11-24 21:03:29 断开与交易服务器连接OnFrontDisconnected
2021-11-24 21:03:29 连接交易服务器成功OnFrontConnected
2021-11-24 21:03:30 交易登录成功OnRspUserLogin
2021-11-24 21:04:31 连接交易服务器成功OnFrontConnected
2021-11-24 21:04:31 交易登录成功OnRspUserLogin
2021-11-24 21:06:09 连接交易服务器成功OnFrontConnected
2021-11-24 21:06:09 交易登录成功OnRspUserLogin
2021-11-24 21:13:08 连接交易服务器成功OnFrontConnected
2021-11-24 21:13:08 交易登录成功OnRspUserLogin
2021-11-24 21:14:50 连接交易服务器成功OnFrontConnected
2021-11-24 21:14:51 交易登录成功OnRspUserLogin
2021-11-24 21:21:45 连接交易服务器成功OnFrontConnected
2021-11-24 21:21:46 交易登录成功OnRspUserLogin
2021-11-24 21:24:55 连接交易服务器成功OnFrontConnected
2021-11-24 21:24:55 交易登录成功OnRspUserLogin
2021-11-24 21:25:02 连接交易服务器成功OnFrontConnected
2021-11-24 21:25:02 交易登录成功OnRspUserLogin
2021-11-24 21:25:47 断开与交易服务器连接OnFrontDisconnected
2021-11-24 21:25:48 连接交易服务器成功OnFrontConnected
2021-11-24 21:25:48 交易登录成功OnRspUserLogin
2021-11-24 21:27:02 连接交易服务器成功OnFrontConnected
2021-11-24 21:27:03 交易登录成功OnRspUserLogin
2021-11-24 21:28:16 连接交易服务器成功OnFrontConnected
2021-11-24 21:28:17 交易登录成功OnRspUserLogin
2021-11-24 21:29:26 连接交易服务器成功OnFrontConnected
2021-11-24 21:29:27 交易登录成功OnRspUserLogin
2021-11-24 21:29:53 连接交易服务器成功OnFrontConnected
2021-11-24 21:29:53 交易登录成功OnRspUserLogin
2021-11-24 21:30:49 连接交易服务器成功OnFrontConnected
2021-11-24 21:30:50 交易登录成功OnRspUserLogin
2021-11-24 21:31:45 连接交易服务器成功OnFrontConnected
2021-11-24 21:31:46 交易登录成功OnRspUserLogin
2021-11-24 21:35:42 连接交易服务器成功OnFrontConnected
2021-11-24 21:35:42 交易登录成功OnRspUserLogin
2021-11-24 21:38:33 连接交易服务器成功OnFrontConnected
2021-11-24 21:38:33 交易登录成功OnRspUserLogin
2021-11-24 21:44:49 连接交易服务器成功OnFrontConnected
2021-11-24 21:44:49 交易登录成功OnRspUserLogin
2021-11-24 21:45:12 连接交易服务器成功OnFrontConnected
2021-11-24 21:45:12 交易登录成功OnRspUserLogin
2021-11-24 21:45:30 连接交易服务器成功OnFrontConnected
2021-11-24 21:45:30 交易登录成功OnRspUserLogin
2021-11-24 22:09:14 连接交易服务器成功OnFrontConnected
2021-11-24 22:09:15 交易登录成功OnRspUserLogin
2021-11-24 22:22:08 连接交易服务器成功OnFrontConnected
2021-11-24 22:22:09 交易登录成功OnRspUserLogin
2021-11-24 22:25:20 连接交易服务器成功OnFrontConnected
2021-11-24 22:25:21 交易登录成功OnRspUserLogin
2021-11-24 22:34:21 连接交易服务器成功OnFrontConnected
2021-11-24 22:34:22 交易登录成功OnRspUserLogin
2021-11-24 22:35:02 连接交易服务器成功OnFrontConnected
2021-11-24 22:35:03 交易登录成功OnRspUserLogin
2021-11-24 22:36:53 连接交易服务器成功OnFrontConnected
2021-11-24 22:36:54 交易登录成功OnRspUserLogin
2021-11-24 22:38:24 连接交易服务器成功OnFrontConnected
2021-11-24 22:38:25 交易登录成功OnRspUserLogin
2021-11-24 22:39:39 连接交易服务器成功OnFrontConnected
2021-11-24 22:39:39 交易登录成功OnRspUserLogin
2021-11-24 22:42:44 断开与交易服务器连接OnFrontDisconnected
2021-11-24 22:54:40 断开与交易服务器连接OnFrontDisconnected
2021-11-24 22:54:56 连接交易服务器成功OnFrontConnected
2021-11-24 22:54:58 交易登录成功OnRspUserLogin
2021-11-24 23:00:45 连接交易服务器成功OnFrontConnected
2021-11-24 23:00:46 交易登录成功OnRspUserLogin
2021-11-24 23:21:27 连接交易服务器成功OnFrontConnected
2021-11-24 23:21:27 交易登录成功OnRspUserLogin
2021-11-24 23:22:12 连接交易服务器成功OnFrontConnected
2021-11-24 23:22:13 交易登录成功OnRspUserLogin
2021-11-24 23:23:08 连接交易服务器成功OnFrontConnected
2021-11-24 23:23:08 交易登录成功OnRspUserLogin
2021-11-24 23:24:19 连接交易服务器成功OnFrontConnected
2021-11-24 23:24:19 交易登录成功OnRspUserLogin
2021-11-24 23:38:23 连接交易服务器成功OnFrontConnected
2021-11-24 23:38:24 交易登录成功OnRspUserLogin
2021-11-24 23:58:22 连接交易服务器成功OnFrontConnected
2021-11-24 23:58:23 交易登录成功OnRspUserLogin
