2021-12-15 04:43:01 连接交易服务器成功OnFrontConnected
2021-12-15 04:43:01 交易登录成功OnRspUserLogin
2021-12-15 04:46:48 连接交易服务器成功OnFrontConnected
2021-12-15 04:46:49 交易登录成功OnRspUserLogin
2021-12-15 04:47:57 连接交易服务器成功OnFrontConnected
2021-12-15 04:47:58 交易登录成功OnRspUserLogin
2021-12-15 04:48:11 连接交易服务器成功OnFrontConnected
2021-12-15 04:48:12 交易登录成功OnRspUserLogin
2021-12-15 04:49:45 连接交易服务器成功OnFrontConnected
2021-12-15 04:49:46 交易登录成功OnRspUserLogin
2021-12-15 04:51:05 连接交易服务器成功OnFrontConnected
2021-12-15 04:51:05 交易登录成功OnRspUserLogin
2021-12-15 04:52:25 连接交易服务器成功OnFrontConnected
2021-12-15 04:52:25 交易登录成功OnRspUserLogin
2021-12-15 04:56:56 连接交易服务器成功OnFrontConnected
2021-12-15 04:56:57 交易登录成功OnRspUserLogin
2021-12-15 04:57:32 连接交易服务器成功OnFrontConnected
2021-12-15 04:57:32 交易登录成功OnRspUserLogin
2021-12-15 04:57:59 断开与交易服务器连接OnFrontDisconnected
2021-12-15 04:57:59 连接交易服务器成功OnFrontConnected
2021-12-15 04:58:00 交易登录成功OnRspUserLogin
2021-12-15 05:00:41 连接交易服务器成功OnFrontConnected
2021-12-15 05:00:42 交易登录成功OnRspUserLogin
2021-12-15 05:06:18 连接交易服务器成功OnFrontConnected
2021-12-15 05:06:19 交易登录成功OnRspUserLogin
2021-12-15 05:08:19 连接交易服务器成功OnFrontConnected
2021-12-15 05:08:19 交易登录成功OnRspUserLogin
2021-12-15 05:10:25 连接交易服务器成功OnFrontConnected
2021-12-15 05:10:26 交易登录成功OnRspUserLogin
2021-12-15 05:10:41 断开与交易服务器连接OnFrontDisconnected
2021-12-15 05:10:41 连接交易服务器成功OnFrontConnected
2021-12-15 05:10:42 交易登录成功OnRspUserLogin
2021-12-15 05:11:02 连接交易服务器成功OnFrontConnected
2021-12-15 05:11:03 交易登录成功OnRspUserLogin
2021-12-15 05:11:42 连接交易服务器成功OnFrontConnected
2021-12-15 05:11:42 交易登录成功OnRspUserLogin
2021-12-15 05:12:52 连接交易服务器成功OnFrontConnected
2021-12-15 05:12:52 交易登录成功OnRspUserLogin
2021-12-15 05:16:10 连接交易服务器成功OnFrontConnected
2021-12-15 05:16:10 交易登录成功OnRspUserLogin
2021-12-15 05:17:06 连接交易服务器成功OnFrontConnected
2021-12-15 05:17:07 交易登录成功OnRspUserLogin
2021-12-15 05:20:29 连接交易服务器成功OnFrontConnected
2021-12-15 05:20:29 交易登录成功OnRspUserLogin
2021-12-15 05:21:05 连接交易服务器成功OnFrontConnected
2021-12-15 05:21:06 交易登录成功OnRspUserLogin
2021-12-15 05:21:48 连接交易服务器成功OnFrontConnected
2021-12-15 05:21:48 交易登录成功OnRspUserLogin
2021-12-15 05:22:09 连接交易服务器成功OnFrontConnected
2021-12-15 05:22:10 交易登录成功OnRspUserLogin
2021-12-15 05:25:57 连接交易服务器成功OnFrontConnected
2021-12-15 05:25:58 交易登录成功OnRspUserLogin
2021-12-15 05:26:29 连接交易服务器成功OnFrontConnected
2021-12-15 05:26:30 交易登录成功OnRspUserLogin
2021-12-15 05:27:10 连接交易服务器成功OnFrontConnected
2021-12-15 05:27:11 交易登录成功OnRspUserLogin
2021-12-15 05:31:56 连接交易服务器成功OnFrontConnected
2021-12-15 05:31:57 交易登录成功OnRspUserLogin
2021-12-15 05:32:22 连接交易服务器成功OnFrontConnected
2021-12-15 05:32:22 交易登录成功OnRspUserLogin
2021-12-15 05:34:26 连接交易服务器成功OnFrontConnected
2021-12-15 05:34:27 交易登录成功OnRspUserLogin
2021-12-15 05:37:09 连接交易服务器成功OnFrontConnected
2021-12-15 05:37:09 交易登录成功OnRspUserLogin
2021-12-15 05:39:21 连接交易服务器成功OnFrontConnected
2021-12-15 05:39:22 交易登录成功OnRspUserLogin
2021-12-15 05:39:44 连接交易服务器成功OnFrontConnected
2021-12-15 05:39:44 交易登录成功OnRspUserLogin
2021-12-15 05:40:05 连接交易服务器成功OnFrontConnected
2021-12-15 05:40:06 交易登录成功OnRspUserLogin
2021-12-15 05:44:12 连接交易服务器成功OnFrontConnected
2021-12-15 05:44:13 交易登录成功OnRspUserLogin
2021-12-15 05:46:31 连接交易服务器成功OnFrontConnected
2021-12-15 05:46:31 交易登录成功OnRspUserLogin
2021-12-15 05:49:19 连接交易服务器成功OnFrontConnected
2021-12-15 05:49:20 交易登录成功OnRspUserLogin
2021-12-15 05:49:45 连接交易服务器成功OnFrontConnected
2021-12-15 05:49:47 交易登录成功OnRspUserLogin
2021-12-15 05:50:53 连接交易服务器成功OnFrontConnected
2021-12-15 05:50:54 交易登录成功OnRspUserLogin
2021-12-15 05:51:49 连接交易服务器成功OnFrontConnected
2021-12-15 05:51:50 交易登录成功OnRspUserLogin
2021-12-15 05:55:03 连接交易服务器成功OnFrontConnected
2021-12-15 05:55:04 交易登录成功OnRspUserLogin
2021-12-15 05:55:59 连接交易服务器成功OnFrontConnected
2021-12-15 05:55:59 交易登录成功OnRspUserLogin
2021-12-15 06:01:21 连接交易服务器成功OnFrontConnected
2021-12-15 06:01:22 交易登录成功OnRspUserLogin
2021-12-15 06:02:39 连接交易服务器成功OnFrontConnected
2021-12-15 06:02:41 交易登录成功OnRspUserLogin
2021-12-15 06:03:28 连接交易服务器成功OnFrontConnected
2021-12-15 06:03:28 交易登录成功OnRspUserLogin
2021-12-15 06:05:45 连接交易服务器成功OnFrontConnected
2021-12-15 06:05:45 交易登录成功OnRspUserLogin
2021-12-15 06:06:42 连接交易服务器成功OnFrontConnected
2021-12-15 06:06:42 交易登录成功OnRspUserLogin
2021-12-15 09:35:21 连接交易服务器成功OnFrontConnected
2021-12-15 09:35:22 交易登录成功OnRspUserLogin
2021-12-15 09:52:55 连接交易服务器成功OnFrontConnected
2021-12-15 09:52:55 交易登录成功OnRspUserLogin
2021-12-15 09:54:57 连接交易服务器成功OnFrontConnected
2021-12-15 09:54:58 交易登录成功OnRspUserLogin
2021-12-15 09:55:16 连接交易服务器成功OnFrontConnected
2021-12-15 09:55:16 交易登录成功OnRspUserLogin
2021-12-15 09:58:35 连接交易服务器成功OnFrontConnected
2021-12-15 09:58:36 交易登录成功OnRspUserLogin
2021-12-15 09:58:50 连接交易服务器成功OnFrontConnected
2021-12-15 09:58:51 交易登录成功OnRspUserLogin
2021-12-15 10:00:43 连接交易服务器成功OnFrontConnected
2021-12-15 10:00:44 交易登录成功OnRspUserLogin
2021-12-15 10:00:57 连接交易服务器成功OnFrontConnected
2021-12-15 10:00:57 交易登录成功OnRspUserLogin
2021-12-15 10:02:47 连接交易服务器成功OnFrontConnected
2021-12-15 10:02:47 交易登录成功OnRspUserLogin
2021-12-15 10:08:05 连接交易服务器成功OnFrontConnected
2021-12-15 10:08:06 交易登录成功OnRspUserLogin
2021-12-15 10:11:47 连接交易服务器成功OnFrontConnected
2021-12-15 10:11:48 交易登录成功OnRspUserLogin
2021-12-15 10:17:14 连接交易服务器成功OnFrontConnected
2021-12-15 10:17:15 交易登录成功OnRspUserLogin
2021-12-15 10:18:52 连接交易服务器成功OnFrontConnected
2021-12-15 10:18:52 交易登录成功OnRspUserLogin
2021-12-15 10:28:31 连接交易服务器成功OnFrontConnected
2021-12-15 10:28:32 交易登录成功OnRspUserLogin
2021-12-15 10:29:42 连接交易服务器成功OnFrontConnected
2021-12-15 10:29:43 交易登录成功OnRspUserLogin
2021-12-15 10:31:44 连接交易服务器成功OnFrontConnected
2021-12-15 10:31:44 交易登录成功OnRspUserLogin
2021-12-15 10:35:04 连接交易服务器成功OnFrontConnected
2021-12-15 10:35:05 交易登录成功OnRspUserLogin
2021-12-15 10:37:43 连接交易服务器成功OnFrontConnected
2021-12-15 10:37:43 交易登录成功OnRspUserLogin
2021-12-15 10:38:23 连接交易服务器成功OnFrontConnected
2021-12-15 10:38:23 交易登录成功OnRspUserLogin
2021-12-15 10:40:01 连接交易服务器成功OnFrontConnected
2021-12-15 10:40:01 交易登录成功OnRspUserLogin
2021-12-15 10:40:57 连接交易服务器成功OnFrontConnected
2021-12-15 10:40:57 交易登录成功OnRspUserLogin
2021-12-15 10:42:02 连接交易服务器成功OnFrontConnected
2021-12-15 10:42:02 交易登录成功OnRspUserLogin
2021-12-15 10:42:22 连接交易服务器成功OnFrontConnected
2021-12-15 10:42:23 交易登录成功OnRspUserLogin
2021-12-15 10:51:59 连接交易服务器成功OnFrontConnected
2021-12-15 10:51:59 交易登录成功OnRspUserLogin
2021-12-15 10:54:37 连接交易服务器成功OnFrontConnected
2021-12-15 10:54:38 交易登录成功OnRspUserLogin
2021-12-15 10:54:50 连接交易服务器成功OnFrontConnected
2021-12-15 10:54:51 交易登录成功OnRspUserLogin
2021-12-15 10:55:36 连接交易服务器成功OnFrontConnected
2021-12-15 10:55:36 交易登录成功OnRspUserLogin
2021-12-15 10:57:24 连接交易服务器成功OnFrontConnected
2021-12-15 10:57:24 交易登录成功OnRspUserLogin
2021-12-15 10:59:46 连接交易服务器成功OnFrontConnected
2021-12-15 10:59:47 交易登录成功OnRspUserLogin
2021-12-15 11:01:45 连接交易服务器成功OnFrontConnected
2021-12-15 11:01:45 交易登录成功OnRspUserLogin
2021-12-15 11:02:00 连接交易服务器成功OnFrontConnected
2021-12-15 11:02:01 交易登录成功OnRspUserLogin
2021-12-15 11:02:32 连接交易服务器成功OnFrontConnected
2021-12-15 11:02:32 交易登录成功OnRspUserLogin
2021-12-15 11:03:16 连接交易服务器成功OnFrontConnected
2021-12-15 11:03:16 交易登录成功OnRspUserLogin
2021-12-15 11:12:18 连接交易服务器成功OnFrontConnected
2021-12-15 11:12:18 交易登录成功OnRspUserLogin
2021-12-15 11:14:31 连接交易服务器成功OnFrontConnected
2021-12-15 11:14:31 交易登录成功OnRspUserLogin
2021-12-15 12:50:46 连接交易服务器成功OnFrontConnected
2021-12-15 12:50:47 交易登录成功OnRspUserLogin
2021-12-15 13:05:14 连接交易服务器成功OnFrontConnected
2021-12-15 13:05:15 交易登录成功OnRspUserLogin
