2022-01-11 00:00:38 连接交易服务器成功OnFrontConnected
2022-01-11 00:00:39 交易登录成功OnRspUserLogin
2022-01-11 00:05:50 连接交易服务器成功OnFrontConnected
2022-01-11 00:05:50 交易登录成功OnRspUserLogin
2022-01-11 00:10:05 连接交易服务器成功OnFrontConnected
2022-01-11 00:10:06 交易登录成功OnRspUserLogin
2022-01-11 00:10:59 连接交易服务器成功OnFrontConnected
2022-01-11 00:10:59 交易登录成功OnRspUserLogin
2022-01-11 00:11:10 连接交易服务器成功OnFrontConnected
2022-01-11 00:11:11 交易登录成功OnRspUserLogin
2022-01-11 04:59:20 断开与交易服务器连接OnFrontDisconnected
2022-01-11 04:59:20 连接交易服务器成功OnFrontConnected
2022-01-11 04:59:22 交易登录成功OnRspUserLogin
2022-01-11 11:59:14 连接交易服务器成功OnFrontConnected
2022-01-11 11:59:15 交易登录成功OnRspUserLogin
2022-01-11 12:06:07 断开与交易服务器连接OnFrontDisconnected
2022-01-11 23:29:30 连接交易服务器成功OnFrontConnected
2022-01-11 23:29:30 交易登录成功OnRspUserLogin
