2021-11-26 00:41:59 行情接口配置文件读取成功
2021-11-26 00:41:59 发送登录行情服务器请求失败
2021-11-26 00:41:59 行情登录成功OnRspUserLogin
2021-11-26 00:41:59 连接行情服务器成功OnFrontConnected
2021-11-26 00:43:03 行情接口配置文件读取成功
2021-11-26 00:43:03 发送登录行情服务器请求失败
2021-11-26 00:43:03 连接行情服务器成功OnFrontConnected
2021-11-26 00:43:03 行情登录成功OnRspUserLogin
2021-11-26 02:01:25 行情接口配置文件读取成功
2021-11-26 02:01:25 发送登录行情服务器请求失败
2021-11-26 02:01:25 连接行情服务器成功OnFrontConnected
2021-11-26 02:01:25 行情登录成功OnRspUserLogin
2021-11-26 02:16:45 行情接口配置文件读取成功
2021-11-26 02:16:45 发送登录行情服务器请求失败
2021-11-26 02:16:45 连接行情服务器成功OnFrontConnected
2021-11-26 02:16:45 行情登录成功OnRspUserLogin
2021-11-26 02:26:14 行情接口配置文件读取成功
2021-11-26 02:26:14 发送登录行情服务器请求失败
2021-11-26 02:26:14 连接行情服务器成功OnFrontConnected
2021-11-26 02:26:14 行情登录成功OnRspUserLogin
2021-11-26 02:29:32 行情接口配置文件读取成功
2021-11-26 02:29:32 发送登录行情服务器请求失败
2021-11-26 02:29:32 连接行情服务器成功OnFrontConnected
2021-11-26 02:29:32 行情登录成功OnRspUserLogin
2021-11-26 02:29:46 行情接口配置文件读取成功
2021-11-26 02:29:46 发送登录行情服务器请求失败
2021-11-26 02:29:46 连接行情服务器成功OnFrontConnected
2021-11-26 02:29:46 行情登录成功OnRspUserLogin
2021-11-26 02:33:23 行情接口配置文件读取成功
2021-11-26 02:33:23 发送登录行情服务器请求失败
2021-11-26 02:33:23 连接行情服务器成功OnFrontConnected
2021-11-26 02:33:23 行情登录成功OnRspUserLogin
2021-11-26 02:35:58 行情接口配置文件读取成功
2021-11-26 02:35:58 发送登录行情服务器请求失败
2021-11-26 02:35:58 连接行情服务器成功OnFrontConnected
2021-11-26 02:35:58 行情登录成功OnRspUserLogin
2021-11-26 02:37:28 行情接口配置文件读取成功
2021-11-26 02:37:28 发送登录行情服务器请求失败
2021-11-26 02:37:28 连接行情服务器成功OnFrontConnected
2021-11-26 02:37:28 行情登录成功OnRspUserLogin
2021-11-26 02:39:06 行情接口配置文件读取成功
2021-11-26 02:39:06 发送登录行情服务器请求失败
2021-11-26 02:39:06 连接行情服务器成功OnFrontConnected
2021-11-26 02:39:06 行情登录成功OnRspUserLogin
2021-11-26 02:40:17 行情接口配置文件读取成功
2021-11-26 02:40:17 发送登录行情服务器请求失败
2021-11-26 02:40:17 连接行情服务器成功OnFrontConnected
2021-11-26 02:40:17 行情登录成功OnRspUserLogin
2021-11-26 02:40:32 行情接口配置文件读取成功
2021-11-26 02:40:32 发送登录行情服务器请求失败
2021-11-26 02:40:32 连接行情服务器成功OnFrontConnected
2021-11-26 02:40:32 行情登录成功OnRspUserLogin
2021-11-26 02:47:02 行情接口配置文件读取成功
2021-11-26 02:47:02 发送登录行情服务器请求失败
2021-11-26 02:47:02 连接行情服务器成功OnFrontConnected
2021-11-26 02:47:02 行情登录成功OnRspUserLogin
2021-11-26 02:55:34 行情接口配置文件读取成功
2021-11-26 02:55:34 发送登录行情服务器请求失败
2021-11-26 02:55:34 连接行情服务器成功OnFrontConnected
2021-11-26 02:55:34 行情登录成功OnRspUserLogin
2021-11-26 02:56:03 行情接口配置文件读取成功
2021-11-26 02:56:03 发送登录行情服务器请求失败
2021-11-26 02:56:03 连接行情服务器成功OnFrontConnected
2021-11-26 02:56:03 行情登录成功OnRspUserLogin
2021-11-26 03:01:36 行情接口配置文件读取成功
2021-11-26 03:01:36 发送登录行情服务器请求失败
2021-11-26 03:01:36 连接行情服务器成功OnFrontConnected
2021-11-26 03:01:36 行情登录成功OnRspUserLogin
2021-11-26 03:02:16 行情接口配置文件读取成功
2021-11-26 03:02:16 发送登录行情服务器请求失败
2021-11-26 03:02:16 连接行情服务器成功OnFrontConnected
2021-11-26 03:02:16 行情登录成功OnRspUserLogin
2021-11-26 03:03:41 行情接口配置文件读取成功
2021-11-26 03:03:41 发送登录行情服务器请求失败
2021-11-26 03:03:41 连接行情服务器成功OnFrontConnected
2021-11-26 03:03:41 行情登录成功OnRspUserLogin
2021-11-26 03:04:00 行情接口配置文件读取成功
2021-11-26 03:04:00 发送登录行情服务器请求失败
2021-11-26 03:04:00 连接行情服务器成功OnFrontConnected
2021-11-26 03:04:00 行情登录成功OnRspUserLogin
2021-11-26 03:06:04 行情接口配置文件读取成功
2021-11-26 03:06:04 发送登录行情服务器请求失败
2021-11-26 03:06:04 连接行情服务器成功OnFrontConnected
2021-11-26 03:06:04 行情登录成功OnRspUserLogin
2021-11-26 03:12:26 行情接口配置文件读取成功
2021-11-26 03:12:26 发送登录行情服务器请求失败
2021-11-26 03:12:26 连接行情服务器成功OnFrontConnected
2021-11-26 03:12:26 行情登录成功OnRspUserLogin
2021-11-26 03:14:24 行情接口配置文件读取成功
2021-11-26 03:14:24 发送登录行情服务器请求失败
2021-11-26 03:14:24 连接行情服务器成功OnFrontConnected
2021-11-26 03:14:24 行情登录成功OnRspUserLogin
2021-11-26 03:15:38 行情接口配置文件读取成功
2021-11-26 03:15:38 发送登录行情服务器请求失败
2021-11-26 03:15:38 连接行情服务器成功OnFrontConnected
2021-11-26 03:15:38 行情登录成功OnRspUserLogin
2021-11-26 03:16:40 行情接口配置文件读取成功
2021-11-26 03:16:40 发送登录行情服务器请求失败
2021-11-26 03:16:40 连接行情服务器成功OnFrontConnected
2021-11-26 03:16:40 行情登录成功OnRspUserLogin
2021-11-26 03:17:22 行情接口配置文件读取成功
2021-11-26 03:17:22 发送登录行情服务器请求失败
2021-11-26 03:17:22 连接行情服务器成功OnFrontConnected
2021-11-26 03:17:22 行情登录成功OnRspUserLogin
2021-11-26 03:18:24 行情接口配置文件读取成功
2021-11-26 03:18:24 发送登录行情服务器请求失败
2021-11-26 03:18:24 连接行情服务器成功OnFrontConnected
2021-11-26 03:18:24 行情登录成功OnRspUserLogin
2021-11-26 03:19:48 行情接口配置文件读取成功
2021-11-26 03:19:48 发送登录行情服务器请求失败
2021-11-26 03:19:48 连接行情服务器成功OnFrontConnected
2021-11-26 03:19:48 行情登录成功OnRspUserLogin
2021-11-26 03:20:49 行情接口配置文件读取成功
2021-11-26 03:20:49 发送登录行情服务器请求失败
2021-11-26 03:20:49 连接行情服务器成功OnFrontConnected
2021-11-26 03:20:49 行情登录成功OnRspUserLogin
2021-11-26 03:21:41 行情接口配置文件读取成功
2021-11-26 03:21:41 发送登录行情服务器请求失败
2021-11-26 03:21:41 连接行情服务器成功OnFrontConnected
2021-11-26 03:21:41 行情登录成功OnRspUserLogin
2021-11-26 03:24:11 行情接口配置文件读取成功
2021-11-26 03:24:11 发送登录行情服务器请求失败
2021-11-26 03:24:11 连接行情服务器成功OnFrontConnected
2021-11-26 03:24:11 行情登录成功OnRspUserLogin
2021-11-26 03:24:52 行情接口配置文件读取成功
2021-11-26 03:24:52 发送登录行情服务器请求失败
2021-11-26 03:24:52 连接行情服务器成功OnFrontConnected
2021-11-26 03:24:52 行情登录成功OnRspUserLogin
2021-11-26 03:36:00 行情接口配置文件读取成功
2021-11-26 03:36:00 发送登录行情服务器请求失败
2021-11-26 03:36:00 连接行情服务器成功OnFrontConnected
2021-11-26 03:36:00 行情登录成功OnRspUserLogin
2021-11-26 03:44:28 行情接口配置文件读取成功
2021-11-26 03:44:28 发送登录行情服务器请求失败
2021-11-26 03:44:28 连接行情服务器成功OnFrontConnected
2021-11-26 03:44:28 行情登录成功OnRspUserLogin
2021-11-26 03:45:23 行情接口配置文件读取成功
2021-11-26 03:45:24 发送登录行情服务器请求失败
2021-11-26 03:45:24 连接行情服务器成功OnFrontConnected
2021-11-26 03:45:24 行情登录成功OnRspUserLogin
2021-11-26 03:52:04 行情接口配置文件读取成功
2021-11-26 03:52:04 发送登录行情服务器请求失败
2021-11-26 03:52:04 连接行情服务器成功OnFrontConnected
2021-11-26 03:52:04 行情登录成功OnRspUserLogin
2021-11-26 03:53:17 行情接口配置文件读取成功
2021-11-26 03:53:17 发送登录行情服务器请求失败
2021-11-26 03:53:17 连接行情服务器成功OnFrontConnected
2021-11-26 03:53:17 行情登录成功OnRspUserLogin
2021-11-26 03:54:50 行情接口配置文件读取成功
2021-11-26 03:54:50 发送登录行情服务器请求失败
2021-11-26 03:54:50 连接行情服务器成功OnFrontConnected
2021-11-26 03:54:50 行情登录成功OnRspUserLogin
2021-11-26 03:55:27 行情接口配置文件读取成功
2021-11-26 03:55:27 发送登录行情服务器请求失败
2021-11-26 03:55:27 连接行情服务器成功OnFrontConnected
2021-11-26 03:55:27 行情登录成功OnRspUserLogin
2021-11-26 03:56:10 行情接口配置文件读取成功
2021-11-26 03:56:10 发送登录行情服务器请求失败
2021-11-26 03:56:10 连接行情服务器成功OnFrontConnected
2021-11-26 03:56:10 行情登录成功OnRspUserLogin
2021-11-26 03:57:24 行情接口配置文件读取成功
2021-11-26 03:57:24 发送登录行情服务器请求失败
2021-11-26 03:57:24 连接行情服务器成功OnFrontConnected
2021-11-26 03:57:24 行情登录成功OnRspUserLogin
2021-11-26 03:58:45 行情接口配置文件读取成功
2021-11-26 03:58:45 发送登录行情服务器请求失败
2021-11-26 03:58:45 连接行情服务器成功OnFrontConnected
2021-11-26 03:58:45 行情登录成功OnRspUserLogin
2021-11-26 03:59:42 行情接口配置文件读取成功
2021-11-26 03:59:42 发送登录行情服务器请求失败
2021-11-26 03:59:42 连接行情服务器成功OnFrontConnected
2021-11-26 03:59:42 行情登录成功OnRspUserLogin
2021-11-26 03:59:58 行情接口配置文件读取成功
2021-11-26 03:59:58 发送登录行情服务器请求失败
2021-11-26 03:59:58 连接行情服务器成功OnFrontConnected
2021-11-26 03:59:58 行情登录成功OnRspUserLogin
2021-11-26 04:01:22 行情接口配置文件读取成功
2021-11-26 04:01:22 发送登录行情服务器请求失败
2021-11-26 04:01:22 连接行情服务器成功OnFrontConnected
2021-11-26 04:01:22 行情登录成功OnRspUserLogin
2021-11-26 04:02:17 行情接口配置文件读取成功
2021-11-26 04:02:17 发送登录行情服务器请求失败
2021-11-26 04:02:17 连接行情服务器成功OnFrontConnected
2021-11-26 04:02:17 行情登录成功OnRspUserLogin
2021-11-26 04:04:36 行情接口配置文件读取成功
2021-11-26 04:04:36 发送登录行情服务器请求失败
2021-11-26 04:04:36 连接行情服务器成功OnFrontConnected
2021-11-26 04:04:36 行情登录成功OnRspUserLogin
2021-11-26 04:06:21 行情接口配置文件读取成功
2021-11-26 04:06:21 发送登录行情服务器请求失败
2021-11-26 04:06:21 连接行情服务器成功OnFrontConnected
2021-11-26 04:06:21 行情登录成功OnRspUserLogin
2021-11-26 04:20:14 行情接口配置文件读取成功
2021-11-26 04:20:14 发送登录行情服务器请求失败
2021-11-26 04:20:14 连接行情服务器成功OnFrontConnected
2021-11-26 04:20:14 行情登录成功OnRspUserLogin
2021-11-26 04:22:12 行情接口配置文件读取成功
2021-11-26 04:22:12 发送登录行情服务器请求失败
2021-11-26 04:22:12 连接行情服务器成功OnFrontConnected
2021-11-26 04:22:12 行情登录成功OnRspUserLogin
2021-11-26 04:24:25 行情接口配置文件读取成功
2021-11-26 04:24:25 发送登录行情服务器请求失败
2021-11-26 04:24:25 连接行情服务器成功OnFrontConnected
2021-11-26 04:24:25 行情登录成功OnRspUserLogin
2021-11-26 04:29:26 行情接口配置文件读取成功
2021-11-26 04:29:26 发送登录行情服务器请求失败
2021-11-26 04:29:26 连接行情服务器成功OnFrontConnected
2021-11-26 04:29:26 行情登录成功OnRspUserLogin
2021-11-26 04:30:52 行情接口配置文件读取成功
2021-11-26 04:30:52 发送登录行情服务器请求失败
2021-11-26 04:30:52 连接行情服务器成功OnFrontConnected
2021-11-26 04:30:53 行情登录成功OnRspUserLogin
2021-11-26 04:31:06 行情接口配置文件读取成功
2021-11-26 04:31:06 发送登录行情服务器请求失败
2021-11-26 04:31:06 连接行情服务器成功OnFrontConnected
2021-11-26 04:31:06 行情登录成功OnRspUserLogin
2021-11-26 04:31:21 行情接口配置文件读取成功
2021-11-26 04:31:21 发送登录行情服务器请求失败
2021-11-26 04:31:21 连接行情服务器成功OnFrontConnected
2021-11-26 04:31:21 行情登录成功OnRspUserLogin
2021-11-26 04:33:48 行情接口配置文件读取成功
2021-11-26 04:33:48 发送登录行情服务器请求失败
2021-11-26 04:33:48 连接行情服务器成功OnFrontConnected
2021-11-26 04:33:48 行情登录成功OnRspUserLogin
2021-11-26 04:38:21 行情接口配置文件读取成功
2021-11-26 04:38:21 发送登录行情服务器请求失败
2021-11-26 04:38:21 连接行情服务器成功OnFrontConnected
2021-11-26 04:38:21 行情登录成功OnRspUserLogin
2021-11-26 04:39:00 行情接口配置文件读取成功
2021-11-26 04:39:00 发送登录行情服务器请求失败
2021-11-26 04:39:00 连接行情服务器成功OnFrontConnected
2021-11-26 04:39:00 行情登录成功OnRspUserLogin
2021-11-26 04:39:42 行情接口配置文件读取成功
2021-11-26 04:39:42 发送登录行情服务器请求失败
2021-11-26 04:39:42 连接行情服务器成功OnFrontConnected
2021-11-26 04:39:42 行情登录成功OnRspUserLogin
2021-11-26 04:40:01 行情接口配置文件读取成功
2021-11-26 04:40:01 发送登录行情服务器请求失败
2021-11-26 04:40:01 连接行情服务器成功OnFrontConnected
2021-11-26 04:40:01 行情登录成功OnRspUserLogin
2021-11-26 04:41:25 行情接口配置文件读取成功
2021-11-26 04:41:25 发送登录行情服务器请求失败
2021-11-26 04:41:25 连接行情服务器成功OnFrontConnected
2021-11-26 04:41:25 行情登录成功OnRspUserLogin
2021-11-26 04:42:27 行情接口配置文件读取成功
2021-11-26 04:42:28 发送登录行情服务器请求成功
2021-11-26 04:42:28 断开与行情服务器连接OnFrontDisconnected
2021-11-26 04:42:28 连接行情服务器成功OnFrontConnected
2021-11-26 04:42:28 行情登录成功OnRspUserLogin
2021-11-26 04:43:27 行情接口配置文件读取成功
2021-11-26 04:43:27 发送登录行情服务器请求失败
2021-11-26 04:43:27 连接行情服务器成功OnFrontConnected
2021-11-26 04:43:27 行情登录成功OnRspUserLogin
2021-11-26 04:44:34 行情接口配置文件读取成功
2021-11-26 04:44:34 发送登录行情服务器请求失败
2021-11-26 04:44:34 连接行情服务器成功OnFrontConnected
2021-11-26 04:44:34 行情登录成功OnRspUserLogin
2021-11-26 04:45:21 行情接口配置文件读取成功
2021-11-26 04:45:21 发送登录行情服务器请求失败
2021-11-26 04:45:21 连接行情服务器成功OnFrontConnected
2021-11-26 04:45:21 行情登录成功OnRspUserLogin
2021-11-26 04:46:13 行情接口配置文件读取成功
2021-11-26 04:46:13 发送登录行情服务器请求失败
2021-11-26 04:46:13 连接行情服务器成功OnFrontConnected
2021-11-26 04:46:13 行情登录成功OnRspUserLogin
2021-11-26 04:47:22 行情接口配置文件读取成功
2021-11-26 04:47:22 发送登录行情服务器请求失败
2021-11-26 04:47:22 连接行情服务器成功OnFrontConnected
2021-11-26 04:47:22 行情登录成功OnRspUserLogin
2021-11-26 04:48:36 行情接口配置文件读取成功
2021-11-26 04:48:36 发送登录行情服务器请求失败
2021-11-26 04:48:36 连接行情服务器成功OnFrontConnected
2021-11-26 04:48:36 行情登录成功OnRspUserLogin
2021-11-26 04:49:18 行情接口配置文件读取成功
2021-11-26 04:49:18 发送登录行情服务器请求失败
2021-11-26 04:49:18 连接行情服务器成功OnFrontConnected
2021-11-26 04:49:18 行情登录成功OnRspUserLogin
2021-11-26 04:50:03 行情接口配置文件读取成功
2021-11-26 04:50:03 发送登录行情服务器请求失败
2021-11-26 04:50:03 连接行情服务器成功OnFrontConnected
2021-11-26 04:50:03 行情登录成功OnRspUserLogin
2021-11-26 04:58:03 行情接口配置文件读取成功
2021-11-26 04:58:03 发送登录行情服务器请求成功
2021-11-26 04:58:03 断开与行情服务器连接OnFrontDisconnected
2021-11-26 04:58:04 连接行情服务器成功OnFrontConnected
2021-11-26 04:58:04 行情登录成功OnRspUserLogin
2021-11-26 11:36:50 行情接口配置文件读取成功
2021-11-26 11:36:50 发送登录行情服务器请求失败
2021-11-26 11:36:50 连接行情服务器成功OnFrontConnected
2021-11-26 11:36:50 行情登录成功OnRspUserLogin
2021-11-26 11:38:34 行情接口配置文件读取成功
2021-11-26 11:38:34 发送登录行情服务器请求失败
2021-11-26 11:38:35 连接行情服务器成功OnFrontConnected
2021-11-26 11:38:35 行情登录成功OnRspUserLogin
2021-11-26 11:50:19 行情接口配置文件读取成功
2021-11-26 11:50:19 发送登录行情服务器请求失败
2021-11-26 11:50:19 连接行情服务器成功OnFrontConnected
2021-11-26 11:50:19 行情登录成功OnRspUserLogin
2021-11-26 11:52:34 行情接口配置文件读取成功
2021-11-26 11:52:34 发送登录行情服务器请求失败
2021-11-26 11:52:34 连接行情服务器成功OnFrontConnected
2021-11-26 11:52:34 行情登录成功OnRspUserLogin
2021-11-26 11:54:27 行情接口配置文件读取成功
2021-11-26 11:54:27 发送登录行情服务器请求失败
2021-11-26 11:54:27 连接行情服务器成功OnFrontConnected
2021-11-26 11:54:27 行情登录成功OnRspUserLogin
2021-11-26 11:56:46 行情接口配置文件读取成功
2021-11-26 11:56:46 发送登录行情服务器请求失败
2021-11-26 11:56:46 连接行情服务器成功OnFrontConnected
2021-11-26 11:56:46 行情登录成功OnRspUserLogin
2021-11-26 11:58:23 断开与行情服务器连接OnFrontDisconnected
2021-11-26 12:09:23 行情接口配置文件读取成功
2021-11-26 12:09:23 发送登录行情服务器请求失败
2021-11-26 12:10:52 行情接口配置文件读取成功
2021-11-26 12:10:52 发送登录行情服务器请求失败
2021-11-26 12:11:34 行情接口配置文件读取成功
2021-11-26 12:11:34 发送登录行情服务器请求失败
2021-11-26 12:12:24 连接行情服务器成功OnFrontConnected
2021-11-26 12:12:24 行情登录成功OnRspUserLogin
2021-11-26 12:13:15 行情接口配置文件读取成功
2021-11-26 12:13:15 发送登录行情服务器请求失败
2021-11-26 12:13:15 连接行情服务器成功OnFrontConnected
2021-11-26 12:13:15 行情登录成功OnRspUserLogin
2021-11-26 12:13:55 行情接口配置文件读取成功
2021-11-26 12:13:55 发送登录行情服务器请求失败
2021-11-26 12:13:55 连接行情服务器成功OnFrontConnected
2021-11-26 12:13:55 行情登录成功OnRspUserLogin
2021-11-26 12:14:43 行情接口配置文件读取成功
2021-11-26 12:14:43 发送登录行情服务器请求失败
2021-11-26 12:14:43 连接行情服务器成功OnFrontConnected
2021-11-26 12:14:43 行情登录成功OnRspUserLogin
2021-11-26 12:43:13 行情接口配置文件读取成功
2021-11-26 12:43:13 发送登录行情服务器请求失败
2021-11-26 12:43:13 连接行情服务器成功OnFrontConnected
2021-11-26 12:43:13 行情登录成功OnRspUserLogin
2021-11-26 12:44:27 行情接口配置文件读取成功
2021-11-26 12:44:27 发送登录行情服务器请求失败
2021-11-26 12:44:27 连接行情服务器成功OnFrontConnected
2021-11-26 12:44:27 行情登录成功OnRspUserLogin
2021-11-26 12:48:28 行情接口配置文件读取成功
2021-11-26 12:48:28 发送登录行情服务器请求失败
2021-11-26 12:48:28 连接行情服务器成功OnFrontConnected
2021-11-26 12:48:28 行情登录成功OnRspUserLogin
2021-11-26 12:52:46 行情接口配置文件读取成功
2021-11-26 12:52:46 发送登录行情服务器请求失败
2021-11-26 12:52:46 连接行情服务器成功OnFrontConnected
2021-11-26 12:52:46 行情登录成功OnRspUserLogin
2021-11-26 12:55:19 行情接口配置文件读取成功
2021-11-26 12:55:19 发送登录行情服务器请求失败
2021-11-26 12:55:19 连接行情服务器成功OnFrontConnected
2021-11-26 12:55:19 行情登录成功OnRspUserLogin
2021-11-26 12:55:33 行情接口配置文件读取成功
2021-11-26 12:55:33 发送登录行情服务器请求失败
2021-11-26 12:55:33 连接行情服务器成功OnFrontConnected
2021-11-26 12:55:33 行情登录成功OnRspUserLogin
2021-11-26 12:58:59 行情接口配置文件读取成功
2021-11-26 12:58:59 发送登录行情服务器请求失败
2021-11-26 12:58:59 连接行情服务器成功OnFrontConnected
2021-11-26 12:58:59 行情登录成功OnRspUserLogin
2021-11-26 12:59:13 行情接口配置文件读取成功
2021-11-26 12:59:13 发送登录行情服务器请求失败
2021-11-26 12:59:13 连接行情服务器成功OnFrontConnected
2021-11-26 12:59:13 行情登录成功OnRspUserLogin
2021-11-26 13:00:36 行情接口配置文件读取成功
2021-11-26 13:00:36 发送登录行情服务器请求失败
2021-11-26 13:00:36 连接行情服务器成功OnFrontConnected
2021-11-26 13:00:36 行情登录成功OnRspUserLogin
2021-11-26 13:05:33 行情接口配置文件读取成功
2021-11-26 13:05:33 发送登录行情服务器请求失败
2021-11-26 13:05:33 连接行情服务器成功OnFrontConnected
2021-11-26 13:05:33 行情登录成功OnRspUserLogin
2021-11-26 13:06:45 行情接口配置文件读取成功
2021-11-26 13:06:45 发送登录行情服务器请求失败
2021-11-26 13:06:45 连接行情服务器成功OnFrontConnected
2021-11-26 13:06:45 行情登录成功OnRspUserLogin
2021-11-26 13:07:50 行情接口配置文件读取成功
2021-11-26 13:07:50 发送登录行情服务器请求失败
2021-11-26 13:07:50 连接行情服务器成功OnFrontConnected
2021-11-26 13:07:50 行情登录成功OnRspUserLogin
2021-11-26 13:09:35 行情接口配置文件读取成功
2021-11-26 13:09:35 发送登录行情服务器请求失败
2021-11-26 13:09:35 连接行情服务器成功OnFrontConnected
2021-11-26 13:09:35 行情登录成功OnRspUserLogin
2021-11-26 13:10:24 行情接口配置文件读取成功
2021-11-26 13:10:24 发送登录行情服务器请求失败
2021-11-26 13:10:24 连接行情服务器成功OnFrontConnected
2021-11-26 13:10:24 行情登录成功OnRspUserLogin
2021-11-26 13:11:31 行情接口配置文件读取成功
2021-11-26 13:11:31 发送登录行情服务器请求失败
2021-11-26 13:11:31 连接行情服务器成功OnFrontConnected
2021-11-26 13:11:31 行情登录成功OnRspUserLogin
2021-11-26 13:11:56 行情接口配置文件读取成功
2021-11-26 13:11:56 发送登录行情服务器请求失败
2021-11-26 13:11:56 连接行情服务器成功OnFrontConnected
2021-11-26 13:11:56 行情登录成功OnRspUserLogin
2021-11-26 13:13:55 行情接口配置文件读取成功
2021-11-26 13:13:55 发送登录行情服务器请求失败
2021-11-26 13:13:55 连接行情服务器成功OnFrontConnected
2021-11-26 13:13:55 行情登录成功OnRspUserLogin
2021-11-26 13:14:52 行情接口配置文件读取成功
2021-11-26 13:14:52 发送登录行情服务器请求失败
2021-11-26 13:14:52 连接行情服务器成功OnFrontConnected
2021-11-26 13:14:52 行情登录成功OnRspUserLogin
2021-11-26 13:33:04 行情接口配置文件读取成功
2021-11-26 13:33:04 发送登录行情服务器请求失败
2021-11-26 13:33:04 连接行情服务器成功OnFrontConnected
2021-11-26 13:33:04 行情登录成功OnRspUserLogin
2021-11-26 13:35:17 行情接口配置文件读取成功
2021-11-26 13:35:17 发送登录行情服务器请求失败
2021-11-26 13:35:17 连接行情服务器成功OnFrontConnected
2021-11-26 13:35:17 行情登录成功OnRspUserLogin
2021-11-26 13:38:31 行情接口配置文件读取成功
2021-11-26 13:38:31 发送登录行情服务器请求失败
2021-11-26 13:38:31 连接行情服务器成功OnFrontConnected
2021-11-26 13:38:31 行情登录成功OnRspUserLogin
2021-11-26 13:40:26 行情接口配置文件读取成功
2021-11-26 13:40:26 发送登录行情服务器请求失败
2021-11-26 13:40:26 连接行情服务器成功OnFrontConnected
2021-11-26 13:40:26 行情登录成功OnRspUserLogin
2021-11-26 13:41:20 行情接口配置文件读取成功
2021-11-26 13:41:20 发送登录行情服务器请求失败
2021-11-26 13:41:20 连接行情服务器成功OnFrontConnected
2021-11-26 13:41:20 行情登录成功OnRspUserLogin
2021-11-26 13:41:43 行情接口配置文件读取成功
2021-11-26 13:41:43 发送登录行情服务器请求失败
2021-11-26 13:41:43 连接行情服务器成功OnFrontConnected
2021-11-26 13:41:43 行情登录成功OnRspUserLogin
2021-11-26 13:41:55 行情接口配置文件读取成功
2021-11-26 13:41:55 发送登录行情服务器请求失败
2021-11-26 13:41:55 连接行情服务器成功OnFrontConnected
2021-11-26 13:41:55 行情登录成功OnRspUserLogin
2021-11-26 13:42:07 行情接口配置文件读取成功
2021-11-26 13:42:07 发送登录行情服务器请求失败
2021-11-26 13:42:07 连接行情服务器成功OnFrontConnected
2021-11-26 13:42:07 行情登录成功OnRspUserLogin
2021-11-26 13:45:01 行情接口配置文件读取成功
2021-11-26 13:45:01 发送登录行情服务器请求失败
2021-11-26 13:45:01 连接行情服务器成功OnFrontConnected
2021-11-26 13:45:01 行情登录成功OnRspUserLogin
2021-11-26 13:46:32 行情接口配置文件读取成功
2021-11-26 13:46:32 发送登录行情服务器请求失败
2021-11-26 13:46:32 连接行情服务器成功OnFrontConnected
2021-11-26 13:46:32 行情登录成功OnRspUserLogin
2021-11-26 13:47:17 行情接口配置文件读取成功
2021-11-26 13:47:17 发送登录行情服务器请求失败
2021-11-26 13:47:17 连接行情服务器成功OnFrontConnected
2021-11-26 13:47:17 行情登录成功OnRspUserLogin
2021-11-26 13:47:48 行情接口配置文件读取成功
2021-11-26 13:47:48 发送登录行情服务器请求失败
2021-11-26 13:47:48 连接行情服务器成功OnFrontConnected
2021-11-26 13:47:48 行情登录成功OnRspUserLogin
2021-11-26 13:48:36 行情接口配置文件读取成功
2021-11-26 13:48:36 发送登录行情服务器请求失败
2021-11-26 13:48:37 连接行情服务器成功OnFrontConnected
2021-11-26 13:48:37 行情登录成功OnRspUserLogin
2021-11-26 13:49:03 行情接口配置文件读取成功
2021-11-26 13:49:03 发送登录行情服务器请求失败
2021-11-26 13:49:03 连接行情服务器成功OnFrontConnected
2021-11-26 13:49:03 行情登录成功OnRspUserLogin
2021-11-26 13:49:11 行情接口配置文件读取成功
2021-11-26 13:49:11 发送登录行情服务器请求失败
2021-11-26 13:49:11 连接行情服务器成功OnFrontConnected
2021-11-26 13:49:11 行情登录成功OnRspUserLogin
2021-11-26 13:49:23 行情接口配置文件读取成功
2021-11-26 13:49:23 发送登录行情服务器请求失败
2021-11-26 13:49:23 连接行情服务器成功OnFrontConnected
2021-11-26 13:49:23 行情登录成功OnRspUserLogin
2021-11-26 13:50:30 行情接口配置文件读取成功
2021-11-26 13:50:30 发送登录行情服务器请求失败
2021-11-26 13:50:30 连接行情服务器成功OnFrontConnected
2021-11-26 13:50:30 行情登录成功OnRspUserLogin
2021-11-26 13:51:04 行情接口配置文件读取成功
2021-11-26 13:51:04 发送登录行情服务器请求失败
2021-11-26 13:51:04 连接行情服务器成功OnFrontConnected
2021-11-26 13:51:04 行情登录成功OnRspUserLogin
2021-11-26 13:51:29 行情接口配置文件读取成功
2021-11-26 13:51:29 发送登录行情服务器请求失败
2021-11-26 13:51:29 连接行情服务器成功OnFrontConnected
2021-11-26 13:51:29 行情登录成功OnRspUserLogin
2021-11-26 13:52:20 行情接口配置文件读取成功
2021-11-26 13:52:20 发送登录行情服务器请求失败
2021-11-26 13:52:20 连接行情服务器成功OnFrontConnected
2021-11-26 13:52:20 行情登录成功OnRspUserLogin
2021-11-26 13:54:39 行情接口配置文件读取成功
2021-11-26 13:54:39 发送登录行情服务器请求失败
2021-11-26 13:54:39 连接行情服务器成功OnFrontConnected
2021-11-26 13:54:39 行情登录成功OnRspUserLogin
2021-11-26 13:55:42 行情接口配置文件读取成功
2021-11-26 13:55:42 发送登录行情服务器请求失败
2021-11-26 13:55:42 连接行情服务器成功OnFrontConnected
2021-11-26 13:55:42 行情登录成功OnRspUserLogin
2021-11-26 13:57:02 行情接口配置文件读取成功
2021-11-26 13:57:02 发送登录行情服务器请求失败
2021-11-26 13:57:02 连接行情服务器成功OnFrontConnected
2021-11-26 13:57:02 行情登录成功OnRspUserLogin
2021-11-26 13:58:03 行情接口配置文件读取成功
2021-11-26 13:58:03 发送登录行情服务器请求失败
2021-11-26 13:58:03 连接行情服务器成功OnFrontConnected
2021-11-26 13:58:03 行情登录成功OnRspUserLogin
2021-11-26 13:58:11 行情接口配置文件读取成功
2021-11-26 13:58:11 发送登录行情服务器请求失败
2021-11-26 13:58:11 连接行情服务器成功OnFrontConnected
2021-11-26 13:58:11 行情登录成功OnRspUserLogin
2021-11-26 13:58:57 行情接口配置文件读取成功
2021-11-26 13:58:57 发送登录行情服务器请求失败
2021-11-26 13:58:57 连接行情服务器成功OnFrontConnected
2021-11-26 13:58:57 行情登录成功OnRspUserLogin
2021-11-26 14:00:07 行情接口配置文件读取成功
2021-11-26 14:00:07 发送登录行情服务器请求失败
2021-11-26 14:00:07 连接行情服务器成功OnFrontConnected
2021-11-26 14:00:07 行情登录成功OnRspUserLogin
2021-11-26 14:01:02 行情接口配置文件读取成功
2021-11-26 14:01:02 发送登录行情服务器请求失败
2021-11-26 14:01:02 连接行情服务器成功OnFrontConnected
2021-11-26 14:01:02 行情登录成功OnRspUserLogin
2021-11-26 14:01:50 行情接口配置文件读取成功
2021-11-26 14:01:50 发送登录行情服务器请求失败
2021-11-26 14:01:50 连接行情服务器成功OnFrontConnected
2021-11-26 14:01:50 行情登录成功OnRspUserLogin
2021-11-26 14:05:12 行情接口配置文件读取成功
2021-11-26 14:05:12 发送登录行情服务器请求失败
2021-11-26 14:05:12 连接行情服务器成功OnFrontConnected
2021-11-26 14:05:12 行情登录成功OnRspUserLogin
2021-11-26 14:05:45 行情接口配置文件读取成功
2021-11-26 14:05:45 发送登录行情服务器请求失败
2021-11-26 14:05:45 连接行情服务器成功OnFrontConnected
2021-11-26 14:05:45 行情登录成功OnRspUserLogin
2021-11-26 14:06:23 行情接口配置文件读取成功
2021-11-26 14:06:23 发送登录行情服务器请求失败
2021-11-26 14:06:23 连接行情服务器成功OnFrontConnected
2021-11-26 14:06:23 行情登录成功OnRspUserLogin
2021-11-26 14:06:45 行情接口配置文件读取成功
2021-11-26 14:06:45 发送登录行情服务器请求失败
2021-11-26 14:06:45 连接行情服务器成功OnFrontConnected
2021-11-26 14:06:45 行情登录成功OnRspUserLogin
2021-11-26 14:07:20 行情接口配置文件读取成功
2021-11-26 14:07:20 发送登录行情服务器请求失败
2021-11-26 14:07:20 连接行情服务器成功OnFrontConnected
2021-11-26 14:07:20 行情登录成功OnRspUserLogin
2021-11-26 14:07:43 行情接口配置文件读取成功
2021-11-26 14:07:43 发送登录行情服务器请求失败
2021-11-26 14:07:43 连接行情服务器成功OnFrontConnected
2021-11-26 14:07:43 行情登录成功OnRspUserLogin
2021-11-26 14:08:17 行情接口配置文件读取成功
2021-11-26 14:08:17 发送登录行情服务器请求失败
2021-11-26 14:08:17 连接行情服务器成功OnFrontConnected
2021-11-26 14:08:17 行情登录成功OnRspUserLogin
2021-11-26 14:09:15 行情接口配置文件读取成功
2021-11-26 14:09:15 发送登录行情服务器请求失败
2021-11-26 14:09:15 连接行情服务器成功OnFrontConnected
2021-11-26 14:09:15 行情登录成功OnRspUserLogin
2021-11-26 14:09:26 行情接口配置文件读取成功
2021-11-26 14:09:26 发送登录行情服务器请求失败
2021-11-26 14:09:27 连接行情服务器成功OnFrontConnected
2021-11-26 14:09:27 行情登录成功OnRspUserLogin
2021-11-26 14:09:40 行情接口配置文件读取成功
2021-11-26 14:09:40 发送登录行情服务器请求失败
2021-11-26 14:09:40 连接行情服务器成功OnFrontConnected
2021-11-26 14:09:40 行情登录成功OnRspUserLogin
2021-11-26 14:11:55 行情接口配置文件读取成功
2021-11-26 14:11:55 发送登录行情服务器请求失败
2021-11-26 14:11:55 连接行情服务器成功OnFrontConnected
2021-11-26 14:11:55 行情登录成功OnRspUserLogin
2021-11-26 14:13:22 行情接口配置文件读取成功
2021-11-26 14:13:22 发送登录行情服务器请求失败
2021-11-26 14:13:22 连接行情服务器成功OnFrontConnected
2021-11-26 14:13:22 行情登录成功OnRspUserLogin
2021-11-26 14:14:05 行情接口配置文件读取成功
2021-11-26 14:14:05 发送登录行情服务器请求失败
2021-11-26 14:14:05 连接行情服务器成功OnFrontConnected
2021-11-26 14:14:05 行情登录成功OnRspUserLogin
2021-11-26 14:15:03 行情接口配置文件读取成功
2021-11-26 14:15:03 发送登录行情服务器请求失败
2021-11-26 14:15:03 连接行情服务器成功OnFrontConnected
2021-11-26 14:15:03 行情登录成功OnRspUserLogin
2021-11-26 14:15:58 行情接口配置文件读取成功
2021-11-26 14:15:58 发送登录行情服务器请求失败
2021-11-26 14:15:58 连接行情服务器成功OnFrontConnected
2021-11-26 14:15:58 行情登录成功OnRspUserLogin
2021-11-26 14:16:25 行情接口配置文件读取成功
2021-11-26 14:16:25 发送登录行情服务器请求失败
2021-11-26 14:16:25 连接行情服务器成功OnFrontConnected
2021-11-26 14:16:25 行情登录成功OnRspUserLogin
2021-11-26 14:16:37 行情接口配置文件读取成功
2021-11-26 14:16:37 发送登录行情服务器请求失败
2021-11-26 14:16:37 连接行情服务器成功OnFrontConnected
2021-11-26 14:16:37 行情登录成功OnRspUserLogin
2021-11-26 14:16:54 行情接口配置文件读取成功
2021-11-26 14:16:54 发送登录行情服务器请求失败
2021-11-26 14:16:54 连接行情服务器成功OnFrontConnected
2021-11-26 14:16:54 行情登录成功OnRspUserLogin
2021-11-26 14:17:36 行情接口配置文件读取成功
2021-11-26 14:17:36 发送登录行情服务器请求失败
2021-11-26 14:17:36 连接行情服务器成功OnFrontConnected
2021-11-26 14:17:36 行情登录成功OnRspUserLogin
2021-11-26 14:17:45 行情接口配置文件读取成功
2021-11-26 14:17:45 发送登录行情服务器请求失败
2021-11-26 14:17:45 连接行情服务器成功OnFrontConnected
2021-11-26 14:17:45 行情登录成功OnRspUserLogin
2021-11-26 14:19:01 行情接口配置文件读取成功
2021-11-26 14:19:01 发送登录行情服务器请求失败
2021-11-26 14:19:01 连接行情服务器成功OnFrontConnected
2021-11-26 14:19:01 行情登录成功OnRspUserLogin
2021-11-26 14:19:29 行情接口配置文件读取成功
2021-11-26 14:19:29 发送登录行情服务器请求失败
2021-11-26 14:19:30 连接行情服务器成功OnFrontConnected
2021-11-26 14:19:30 行情登录成功OnRspUserLogin
2021-11-26 14:20:18 行情接口配置文件读取成功
2021-11-26 14:20:18 发送登录行情服务器请求失败
2021-11-26 14:20:18 连接行情服务器成功OnFrontConnected
2021-11-26 14:20:18 行情登录成功OnRspUserLogin
2021-11-26 14:20:53 行情接口配置文件读取成功
2021-11-26 14:20:53 发送登录行情服务器请求失败
2021-11-26 14:20:53 连接行情服务器成功OnFrontConnected
2021-11-26 14:20:53 行情登录成功OnRspUserLogin
2021-11-26 14:21:32 行情接口配置文件读取成功
2021-11-26 14:21:32 发送登录行情服务器请求失败
2021-11-26 14:21:32 连接行情服务器成功OnFrontConnected
2021-11-26 14:21:32 行情登录成功OnRspUserLogin
2021-11-26 14:22:06 行情接口配置文件读取成功
2021-11-26 14:22:06 发送登录行情服务器请求失败
2021-11-26 14:22:06 连接行情服务器成功OnFrontConnected
2021-11-26 14:22:06 行情登录成功OnRspUserLogin
2021-11-26 14:22:45 行情接口配置文件读取成功
2021-11-26 14:22:45 发送登录行情服务器请求失败
2021-11-26 14:22:45 连接行情服务器成功OnFrontConnected
2021-11-26 14:22:45 行情登录成功OnRspUserLogin
2021-11-26 14:23:59 行情接口配置文件读取成功
2021-11-26 14:23:59 发送登录行情服务器请求失败
2021-11-26 14:23:59 连接行情服务器成功OnFrontConnected
2021-11-26 14:23:59 行情登录成功OnRspUserLogin
2021-11-26 14:25:27 行情接口配置文件读取成功
2021-11-26 14:25:27 发送登录行情服务器请求失败
2021-11-26 14:25:27 连接行情服务器成功OnFrontConnected
2021-11-26 14:25:27 行情登录成功OnRspUserLogin
2021-11-26 14:26:17 行情接口配置文件读取成功
2021-11-26 14:26:17 发送登录行情服务器请求失败
2021-11-26 14:26:17 连接行情服务器成功OnFrontConnected
2021-11-26 14:26:17 行情登录成功OnRspUserLogin
2021-11-26 14:28:06 行情接口配置文件读取成功
2021-11-26 14:28:06 发送登录行情服务器请求失败
2021-11-26 14:28:06 连接行情服务器成功OnFrontConnected
2021-11-26 14:28:06 行情登录成功OnRspUserLogin
2021-11-26 14:28:21 行情接口配置文件读取成功
2021-11-26 14:28:21 发送登录行情服务器请求失败
2021-11-26 14:28:21 连接行情服务器成功OnFrontConnected
2021-11-26 14:28:21 行情登录成功OnRspUserLogin
2021-11-26 14:30:18 行情接口配置文件读取成功
2021-11-26 14:30:18 发送登录行情服务器请求失败
2021-11-26 14:30:18 连接行情服务器成功OnFrontConnected
2021-11-26 14:30:18 行情登录成功OnRspUserLogin
2021-11-26 14:30:50 行情接口配置文件读取成功
2021-11-26 14:30:50 发送登录行情服务器请求失败
2021-11-26 14:30:50 连接行情服务器成功OnFrontConnected
2021-11-26 14:30:50 行情登录成功OnRspUserLogin
2021-11-26 14:32:03 行情接口配置文件读取成功
2021-11-26 14:32:03 发送登录行情服务器请求失败
2021-11-26 14:32:03 连接行情服务器成功OnFrontConnected
2021-11-26 14:32:03 行情登录成功OnRspUserLogin
2021-11-26 14:32:55 行情接口配置文件读取成功
2021-11-26 14:32:55 发送登录行情服务器请求失败
2021-11-26 14:32:55 连接行情服务器成功OnFrontConnected
2021-11-26 14:32:55 行情登录成功OnRspUserLogin
2021-11-26 14:35:49 行情接口配置文件读取成功
2021-11-26 14:35:49 发送登录行情服务器请求失败
2021-11-26 14:35:49 连接行情服务器成功OnFrontConnected
2021-11-26 14:35:49 行情登录成功OnRspUserLogin
2021-11-26 14:37:00 行情接口配置文件读取成功
2021-11-26 14:37:00 发送登录行情服务器请求失败
2021-11-26 14:37:00 连接行情服务器成功OnFrontConnected
2021-11-26 14:37:00 行情登录成功OnRspUserLogin
2021-11-26 14:37:12 行情接口配置文件读取成功
2021-11-26 14:37:12 发送登录行情服务器请求失败
2021-11-26 14:37:12 连接行情服务器成功OnFrontConnected
2021-11-26 14:37:12 行情登录成功OnRspUserLogin
2021-11-26 14:37:52 行情接口配置文件读取成功
2021-11-26 14:37:52 发送登录行情服务器请求失败
2021-11-26 14:37:52 连接行情服务器成功OnFrontConnected
2021-11-26 14:37:52 行情登录成功OnRspUserLogin
2021-11-26 14:38:35 行情接口配置文件读取成功
2021-11-26 14:38:35 发送登录行情服务器请求失败
2021-11-26 14:38:35 连接行情服务器成功OnFrontConnected
2021-11-26 14:38:35 行情登录成功OnRspUserLogin
2021-11-26 14:39:22 行情接口配置文件读取成功
2021-11-26 14:39:22 发送登录行情服务器请求失败
2021-11-26 14:39:22 连接行情服务器成功OnFrontConnected
2021-11-26 14:39:22 行情登录成功OnRspUserLogin
2021-11-26 14:39:58 行情接口配置文件读取成功
2021-11-26 14:39:58 发送登录行情服务器请求失败
2021-11-26 14:39:58 连接行情服务器成功OnFrontConnected
2021-11-26 14:39:58 行情登录成功OnRspUserLogin
2021-11-26 14:40:35 行情接口配置文件读取成功
2021-11-26 14:40:35 发送登录行情服务器请求失败
2021-11-26 14:40:35 连接行情服务器成功OnFrontConnected
2021-11-26 14:40:35 行情登录成功OnRspUserLogin
2021-11-26 14:41:10 行情接口配置文件读取成功
2021-11-26 14:41:10 发送登录行情服务器请求失败
2021-11-26 14:41:10 连接行情服务器成功OnFrontConnected
2021-11-26 14:41:11 行情登录成功OnRspUserLogin
2021-11-26 14:41:34 行情接口配置文件读取成功
2021-11-26 14:41:34 发送登录行情服务器请求失败
2021-11-26 14:41:34 连接行情服务器成功OnFrontConnected
2021-11-26 14:41:34 行情登录成功OnRspUserLogin
2021-11-26 14:42:11 行情接口配置文件读取成功
2021-11-26 14:42:11 发送登录行情服务器请求失败
2021-11-26 14:42:11 连接行情服务器成功OnFrontConnected
2021-11-26 14:42:11 行情登录成功OnRspUserLogin
2021-11-26 14:42:57 行情接口配置文件读取成功
2021-11-26 14:42:57 发送登录行情服务器请求失败
2021-11-26 14:42:57 连接行情服务器成功OnFrontConnected
2021-11-26 14:42:57 行情登录成功OnRspUserLogin
2021-11-26 14:45:56 行情接口配置文件读取成功
2021-11-26 14:45:56 发送登录行情服务器请求失败
2021-11-26 14:45:56 连接行情服务器成功OnFrontConnected
2021-11-26 14:45:56 行情登录成功OnRspUserLogin
2021-11-26 14:47:09 行情接口配置文件读取成功
2021-11-26 14:47:09 发送登录行情服务器请求失败
2021-11-26 14:47:09 连接行情服务器成功OnFrontConnected
2021-11-26 14:47:09 行情登录成功OnRspUserLogin
2021-11-26 14:47:54 行情接口配置文件读取成功
2021-11-26 14:47:54 发送登录行情服务器请求失败
2021-11-26 14:47:54 连接行情服务器成功OnFrontConnected
2021-11-26 14:47:54 行情登录成功OnRspUserLogin
2021-11-26 14:48:18 行情接口配置文件读取成功
2021-11-26 14:48:18 发送登录行情服务器请求失败
2021-11-26 14:48:18 连接行情服务器成功OnFrontConnected
2021-11-26 14:48:18 行情登录成功OnRspUserLogin
2021-11-26 14:48:27 行情接口配置文件读取成功
2021-11-26 14:48:27 发送登录行情服务器请求失败
2021-11-26 14:48:27 连接行情服务器成功OnFrontConnected
2021-11-26 14:48:27 行情登录成功OnRspUserLogin
2021-11-26 14:49:10 行情接口配置文件读取成功
2021-11-26 14:49:10 发送登录行情服务器请求失败
2021-11-26 14:49:10 连接行情服务器成功OnFrontConnected
2021-11-26 14:49:10 行情登录成功OnRspUserLogin
2021-11-26 14:49:25 行情接口配置文件读取成功
2021-11-26 14:49:25 发送登录行情服务器请求失败
2021-11-26 14:49:25 连接行情服务器成功OnFrontConnected
2021-11-26 14:49:25 行情登录成功OnRspUserLogin
2021-11-26 14:52:04 行情接口配置文件读取成功
2021-11-26 14:52:04 发送登录行情服务器请求失败
2021-11-26 14:52:04 连接行情服务器成功OnFrontConnected
2021-11-26 14:52:04 行情登录成功OnRspUserLogin
2021-11-26 14:52:16 行情接口配置文件读取成功
2021-11-26 14:52:16 发送登录行情服务器请求失败
2021-11-26 14:52:16 连接行情服务器成功OnFrontConnected
2021-11-26 14:52:16 行情登录成功OnRspUserLogin
2021-11-26 14:53:42 行情接口配置文件读取成功
2021-11-26 14:53:42 发送登录行情服务器请求失败
2021-11-26 14:53:42 连接行情服务器成功OnFrontConnected
2021-11-26 14:53:42 行情登录成功OnRspUserLogin
2021-11-26 14:54:33 行情接口配置文件读取成功
2021-11-26 14:54:33 发送登录行情服务器请求失败
2021-11-26 14:54:34 连接行情服务器成功OnFrontConnected
2021-11-26 14:54:34 行情登录成功OnRspUserLogin
2021-11-26 14:56:52 行情接口配置文件读取成功
2021-11-26 14:56:52 发送登录行情服务器请求失败
2021-11-26 14:56:52 连接行情服务器成功OnFrontConnected
2021-11-26 14:56:52 行情登录成功OnRspUserLogin
2021-11-26 14:58:53 行情接口配置文件读取成功
2021-11-26 14:58:53 发送登录行情服务器请求失败
2021-11-26 14:58:53 连接行情服务器成功OnFrontConnected
2021-11-26 14:58:53 行情登录成功OnRspUserLogin
2021-11-26 15:00:08 行情接口配置文件读取成功
2021-11-26 15:00:08 发送登录行情服务器请求失败
2021-11-26 15:00:08 连接行情服务器成功OnFrontConnected
2021-11-26 15:00:08 行情登录成功OnRspUserLogin
2021-11-26 15:01:36 行情接口配置文件读取成功
2021-11-26 15:01:36 发送登录行情服务器请求失败
2021-11-26 15:01:36 连接行情服务器成功OnFrontConnected
2021-11-26 15:01:36 行情登录成功OnRspUserLogin
2021-11-26 15:04:00 行情接口配置文件读取成功
2021-11-26 15:04:00 发送登录行情服务器请求失败
2021-11-26 15:04:00 连接行情服务器成功OnFrontConnected
2021-11-26 15:04:00 行情登录成功OnRspUserLogin
2021-11-26 15:04:43 行情接口配置文件读取成功
2021-11-26 15:04:43 发送登录行情服务器请求失败
2021-11-26 15:04:43 连接行情服务器成功OnFrontConnected
2021-11-26 15:04:43 行情登录成功OnRspUserLogin
2021-11-26 15:05:47 行情接口配置文件读取成功
2021-11-26 15:05:47 发送登录行情服务器请求失败
2021-11-26 15:05:47 连接行情服务器成功OnFrontConnected
2021-11-26 15:05:47 行情登录成功OnRspUserLogin
2021-11-26 15:05:58 行情接口配置文件读取成功
2021-11-26 15:05:58 发送登录行情服务器请求失败
2021-11-26 15:05:58 连接行情服务器成功OnFrontConnected
2021-11-26 15:05:58 行情登录成功OnRspUserLogin
2021-11-26 15:07:00 行情接口配置文件读取成功
2021-11-26 15:07:00 发送登录行情服务器请求失败
2021-11-26 15:07:00 连接行情服务器成功OnFrontConnected
2021-11-26 15:07:00 行情登录成功OnRspUserLogin
2021-11-26 15:16:29 行情接口配置文件读取成功
2021-11-26 15:16:29 发送登录行情服务器请求失败
2021-11-26 15:16:29 连接行情服务器成功OnFrontConnected
2021-11-26 15:16:29 行情登录成功OnRspUserLogin
2021-11-26 15:18:26 行情接口配置文件读取成功
2021-11-26 15:18:26 发送登录行情服务器请求失败
2021-11-26 15:18:26 连接行情服务器成功OnFrontConnected
2021-11-26 15:18:26 行情登录成功OnRspUserLogin
2021-11-26 15:20:21 行情接口配置文件读取成功
2021-11-26 15:20:21 发送登录行情服务器请求失败
2021-11-26 15:20:21 连接行情服务器成功OnFrontConnected
2021-11-26 15:20:21 行情登录成功OnRspUserLogin
2021-11-26 15:24:37 行情接口配置文件读取成功
2021-11-26 15:24:37 发送登录行情服务器请求失败
2021-11-26 15:24:37 连接行情服务器成功OnFrontConnected
2021-11-26 15:24:37 行情登录成功OnRspUserLogin
2021-11-26 15:27:15 行情接口配置文件读取成功
2021-11-26 15:27:15 发送登录行情服务器请求失败
2021-11-26 15:27:15 连接行情服务器成功OnFrontConnected
2021-11-26 15:27:15 行情登录成功OnRspUserLogin
2021-11-26 15:27:26 行情接口配置文件读取成功
2021-11-26 15:27:26 发送登录行情服务器请求失败
2021-11-26 15:27:26 连接行情服务器成功OnFrontConnected
2021-11-26 15:27:26 行情登录成功OnRspUserLogin
2021-11-26 15:28:38 行情接口配置文件读取成功
2021-11-26 15:28:38 发送登录行情服务器请求失败
2021-11-26 15:28:38 连接行情服务器成功OnFrontConnected
2021-11-26 15:28:38 行情登录成功OnRspUserLogin
2021-11-26 15:28:55 行情接口配置文件读取成功
2021-11-26 15:28:55 发送登录行情服务器请求失败
2021-11-26 15:28:55 连接行情服务器成功OnFrontConnected
2021-11-26 15:28:55 行情登录成功OnRspUserLogin
2021-11-26 20:13:41 行情接口配置文件读取成功
2021-11-26 20:13:41 发送登录行情服务器请求失败
2021-11-26 20:13:41 连接行情服务器成功OnFrontConnected
2021-11-26 20:13:41 行情登录成功OnRspUserLogin
2021-11-26 20:15:01 行情接口配置文件读取成功
2021-11-26 20:15:01 发送登录行情服务器请求失败
2021-11-26 20:15:01 连接行情服务器成功OnFrontConnected
2021-11-26 20:15:01 行情登录成功OnRspUserLogin
2021-11-26 20:19:41 行情接口配置文件读取成功
2021-11-26 20:19:41 发送登录行情服务器请求失败
2021-11-26 20:19:41 行情登录成功OnRspUserLogin
2021-11-26 20:19:41 连接行情服务器成功OnFrontConnected
2021-11-26 20:20:27 行情接口配置文件读取成功
2021-11-26 20:20:27 发送登录行情服务器请求失败
2021-11-26 20:20:27 连接行情服务器成功OnFrontConnected
2021-11-26 20:20:27 行情登录成功OnRspUserLogin
2021-11-26 20:23:35 行情接口配置文件读取成功
2021-11-26 20:23:35 发送登录行情服务器请求失败
2021-11-26 20:23:35 连接行情服务器成功OnFrontConnected
2021-11-26 20:23:35 行情登录成功OnRspUserLogin
2021-11-26 20:25:21 行情接口配置文件读取成功
2021-11-26 20:25:21 发送登录行情服务器请求失败
2021-11-26 20:25:21 连接行情服务器成功OnFrontConnected
2021-11-26 20:25:21 行情登录成功OnRspUserLogin
2021-11-26 20:25:59 行情接口配置文件读取成功
2021-11-26 20:25:59 发送登录行情服务器请求失败
2021-11-26 20:25:59 连接行情服务器成功OnFrontConnected
2021-11-26 20:25:59 行情登录成功OnRspUserLogin
2021-11-26 20:32:18 行情接口配置文件读取成功
2021-11-26 20:32:18 发送登录行情服务器请求失败
2021-11-26 20:32:18 连接行情服务器成功OnFrontConnected
2021-11-26 20:32:18 行情登录成功OnRspUserLogin
2021-11-26 20:34:01 行情接口配置文件读取成功
2021-11-26 20:34:01 发送登录行情服务器请求失败
2021-11-26 20:34:01 连接行情服务器成功OnFrontConnected
2021-11-26 20:34:01 行情登录成功OnRspUserLogin
2021-11-26 20:44:08 行情接口配置文件读取成功
2021-11-26 20:44:08 发送登录行情服务器请求失败
2021-11-26 20:44:08 连接行情服务器成功OnFrontConnected
2021-11-26 20:44:08 行情登录成功OnRspUserLogin
2021-11-26 20:45:49 行情接口配置文件读取成功
2021-11-26 20:45:49 发送登录行情服务器请求失败
2021-11-26 20:45:49 连接行情服务器成功OnFrontConnected
2021-11-26 20:45:49 行情登录成功OnRspUserLogin
2021-11-26 20:55:11 行情接口配置文件读取成功
2021-11-26 20:55:11 发送登录行情服务器请求失败
2021-11-26 20:55:11 连接行情服务器成功OnFrontConnected
2021-11-26 20:55:11 行情登录成功OnRspUserLogin
2021-11-26 20:55:30 行情接口配置文件读取成功
2021-11-26 20:55:30 发送登录行情服务器请求失败
2021-11-26 20:55:30 连接行情服务器成功OnFrontConnected
2021-11-26 20:55:30 行情登录成功OnRspUserLogin
2021-11-26 21:00:13 行情接口配置文件读取成功
2021-11-26 21:00:13 发送登录行情服务器请求失败
2021-11-26 21:00:13 连接行情服务器成功OnFrontConnected
2021-11-26 21:00:13 行情登录成功OnRspUserLogin
2021-11-26 21:01:47 行情接口配置文件读取成功
2021-11-26 21:01:47 发送登录行情服务器请求失败
2021-11-26 21:01:47 连接行情服务器成功OnFrontConnected
2021-11-26 21:01:47 行情登录成功OnRspUserLogin
2021-11-26 21:02:55 行情接口配置文件读取成功
2021-11-26 21:02:55 发送登录行情服务器请求失败
2021-11-26 21:02:55 连接行情服务器成功OnFrontConnected
2021-11-26 21:02:55 行情登录成功OnRspUserLogin
2021-11-26 21:12:02 行情接口配置文件读取成功
2021-11-26 21:12:02 发送登录行情服务器请求失败
2021-11-26 21:12:02 连接行情服务器成功OnFrontConnected
2021-11-26 21:12:02 行情登录成功OnRspUserLogin
2021-11-26 21:15:12 行情接口配置文件读取成功
2021-11-26 21:15:12 发送登录行情服务器请求失败
2021-11-26 21:15:12 连接行情服务器成功OnFrontConnected
2021-11-26 21:15:12 行情登录成功OnRspUserLogin
2021-11-26 21:17:35 行情接口配置文件读取成功
2021-11-26 21:17:35 发送登录行情服务器请求失败
2021-11-26 21:17:35 连接行情服务器成功OnFrontConnected
2021-11-26 21:17:35 行情登录成功OnRspUserLogin
2021-11-26 21:18:32 行情接口配置文件读取成功
2021-11-26 21:18:32 发送登录行情服务器请求失败
2021-11-26 21:18:32 连接行情服务器成功OnFrontConnected
2021-11-26 21:18:32 行情登录成功OnRspUserLogin
2021-11-26 21:18:49 行情接口配置文件读取成功
2021-11-26 21:18:49 发送登录行情服务器请求失败
2021-11-26 21:18:49 连接行情服务器成功OnFrontConnected
2021-11-26 21:18:49 行情登录成功OnRspUserLogin
2021-11-26 21:21:33 行情接口配置文件读取成功
2021-11-26 21:21:33 发送登录行情服务器请求失败
2021-11-26 21:21:33 连接行情服务器成功OnFrontConnected
2021-11-26 21:21:33 行情登录成功OnRspUserLogin
2021-11-26 21:22:44 行情接口配置文件读取成功
2021-11-26 21:22:44 发送登录行情服务器请求失败
2021-11-26 21:22:44 连接行情服务器成功OnFrontConnected
2021-11-26 21:22:44 行情登录成功OnRspUserLogin
2021-11-26 21:24:37 行情接口配置文件读取成功
2021-11-26 21:24:37 发送登录行情服务器请求失败
2021-11-26 21:24:37 连接行情服务器成功OnFrontConnected
2021-11-26 21:24:37 行情登录成功OnRspUserLogin
2021-11-26 21:26:40 行情接口配置文件读取成功
2021-11-26 21:26:40 发送登录行情服务器请求失败
2021-11-26 21:26:40 连接行情服务器成功OnFrontConnected
2021-11-26 21:26:40 行情登录成功OnRspUserLogin
2021-11-26 21:27:42 行情接口配置文件读取成功
2021-11-26 21:27:42 发送登录行情服务器请求失败
2021-11-26 21:27:42 连接行情服务器成功OnFrontConnected
2021-11-26 21:27:42 行情登录成功OnRspUserLogin
2021-11-26 21:28:17 行情接口配置文件读取成功
2021-11-26 21:28:17 发送登录行情服务器请求失败
2021-11-26 21:28:17 连接行情服务器成功OnFrontConnected
2021-11-26 21:28:17 行情登录成功OnRspUserLogin
2021-11-26 21:30:38 行情接口配置文件读取成功
2021-11-26 21:30:38 发送登录行情服务器请求失败
2021-11-26 21:30:38 连接行情服务器成功OnFrontConnected
2021-11-26 21:30:38 行情登录成功OnRspUserLogin
2021-11-26 21:31:00 行情接口配置文件读取成功
2021-11-26 21:31:00 发送登录行情服务器请求失败
2021-11-26 21:31:00 连接行情服务器成功OnFrontConnected
2021-11-26 21:31:00 行情登录成功OnRspUserLogin
2021-11-26 21:34:12 行情接口配置文件读取成功
2021-11-26 21:34:12 发送登录行情服务器请求失败
2021-11-26 21:34:12 连接行情服务器成功OnFrontConnected
2021-11-26 21:34:12 行情登录成功OnRspUserLogin
2021-11-26 21:34:37 行情接口配置文件读取成功
2021-11-26 21:34:37 发送登录行情服务器请求失败
2021-11-26 21:34:37 连接行情服务器成功OnFrontConnected
2021-11-26 21:34:37 行情登录成功OnRspUserLogin
2021-11-26 21:36:40 行情接口配置文件读取成功
2021-11-26 21:36:40 发送登录行情服务器请求失败
2021-11-26 21:36:40 连接行情服务器成功OnFrontConnected
2021-11-26 21:36:40 行情登录成功OnRspUserLogin
2021-11-26 21:37:31 行情接口配置文件读取成功
2021-11-26 21:37:31 发送登录行情服务器请求失败
2021-11-26 21:37:31 连接行情服务器成功OnFrontConnected
2021-11-26 21:37:31 行情登录成功OnRspUserLogin
2021-11-26 21:37:51 行情接口配置文件读取成功
2021-11-26 21:37:51 发送登录行情服务器请求失败
2021-11-26 21:37:51 连接行情服务器成功OnFrontConnected
2021-11-26 21:37:51 行情登录成功OnRspUserLogin
2021-11-26 21:40:23 行情接口配置文件读取成功
2021-11-26 21:40:23 发送登录行情服务器请求失败
2021-11-26 21:40:23 连接行情服务器成功OnFrontConnected
2021-11-26 21:40:23 行情登录成功OnRspUserLogin
2021-11-26 21:41:07 行情接口配置文件读取成功
2021-11-26 21:41:07 发送登录行情服务器请求失败
2021-11-26 21:41:07 连接行情服务器成功OnFrontConnected
2021-11-26 21:41:07 行情登录成功OnRspUserLogin
2021-11-26 22:28:51 行情接口配置文件读取成功
2021-11-26 22:28:51 发送登录行情服务器请求失败
2021-11-26 22:28:51 连接行情服务器成功OnFrontConnected
2021-11-26 22:28:51 行情登录成功OnRspUserLogin
2021-11-26 22:32:22 行情接口配置文件读取成功
2021-11-26 22:32:22 发送登录行情服务器请求失败
2021-11-26 22:32:22 连接行情服务器成功OnFrontConnected
2021-11-26 22:32:22 行情登录成功OnRspUserLogin
2021-11-26 22:34:09 行情接口配置文件读取成功
2021-11-26 22:34:09 发送登录行情服务器请求失败
2021-11-26 22:34:09 连接行情服务器成功OnFrontConnected
2021-11-26 22:34:09 行情登录成功OnRspUserLogin
2021-11-26 22:36:21 行情接口配置文件读取成功
2021-11-26 22:36:21 发送登录行情服务器请求失败
2021-11-26 22:36:21 连接行情服务器成功OnFrontConnected
2021-11-26 22:36:21 行情登录成功OnRspUserLogin
2021-11-26 22:38:09 行情接口配置文件读取成功
2021-11-26 22:38:09 发送登录行情服务器请求失败
2021-11-26 22:38:09 连接行情服务器成功OnFrontConnected
2021-11-26 22:38:09 行情登录成功OnRspUserLogin
2021-11-26 22:38:44 行情接口配置文件读取成功
2021-11-26 22:38:44 发送登录行情服务器请求失败
2021-11-26 22:38:44 连接行情服务器成功OnFrontConnected
2021-11-26 22:38:44 行情登录成功OnRspUserLogin
2021-11-26 22:41:32 行情接口配置文件读取成功
2021-11-26 22:41:32 发送登录行情服务器请求失败
2021-11-26 22:41:32 连接行情服务器成功OnFrontConnected
2021-11-26 22:41:32 行情登录成功OnRspUserLogin
2021-11-26 23:52:47 行情接口配置文件读取成功
2021-11-26 23:52:47 发送登录行情服务器请求失败
2021-11-26 23:52:47 连接行情服务器成功OnFrontConnected
2021-11-26 23:52:47 行情登录成功OnRspUserLogin
2021-11-26 23:54:44 行情接口配置文件读取成功
2021-11-26 23:54:44 发送登录行情服务器请求失败
2021-11-26 23:54:44 连接行情服务器成功OnFrontConnected
2021-11-26 23:54:44 行情登录成功OnRspUserLogin
2021-11-26 23:55:17 行情接口配置文件读取成功
2021-11-26 23:55:17 发送登录行情服务器请求失败
2021-11-26 23:55:17 连接行情服务器成功OnFrontConnected
2021-11-26 23:55:17 行情登录成功OnRspUserLogin
2021-11-26 23:56:34 行情接口配置文件读取成功
2021-11-26 23:56:34 发送登录行情服务器请求失败
2021-11-26 23:56:34 连接行情服务器成功OnFrontConnected
2021-11-26 23:56:34 行情登录成功OnRspUserLogin
2021-11-26 23:57:21 行情接口配置文件读取成功
2021-11-26 23:57:21 发送登录行情服务器请求失败
2021-11-26 23:57:21 连接行情服务器成功OnFrontConnected
2021-11-26 23:57:21 行情登录成功OnRspUserLogin
2021-11-26 23:58:57 行情接口配置文件读取成功
2021-11-26 23:58:57 发送登录行情服务器请求失败
2021-11-26 23:58:57 连接行情服务器成功OnFrontConnected
2021-11-26 23:58:57 行情登录成功OnRspUserLogin
