2021-12-12 01:26:32 行情接口配置文件读取成功
2021-12-12 01:26:32 发送登录行情服务器请求失败
2021-12-12 01:26:32 连接行情服务器成功OnFrontConnected
2021-12-12 01:26:32 行情登录成功OnRspUserLogin
2021-12-12 02:02:59 行情接口配置文件读取成功
2021-12-12 02:02:59 发送登录行情服务器请求失败
2021-12-12 02:02:59 连接行情服务器成功OnFrontConnected
2021-12-12 02:02:59 行情登录成功OnRspUserLogin
2021-12-12 02:04:24 行情接口配置文件读取成功
2021-12-12 02:04:24 发送登录行情服务器请求失败
2021-12-12 02:04:24 连接行情服务器成功OnFrontConnected
2021-12-12 02:04:24 行情登录成功OnRspUserLogin
2021-12-12 02:06:44 行情接口配置文件读取成功
2021-12-12 02:06:44 发送登录行情服务器请求失败
2021-12-12 02:06:44 连接行情服务器成功OnFrontConnected
2021-12-12 02:06:44 行情登录成功OnRspUserLogin
2021-12-12 02:08:07 行情接口配置文件读取成功
2021-12-12 02:08:07 发送登录行情服务器请求失败
2021-12-12 02:08:07 连接行情服务器成功OnFrontConnected
2021-12-12 02:08:07 行情登录成功OnRspUserLogin
2021-12-12 02:08:56 行情接口配置文件读取成功
2021-12-12 02:08:56 发送登录行情服务器请求失败
2021-12-12 02:08:56 连接行情服务器成功OnFrontConnected
2021-12-12 02:08:56 行情登录成功OnRspUserLogin
2021-12-12 02:11:16 行情接口配置文件读取成功
2021-12-12 02:11:16 发送登录行情服务器请求失败
2021-12-12 02:11:16 连接行情服务器成功OnFrontConnected
2021-12-12 02:11:16 行情登录成功OnRspUserLogin
2021-12-12 02:18:41 行情接口配置文件读取成功
2021-12-12 02:18:41 发送登录行情服务器请求失败
2021-12-12 02:18:41 连接行情服务器成功OnFrontConnected
2021-12-12 02:18:41 行情登录成功OnRspUserLogin
2021-12-12 02:20:21 行情接口配置文件读取成功
2021-12-12 02:20:21 发送登录行情服务器请求成功
2021-12-12 02:20:21 断开与行情服务器连接OnFrontDisconnected
2021-12-12 02:20:22 连接行情服务器成功OnFrontConnected
2021-12-12 02:20:22 行情登录成功OnRspUserLogin
2021-12-12 02:20:42 行情接口配置文件读取成功
2021-12-12 02:20:42 发送登录行情服务器请求失败
2021-12-12 02:20:42 连接行情服务器成功OnFrontConnected
2021-12-12 02:20:42 行情登录成功OnRspUserLogin
2021-12-12 02:22:20 行情接口配置文件读取成功
2021-12-12 02:22:20 发送登录行情服务器请求失败
2021-12-12 02:22:20 连接行情服务器成功OnFrontConnected
2021-12-12 02:22:20 行情登录成功OnRspUserLogin
2021-12-12 02:28:34 行情接口配置文件读取成功
2021-12-12 02:28:34 发送登录行情服务器请求失败
2021-12-12 02:28:34 连接行情服务器成功OnFrontConnected
2021-12-12 02:28:34 行情登录成功OnRspUserLogin
2021-12-12 02:30:07 行情接口配置文件读取成功
2021-12-12 02:30:07 发送登录行情服务器请求失败
2021-12-12 02:30:07 连接行情服务器成功OnFrontConnected
2021-12-12 02:30:07 行情登录成功OnRspUserLogin
2021-12-12 02:33:36 行情接口配置文件读取成功
2021-12-12 02:33:36 发送登录行情服务器请求失败
2021-12-12 02:33:36 连接行情服务器成功OnFrontConnected
2021-12-12 02:33:36 行情登录成功OnRspUserLogin
2021-12-12 03:15:14 行情接口配置文件读取成功
2021-12-12 03:15:14 发送登录行情服务器请求失败
2021-12-12 03:15:14 连接行情服务器成功OnFrontConnected
2021-12-12 03:15:14 行情登录成功OnRspUserLogin
2021-12-12 03:18:25 行情接口配置文件读取成功
2021-12-12 03:18:25 发送登录行情服务器请求失败
2021-12-12 03:18:25 连接行情服务器成功OnFrontConnected
2021-12-12 03:18:25 行情登录成功OnRspUserLogin
2021-12-12 03:24:17 行情接口配置文件读取成功
2021-12-12 03:24:17 发送登录行情服务器请求失败
2021-12-12 03:24:17 连接行情服务器成功OnFrontConnected
2021-12-12 03:24:17 行情登录成功OnRspUserLogin
2021-12-12 03:33:16 行情接口配置文件读取成功
2021-12-12 03:33:16 发送登录行情服务器请求失败
2021-12-12 03:33:16 连接行情服务器成功OnFrontConnected
2021-12-12 03:33:16 行情登录成功OnRspUserLogin
2021-12-12 03:37:18 行情接口配置文件读取成功
2021-12-12 03:37:18 发送登录行情服务器请求失败
2021-12-12 03:37:18 连接行情服务器成功OnFrontConnected
2021-12-12 03:37:18 行情登录成功OnRspUserLogin
2021-12-12 03:39:26 行情接口配置文件读取成功
2021-12-12 03:39:26 发送登录行情服务器请求失败
2021-12-12 03:39:26 连接行情服务器成功OnFrontConnected
2021-12-12 03:39:26 行情登录成功OnRspUserLogin
2021-12-12 03:41:23 行情接口配置文件读取成功
2021-12-12 03:41:23 发送登录行情服务器请求失败
2021-12-12 03:41:23 连接行情服务器成功OnFrontConnected
2021-12-12 03:41:23 行情登录成功OnRspUserLogin
2021-12-12 03:45:22 行情接口配置文件读取成功
2021-12-12 03:45:22 发送登录行情服务器请求失败
2021-12-12 03:45:22 连接行情服务器成功OnFrontConnected
2021-12-12 03:45:22 行情登录成功OnRspUserLogin
2021-12-12 03:46:54 行情接口配置文件读取成功
2021-12-12 03:46:54 发送登录行情服务器请求失败
2021-12-12 03:46:54 连接行情服务器成功OnFrontConnected
2021-12-12 03:46:54 行情登录成功OnRspUserLogin
2021-12-12 03:47:45 行情接口配置文件读取成功
2021-12-12 03:47:45 发送登录行情服务器请求失败
2021-12-12 03:47:45 连接行情服务器成功OnFrontConnected
2021-12-12 03:47:45 行情登录成功OnRspUserLogin
2021-12-12 03:48:52 行情接口配置文件读取成功
2021-12-12 03:48:52 发送登录行情服务器请求失败
2021-12-12 03:48:52 连接行情服务器成功OnFrontConnected
2021-12-12 03:48:52 行情登录成功OnRspUserLogin
2021-12-12 04:01:44 行情接口配置文件读取成功
2021-12-12 04:01:44 发送登录行情服务器请求失败
2021-12-12 04:01:44 连接行情服务器成功OnFrontConnected
2021-12-12 04:01:44 行情登录成功OnRspUserLogin
2021-12-12 04:04:52 行情接口配置文件读取成功
2021-12-12 04:04:52 发送登录行情服务器请求失败
2021-12-12 04:04:53 连接行情服务器成功OnFrontConnected
2021-12-12 04:04:53 行情登录成功OnRspUserLogin
2021-12-12 04:05:09 行情接口配置文件读取成功
2021-12-12 04:05:09 发送登录行情服务器请求失败
2021-12-12 04:05:09 连接行情服务器成功OnFrontConnected
2021-12-12 04:05:09 行情登录成功OnRspUserLogin
2021-12-12 04:06:30 行情接口配置文件读取成功
2021-12-12 04:06:30 发送登录行情服务器请求失败
2021-12-12 04:06:30 连接行情服务器成功OnFrontConnected
2021-12-12 04:06:30 行情登录成功OnRspUserLogin
2021-12-12 04:08:34 行情接口配置文件读取成功
2021-12-12 04:08:34 发送登录行情服务器请求失败
2021-12-12 04:08:34 连接行情服务器成功OnFrontConnected
2021-12-12 04:08:34 行情登录成功OnRspUserLogin
2021-12-12 04:11:18 行情接口配置文件读取成功
2021-12-12 04:11:18 发送登录行情服务器请求成功
2021-12-12 04:11:18 断开与行情服务器连接OnFrontDisconnected
2021-12-12 04:11:19 连接行情服务器成功OnFrontConnected
2021-12-12 04:11:19 行情登录成功OnRspUserLogin
2021-12-12 04:13:22 行情接口配置文件读取成功
2021-12-12 04:13:22 发送登录行情服务器请求失败
2021-12-12 04:13:22 连接行情服务器成功OnFrontConnected
2021-12-12 04:13:22 行情登录成功OnRspUserLogin
2021-12-12 04:13:43 行情接口配置文件读取成功
2021-12-12 04:13:43 发送登录行情服务器请求失败
2021-12-12 04:13:43 连接行情服务器成功OnFrontConnected
2021-12-12 04:13:43 行情登录成功OnRspUserLogin
2021-12-12 04:13:59 行情接口配置文件读取成功
2021-12-12 04:13:59 发送登录行情服务器请求失败
2021-12-12 04:13:59 连接行情服务器成功OnFrontConnected
2021-12-12 04:13:59 行情登录成功OnRspUserLogin
2021-12-12 04:15:53 行情接口配置文件读取成功
2021-12-12 04:15:53 发送登录行情服务器请求失败
2021-12-12 04:15:53 连接行情服务器成功OnFrontConnected
2021-12-12 04:15:53 行情登录成功OnRspUserLogin
2021-12-12 04:19:17 行情接口配置文件读取成功
2021-12-12 04:19:17 发送登录行情服务器请求失败
2021-12-12 04:19:17 连接行情服务器成功OnFrontConnected
2021-12-12 04:19:17 行情登录成功OnRspUserLogin
2021-12-12 04:21:26 行情接口配置文件读取成功
2021-12-12 04:21:26 发送登录行情服务器请求失败
2021-12-12 04:21:26 连接行情服务器成功OnFrontConnected
2021-12-12 04:21:26 行情登录成功OnRspUserLogin
2021-12-12 05:54:43 行情接口配置文件读取成功
2021-12-12 05:54:43 发送登录行情服务器请求失败
2021-12-12 05:54:43 连接行情服务器成功OnFrontConnected
2021-12-12 05:54:43 行情登录成功OnRspUserLogin
2021-12-12 05:57:40 行情接口配置文件读取成功
2021-12-12 05:57:40 发送登录行情服务器请求失败
2021-12-12 05:57:40 连接行情服务器成功OnFrontConnected
2021-12-12 05:57:40 行情登录成功OnRspUserLogin
2021-12-12 05:59:30 行情接口配置文件读取成功
2021-12-12 05:59:30 发送登录行情服务器请求失败
2021-12-12 05:59:30 连接行情服务器成功OnFrontConnected
2021-12-12 05:59:30 行情登录成功OnRspUserLogin
2021-12-12 06:01:05 行情接口配置文件读取成功
2021-12-12 06:01:05 发送登录行情服务器请求失败
2021-12-12 06:01:05 连接行情服务器成功OnFrontConnected
2021-12-12 06:01:05 行情登录成功OnRspUserLogin
2021-12-12 07:32:59 行情接口配置文件读取成功
2021-12-12 07:32:59 发送登录行情服务器请求失败
2021-12-12 07:32:59 连接行情服务器成功OnFrontConnected
2021-12-12 07:32:59 行情登录成功OnRspUserLogin
2021-12-12 07:38:55 行情接口配置文件读取成功
2021-12-12 07:38:55 发送登录行情服务器请求成功
2021-12-12 07:38:55 断开与行情服务器连接OnFrontDisconnected
2021-12-12 07:38:56 连接行情服务器成功OnFrontConnected
2021-12-12 07:38:56 行情登录成功OnRspUserLogin
2021-12-12 07:39:24 行情接口配置文件读取成功
2021-12-12 07:39:24 发送登录行情服务器请求失败
2021-12-12 07:39:24 连接行情服务器成功OnFrontConnected
2021-12-12 07:39:24 行情登录成功OnRspUserLogin
2021-12-12 07:47:49 行情接口配置文件读取成功
2021-12-12 07:47:49 发送登录行情服务器请求失败
2021-12-12 07:47:49 连接行情服务器成功OnFrontConnected
2021-12-12 07:47:49 行情登录成功OnRspUserLogin
2021-12-12 07:48:25 行情接口配置文件读取成功
2021-12-12 07:48:25 发送登录行情服务器请求失败
2021-12-12 07:48:25 连接行情服务器成功OnFrontConnected
2021-12-12 07:48:25 行情登录成功OnRspUserLogin
2021-12-12 07:51:36 行情接口配置文件读取成功
2021-12-12 07:51:36 发送登录行情服务器请求失败
2021-12-12 07:51:36 连接行情服务器成功OnFrontConnected
2021-12-12 07:51:37 行情登录成功OnRspUserLogin
2021-12-12 07:55:32 行情接口配置文件读取成功
2021-12-12 07:55:32 发送登录行情服务器请求失败
2021-12-12 07:55:32 连接行情服务器成功OnFrontConnected
2021-12-12 07:55:32 行情登录成功OnRspUserLogin
2021-12-12 08:00:31 行情接口配置文件读取成功
2021-12-12 08:00:31 发送登录行情服务器请求失败
2021-12-12 08:00:31 连接行情服务器成功OnFrontConnected
2021-12-12 08:00:31 行情登录成功OnRspUserLogin
2021-12-12 08:02:18 行情接口配置文件读取成功
2021-12-12 08:02:18 发送登录行情服务器请求失败
2021-12-12 08:02:18 连接行情服务器成功OnFrontConnected
2021-12-12 08:02:18 行情登录成功OnRspUserLogin
2021-12-12 08:06:02 行情接口配置文件读取成功
2021-12-12 08:06:02 发送登录行情服务器请求失败
2021-12-12 08:06:02 连接行情服务器成功OnFrontConnected
2021-12-12 08:06:02 行情登录成功OnRspUserLogin
2021-12-12 08:07:19 行情接口配置文件读取成功
2021-12-12 08:07:19 发送登录行情服务器请求失败
2021-12-12 08:07:19 连接行情服务器成功OnFrontConnected
2021-12-12 08:07:19 行情登录成功OnRspUserLogin
2021-12-12 08:08:09 行情接口配置文件读取成功
2021-12-12 08:08:09 发送登录行情服务器请求失败
2021-12-12 08:08:10 连接行情服务器成功OnFrontConnected
2021-12-12 08:08:10 行情登录成功OnRspUserLogin
2021-12-12 08:11:50 行情接口配置文件读取成功
2021-12-12 08:11:50 发送登录行情服务器请求失败
2021-12-12 08:11:50 连接行情服务器成功OnFrontConnected
2021-12-12 08:11:50 行情登录成功OnRspUserLogin
2021-12-12 11:49:32 行情接口配置文件读取成功
2021-12-12 11:49:32 发送登录行情服务器请求失败
2021-12-12 11:49:32 连接行情服务器成功OnFrontConnected
2021-12-12 11:49:32 行情登录成功OnRspUserLogin
2021-12-12 11:58:26 行情接口配置文件读取成功
2021-12-12 11:58:26 发送登录行情服务器请求失败
2021-12-12 11:58:26 连接行情服务器成功OnFrontConnected
2021-12-12 11:58:26 行情登录成功OnRspUserLogin
2021-12-12 12:07:19 行情接口配置文件读取成功
2021-12-12 12:07:19 发送登录行情服务器请求失败
2021-12-12 12:07:19 连接行情服务器成功OnFrontConnected
2021-12-12 12:07:19 行情登录成功OnRspUserLogin
2021-12-12 12:12:05 行情接口配置文件读取成功
2021-12-12 12:12:05 发送登录行情服务器请求失败
2021-12-12 12:12:05 连接行情服务器成功OnFrontConnected
2021-12-12 12:12:05 行情登录成功OnRspUserLogin
2021-12-12 12:12:23 行情接口配置文件读取成功
2021-12-12 12:12:23 发送登录行情服务器请求失败
2021-12-12 12:12:23 连接行情服务器成功OnFrontConnected
2021-12-12 12:12:23 行情登录成功OnRspUserLogin
2021-12-12 12:16:07 行情接口配置文件读取成功
2021-12-12 12:16:07 发送登录行情服务器请求失败
2021-12-12 12:16:07 连接行情服务器成功OnFrontConnected
2021-12-12 12:16:07 行情登录成功OnRspUserLogin
2021-12-12 12:18:46 行情接口配置文件读取成功
2021-12-12 12:18:46 发送登录行情服务器请求失败
2021-12-12 12:18:46 连接行情服务器成功OnFrontConnected
2021-12-12 12:18:46 行情登录成功OnRspUserLogin
2021-12-12 12:24:25 行情接口配置文件读取成功
2021-12-12 12:24:25 发送登录行情服务器请求失败
2021-12-12 12:24:25 连接行情服务器成功OnFrontConnected
2021-12-12 12:24:25 行情登录成功OnRspUserLogin
2021-12-12 12:26:41 行情接口配置文件读取成功
2021-12-12 12:26:41 发送登录行情服务器请求失败
2021-12-12 12:26:41 连接行情服务器成功OnFrontConnected
2021-12-12 12:26:41 行情登录成功OnRspUserLogin
2021-12-12 12:29:02 行情接口配置文件读取成功
2021-12-12 12:29:02 发送登录行情服务器请求失败
2021-12-12 12:29:03 连接行情服务器成功OnFrontConnected
2021-12-12 12:29:03 行情登录成功OnRspUserLogin
2021-12-12 12:32:58 行情接口配置文件读取成功
2021-12-12 12:32:58 发送登录行情服务器请求失败
2021-12-12 12:32:58 连接行情服务器成功OnFrontConnected
2021-12-12 12:32:58 行情登录成功OnRspUserLogin
2021-12-12 12:37:59 行情接口配置文件读取成功
2021-12-12 12:37:59 发送登录行情服务器请求失败
2021-12-12 12:37:59 连接行情服务器成功OnFrontConnected
2021-12-12 12:37:59 行情登录成功OnRspUserLogin
2021-12-12 12:42:45 行情接口配置文件读取成功
2021-12-12 12:42:45 发送登录行情服务器请求失败
2021-12-12 12:42:45 连接行情服务器成功OnFrontConnected
2021-12-12 12:42:45 行情登录成功OnRspUserLogin
2021-12-12 12:47:38 行情接口配置文件读取成功
2021-12-12 12:47:38 发送登录行情服务器请求失败
2021-12-12 12:47:38 连接行情服务器成功OnFrontConnected
2021-12-12 12:47:38 行情登录成功OnRspUserLogin
2021-12-12 12:50:43 行情接口配置文件读取成功
2021-12-12 12:50:43 发送登录行情服务器请求失败
2021-12-12 12:50:43 连接行情服务器成功OnFrontConnected
2021-12-12 12:50:43 行情登录成功OnRspUserLogin
2021-12-12 12:54:32 行情接口配置文件读取成功
2021-12-12 12:54:32 发送登录行情服务器请求失败
2021-12-12 12:54:32 连接行情服务器成功OnFrontConnected
2021-12-12 12:54:32 行情登录成功OnRspUserLogin
2021-12-12 13:06:03 行情接口配置文件读取成功
2021-12-12 13:06:03 发送登录行情服务器请求失败
2021-12-12 13:06:06 断开与行情服务器连接OnFrontDisconnected
2021-12-12 13:06:07 连接行情服务器成功OnFrontConnected
2021-12-12 13:06:07 行情登录成功OnRspUserLogin
2021-12-12 13:09:44 行情接口配置文件读取成功
2021-12-12 13:09:44 发送登录行情服务器请求成功
2021-12-12 13:09:44 断开与行情服务器连接OnFrontDisconnected
2021-12-12 13:09:45 连接行情服务器成功OnFrontConnected
2021-12-12 13:09:45 行情登录成功OnRspUserLogin
2021-12-12 13:12:34 行情接口配置文件读取成功
2021-12-12 13:12:34 发送登录行情服务器请求失败
2021-12-12 13:12:34 连接行情服务器成功OnFrontConnected
2021-12-12 13:12:34 行情登录成功OnRspUserLogin
2021-12-12 13:14:24 行情接口配置文件读取成功
2021-12-12 13:14:24 发送登录行情服务器请求失败
2021-12-12 13:14:24 连接行情服务器成功OnFrontConnected
2021-12-12 13:14:24 行情登录成功OnRspUserLogin
2021-12-12 13:20:30 行情接口配置文件读取成功
2021-12-12 13:20:30 发送登录行情服务器请求失败
2021-12-12 13:20:30 连接行情服务器成功OnFrontConnected
2021-12-12 13:20:30 行情登录成功OnRspUserLogin
2021-12-12 13:38:31 行情接口配置文件读取成功
2021-12-12 13:38:31 发送登录行情服务器请求失败
2021-12-12 13:38:31 连接行情服务器成功OnFrontConnected
2021-12-12 13:38:31 行情登录成功OnRspUserLogin
2021-12-12 13:41:17 行情接口配置文件读取成功
2021-12-12 13:41:17 发送登录行情服务器请求失败
2021-12-12 13:41:21 断开与行情服务器连接OnFrontDisconnected
2021-12-12 13:41:22 连接行情服务器成功OnFrontConnected
2021-12-12 13:41:22 行情登录成功OnRspUserLogin
2021-12-12 23:15:11 行情接口配置文件读取成功
2021-12-12 23:15:11 发送登录行情服务器请求成功
2021-12-12 23:15:11 断开与行情服务器连接OnFrontDisconnected
2021-12-12 23:15:12 连接行情服务器成功OnFrontConnected
2021-12-12 23:15:12 行情登录成功OnRspUserLogin
2021-12-12 23:35:42 行情接口配置文件读取成功
2021-12-12 23:35:42 发送登录行情服务器请求失败
2021-12-12 23:35:42 连接行情服务器成功OnFrontConnected
2021-12-12 23:35:42 行情登录成功OnRspUserLogin
2021-12-12 23:38:08 行情接口配置文件读取成功
2021-12-12 23:38:08 发送登录行情服务器请求失败
2021-12-12 23:38:08 连接行情服务器成功OnFrontConnected
2021-12-12 23:38:08 行情登录成功OnRspUserLogin
2021-12-12 23:39:03 行情接口配置文件读取成功
2021-12-12 23:39:03 发送登录行情服务器请求失败
2021-12-12 23:39:04 连接行情服务器成功OnFrontConnected
2021-12-12 23:39:04 行情登录成功OnRspUserLogin
2021-12-12 23:50:55 行情接口配置文件读取成功
2021-12-12 23:50:55 发送登录行情服务器请求失败
2021-12-12 23:50:55 连接行情服务器成功OnFrontConnected
2021-12-12 23:50:55 行情登录成功OnRspUserLogin
2021-12-12 23:54:31 行情接口配置文件读取成功
2021-12-12 23:54:31 发送登录行情服务器请求失败
2021-12-12 23:54:31 连接行情服务器成功OnFrontConnected
2021-12-12 23:54:31 行情登录成功OnRspUserLogin
2021-12-12 23:55:53 行情接口配置文件读取成功
2021-12-12 23:55:53 发送登录行情服务器请求失败
2021-12-12 23:55:53 连接行情服务器成功OnFrontConnected
2021-12-12 23:55:53 行情登录成功OnRspUserLogin
2021-12-12 23:57:33 行情接口配置文件读取成功
2021-12-12 23:57:33 发送登录行情服务器请求失败
2021-12-12 23:57:33 连接行情服务器成功OnFrontConnected
2021-12-12 23:57:33 行情登录成功OnRspUserLogin
