2021-11-27 01:09:03 行情接口配置文件读取成功
2021-11-27 01:09:03 发送登录行情服务器请求失败
2021-11-27 01:09:03 连接行情服务器成功OnFrontConnected
2021-11-27 01:20:23 行情接口配置文件读取成功
2021-11-27 01:20:23 发送登录行情服务器请求失败
2021-11-27 01:20:23 连接行情服务器成功OnFrontConnected
2021-11-27 01:20:23 行情登录成功OnRspUserLogin
2021-11-27 01:22:07 行情接口配置文件读取成功
2021-11-27 01:22:07 发送登录行情服务器请求失败
2021-11-27 01:22:07 连接行情服务器成功OnFrontConnected
2021-11-27 01:22:07 行情登录成功OnRspUserLogin
2021-11-27 01:22:24 行情接口配置文件读取成功
2021-11-27 01:22:24 发送登录行情服务器请求失败
2021-11-27 01:22:24 连接行情服务器成功OnFrontConnected
2021-11-27 01:22:24 行情登录成功OnRspUserLogin
2021-11-27 01:23:40 行情接口配置文件读取成功
2021-11-27 01:23:40 发送登录行情服务器请求失败
2021-11-27 01:23:40 连接行情服务器成功OnFrontConnected
2021-11-27 01:23:40 行情登录成功OnRspUserLogin
2021-11-27 01:24:10 行情接口配置文件读取成功
2021-11-27 01:24:10 发送登录行情服务器请求失败
2021-11-27 01:24:10 连接行情服务器成功OnFrontConnected
2021-11-27 01:24:10 行情登录成功OnRspUserLogin
2021-11-27 01:31:50 行情接口配置文件读取成功
2021-11-27 01:31:50 发送登录行情服务器请求失败
2021-11-27 01:31:50 连接行情服务器成功OnFrontConnected
2021-11-27 01:31:50 行情登录成功OnRspUserLogin
2021-11-27 01:34:26 行情接口配置文件读取成功
2021-11-27 01:34:26 发送登录行情服务器请求失败
2021-11-27 01:34:26 连接行情服务器成功OnFrontConnected
2021-11-27 01:34:26 行情登录成功OnRspUserLogin
2021-11-27 01:35:33 行情接口配置文件读取成功
2021-11-27 01:35:33 发送登录行情服务器请求失败
2021-11-27 01:35:33 连接行情服务器成功OnFrontConnected
2021-11-27 01:35:33 行情登录成功OnRspUserLogin
2021-11-27 01:35:47 行情接口配置文件读取成功
2021-11-27 01:35:47 发送登录行情服务器请求失败
2021-11-27 01:35:47 连接行情服务器成功OnFrontConnected
2021-11-27 01:35:47 行情登录成功OnRspUserLogin
2021-11-27 01:39:59 行情接口配置文件读取成功
2021-11-27 01:39:59 发送登录行情服务器请求失败
2021-11-27 01:39:59 连接行情服务器成功OnFrontConnected
2021-11-27 01:39:59 行情登录成功OnRspUserLogin
2021-11-27 01:45:31 行情接口配置文件读取成功
2021-11-27 01:45:31 发送登录行情服务器请求失败
2021-11-27 01:45:31 连接行情服务器成功OnFrontConnected
2021-11-27 01:45:31 行情登录成功OnRspUserLogin
2021-11-27 01:55:20 行情接口配置文件读取成功
2021-11-27 01:55:20 发送登录行情服务器请求失败
2021-11-27 01:55:20 连接行情服务器成功OnFrontConnected
2021-11-27 01:55:20 行情登录成功OnRspUserLogin
2021-11-27 02:11:17 行情接口配置文件读取成功
2021-11-27 02:11:17 发送登录行情服务器请求失败
2021-11-27 02:11:17 连接行情服务器成功OnFrontConnected
2021-11-27 02:11:17 行情登录成功OnRspUserLogin
2021-11-27 02:12:44 行情接口配置文件读取成功
2021-11-27 02:12:44 发送登录行情服务器请求失败
2021-11-27 02:12:44 连接行情服务器成功OnFrontConnected
2021-11-27 02:12:44 行情登录成功OnRspUserLogin
2021-11-27 02:15:15 行情接口配置文件读取成功
2021-11-27 02:15:15 发送登录行情服务器请求失败
2021-11-27 02:15:15 连接行情服务器成功OnFrontConnected
2021-11-27 02:15:15 行情登录成功OnRspUserLogin
2021-11-27 02:15:39 行情接口配置文件读取成功
2021-11-27 02:15:39 发送登录行情服务器请求失败
2021-11-27 02:15:39 连接行情服务器成功OnFrontConnected
2021-11-27 02:15:39 行情登录成功OnRspUserLogin
2021-11-27 02:19:57 行情接口配置文件读取成功
2021-11-27 02:19:58 发送登录行情服务器请求失败
2021-11-27 02:19:58 连接行情服务器成功OnFrontConnected
2021-11-27 02:19:58 行情登录成功OnRspUserLogin
2021-11-27 02:27:19 行情接口配置文件读取成功
2021-11-27 02:27:19 发送登录行情服务器请求失败
2021-11-27 02:27:20 连接行情服务器成功OnFrontConnected
2021-11-27 02:27:20 行情登录成功OnRspUserLogin
2021-11-27 02:31:28 行情接口配置文件读取成功
2021-11-27 02:31:28 发送登录行情服务器请求失败
2021-11-27 02:31:28 连接行情服务器成功OnFrontConnected
2021-11-27 02:31:28 行情登录成功OnRspUserLogin
2021-11-27 02:33:02 行情接口配置文件读取成功
2021-11-27 02:33:02 发送登录行情服务器请求失败
2021-11-27 02:33:02 连接行情服务器成功OnFrontConnected
2021-11-27 02:33:02 行情登录成功OnRspUserLogin
2021-11-27 02:33:17 行情接口配置文件读取成功
2021-11-27 02:33:17 发送登录行情服务器请求失败
2021-11-27 02:33:17 连接行情服务器成功OnFrontConnected
2021-11-27 02:33:17 行情登录成功OnRspUserLogin
2021-11-27 02:35:06 行情接口配置文件读取成功
2021-11-27 02:35:06 发送登录行情服务器请求失败
2021-11-27 02:35:06 连接行情服务器成功OnFrontConnected
2021-11-27 02:35:06 行情登录成功OnRspUserLogin
2021-11-27 02:35:26 断开与行情服务器连接OnFrontDisconnected
2021-11-27 02:35:26 连接行情服务器成功OnFrontConnected
2021-11-27 02:35:26 行情登录成功OnRspUserLogin
2021-11-27 02:38:34 行情接口配置文件读取成功
2021-11-27 02:38:34 发送登录行情服务器请求失败
2021-11-27 02:38:34 连接行情服务器成功OnFrontConnected
2021-11-27 02:38:34 行情登录成功OnRspUserLogin
2021-11-27 04:59:58 行情接口配置文件读取成功
2021-11-27 04:59:58 发送登录行情服务器请求失败
2021-11-27 04:59:58 连接行情服务器成功OnFrontConnected
2021-11-27 04:59:58 行情登录成功OnRspUserLogin
2021-11-27 05:01:39 行情接口配置文件读取成功
2021-11-27 05:01:39 发送登录行情服务器请求失败
2021-11-27 05:01:39 连接行情服务器成功OnFrontConnected
2021-11-27 05:01:39 行情登录成功OnRspUserLogin
2021-11-27 05:03:21 行情接口配置文件读取成功
2021-11-27 05:03:21 发送登录行情服务器请求失败
2021-11-27 05:03:21 连接行情服务器成功OnFrontConnected
2021-11-27 05:03:21 行情登录成功OnRspUserLogin
2021-11-27 05:10:09 行情接口配置文件读取成功
2021-11-27 05:10:09 发送登录行情服务器请求失败
2021-11-27 05:10:09 连接行情服务器成功OnFrontConnected
2021-11-27 05:10:09 行情登录成功OnRspUserLogin
2021-11-27 05:15:53 行情接口配置文件读取成功
2021-11-27 05:15:53 发送登录行情服务器请求失败
2021-11-27 05:15:53 连接行情服务器成功OnFrontConnected
2021-11-27 05:15:53 行情登录成功OnRspUserLogin
2021-11-27 05:30:04 行情接口配置文件读取成功
2021-11-27 05:30:04 发送登录行情服务器请求失败
2021-11-27 05:30:04 连接行情服务器成功OnFrontConnected
2021-11-27 05:30:04 行情登录成功OnRspUserLogin
2021-11-27 05:42:01 行情接口配置文件读取成功
2021-11-27 05:42:01 发送登录行情服务器请求失败
2021-11-27 05:42:01 连接行情服务器成功OnFrontConnected
2021-11-27 05:42:01 行情登录成功OnRspUserLogin
2021-11-27 05:48:31 行情接口配置文件读取成功
2021-11-27 05:48:31 发送登录行情服务器请求失败
2021-11-27 05:48:31 连接行情服务器成功OnFrontConnected
2021-11-27 05:48:31 行情登录成功OnRspUserLogin
2021-11-27 05:56:56 行情接口配置文件读取成功
2021-11-27 05:56:56 发送登录行情服务器请求失败
2021-11-27 05:56:56 连接行情服务器成功OnFrontConnected
2021-11-27 05:56:56 行情登录成功OnRspUserLogin
2021-11-27 05:58:00 行情接口配置文件读取成功
2021-11-27 05:58:00 发送登录行情服务器请求失败
2021-11-27 05:58:00 连接行情服务器成功OnFrontConnected
2021-11-27 05:58:00 行情登录成功OnRspUserLogin
2021-11-27 06:01:37 行情接口配置文件读取成功
2021-11-27 06:01:37 发送登录行情服务器请求失败
2021-11-27 06:01:37 连接行情服务器成功OnFrontConnected
2021-11-27 06:01:37 行情登录成功OnRspUserLogin
2021-11-27 06:14:25 行情接口配置文件读取成功
2021-11-27 06:14:25 发送登录行情服务器请求失败
2021-11-27 06:14:25 连接行情服务器成功OnFrontConnected
2021-11-27 06:14:25 行情登录成功OnRspUserLogin
2021-11-27 06:17:53 行情接口配置文件读取成功
2021-11-27 06:17:53 发送登录行情服务器请求失败
2021-11-27 06:17:53 连接行情服务器成功OnFrontConnected
2021-11-27 06:17:53 行情登录成功OnRspUserLogin
2021-11-27 06:20:26 行情接口配置文件读取成功
2021-11-27 06:20:26 发送登录行情服务器请求失败
2021-11-27 06:20:27 连接行情服务器成功OnFrontConnected
2021-11-27 06:20:27 行情登录成功OnRspUserLogin
2021-11-27 10:20:09 行情接口配置文件读取成功
2021-11-27 10:20:09 发送登录行情服务器请求失败
2021-11-27 10:20:12 断开与行情服务器连接OnFrontDisconnected
2021-11-27 10:20:13 连接行情服务器成功OnFrontConnected
2021-11-27 10:20:13 行情登录成功OnRspUserLogin
2021-11-27 10:21:34 行情接口配置文件读取成功
2021-11-27 10:21:34 发送登录行情服务器请求失败
2021-11-27 10:21:34 连接行情服务器成功OnFrontConnected
2021-11-27 10:21:34 行情登录成功OnRspUserLogin
2021-11-27 10:22:23 行情接口配置文件读取成功
2021-11-27 10:22:23 发送登录行情服务器请求失败
2021-11-27 10:22:23 连接行情服务器成功OnFrontConnected
2021-11-27 10:22:23 行情登录成功OnRspUserLogin
2021-11-27 10:23:22 行情接口配置文件读取成功
2021-11-27 10:23:22 发送登录行情服务器请求失败
2021-11-27 10:23:22 连接行情服务器成功OnFrontConnected
2021-11-27 10:23:22 行情登录成功OnRspUserLogin
2021-11-27 10:23:52 行情接口配置文件读取成功
2021-11-27 10:23:52 发送登录行情服务器请求失败
2021-11-27 10:23:52 连接行情服务器成功OnFrontConnected
2021-11-27 10:23:52 行情登录成功OnRspUserLogin
2021-11-27 10:28:13 行情接口配置文件读取成功
2021-11-27 10:28:13 发送登录行情服务器请求失败
2021-11-27 10:28:13 连接行情服务器成功OnFrontConnected
2021-11-27 10:28:13 行情登录成功OnRspUserLogin
2021-11-27 10:32:20 行情接口配置文件读取成功
2021-11-27 10:32:20 发送登录行情服务器请求失败
2021-11-27 10:32:20 连接行情服务器成功OnFrontConnected
2021-11-27 10:32:20 行情登录成功OnRspUserLogin
2021-11-27 10:37:25 行情接口配置文件读取成功
2021-11-27 10:37:25 发送登录行情服务器请求失败
2021-11-27 10:37:25 连接行情服务器成功OnFrontConnected
2021-11-27 10:37:25 行情登录成功OnRspUserLogin
2021-11-27 10:40:32 行情接口配置文件读取成功
2021-11-27 10:40:32 发送登录行情服务器请求失败
2021-11-27 10:40:32 连接行情服务器成功OnFrontConnected
2021-11-27 10:40:32 行情登录成功OnRspUserLogin
2021-11-27 10:40:57 行情接口配置文件读取成功
2021-11-27 10:40:57 发送登录行情服务器请求失败
2021-11-27 10:40:57 连接行情服务器成功OnFrontConnected
2021-11-27 10:40:57 行情登录成功OnRspUserLogin
2021-11-27 10:41:20 行情接口配置文件读取成功
2021-11-27 10:41:20 发送登录行情服务器请求失败
2021-11-27 10:41:20 连接行情服务器成功OnFrontConnected
2021-11-27 10:41:20 行情登录成功OnRspUserLogin
2021-11-27 10:42:11 行情接口配置文件读取成功
2021-11-27 10:42:11 发送登录行情服务器请求失败
2021-11-27 10:42:11 连接行情服务器成功OnFrontConnected
2021-11-27 10:42:11 行情登录成功OnRspUserLogin
2021-11-27 10:44:07 行情接口配置文件读取成功
2021-11-27 10:44:07 发送登录行情服务器请求失败
2021-11-27 10:44:07 连接行情服务器成功OnFrontConnected
2021-11-27 10:44:07 行情登录成功OnRspUserLogin
2021-11-27 10:45:14 行情接口配置文件读取成功
2021-11-27 10:45:14 发送登录行情服务器请求失败
2021-11-27 10:45:14 连接行情服务器成功OnFrontConnected
2021-11-27 10:45:14 行情登录成功OnRspUserLogin
2021-11-27 10:46:37 行情接口配置文件读取成功
2021-11-27 10:46:37 发送登录行情服务器请求失败
2021-11-27 10:46:37 连接行情服务器成功OnFrontConnected
2021-11-27 10:46:37 行情登录成功OnRspUserLogin
2021-11-27 10:54:33 行情接口配置文件读取成功
2021-11-27 10:54:33 发送登录行情服务器请求失败
2021-11-27 10:54:33 连接行情服务器成功OnFrontConnected
2021-11-27 10:54:33 行情登录成功OnRspUserLogin
2021-11-27 10:55:48 行情接口配置文件读取成功
2021-11-27 10:55:48 发送登录行情服务器请求失败
2021-11-27 10:55:48 连接行情服务器成功OnFrontConnected
2021-11-27 10:55:48 行情登录成功OnRspUserLogin
2021-11-27 13:38:06 行情接口配置文件读取成功
2021-11-27 13:38:06 发送登录行情服务器请求失败
2021-11-27 13:38:06 连接行情服务器成功OnFrontConnected
2021-11-27 13:38:06 行情登录成功OnRspUserLogin
2021-11-27 13:40:47 行情接口配置文件读取成功
2021-11-27 13:40:47 发送登录行情服务器请求失败
2021-11-27 13:40:47 连接行情服务器成功OnFrontConnected
2021-11-27 13:40:47 行情登录成功OnRspUserLogin
2021-11-27 13:47:18 行情接口配置文件读取成功
2021-11-27 13:47:18 发送登录行情服务器请求失败
2021-11-27 13:47:18 连接行情服务器成功OnFrontConnected
2021-11-27 13:47:18 行情登录成功OnRspUserLogin
2021-11-27 13:47:52 行情接口配置文件读取成功
2021-11-27 13:47:52 发送登录行情服务器请求失败
2021-11-27 13:47:52 连接行情服务器成功OnFrontConnected
2021-11-27 13:47:52 行情登录成功OnRspUserLogin
2021-11-27 13:49:53 行情接口配置文件读取成功
2021-11-27 13:49:53 发送登录行情服务器请求失败
2021-11-27 13:49:53 连接行情服务器成功OnFrontConnected
2021-11-27 13:49:53 行情登录成功OnRspUserLogin
2021-11-27 13:50:38 行情接口配置文件读取成功
2021-11-27 13:50:38 发送登录行情服务器请求失败
2021-11-27 13:50:38 连接行情服务器成功OnFrontConnected
2021-11-27 13:50:38 行情登录成功OnRspUserLogin
2021-11-27 13:51:59 行情接口配置文件读取成功
2021-11-27 13:51:59 发送登录行情服务器请求失败
2021-11-27 13:51:59 连接行情服务器成功OnFrontConnected
2021-11-27 13:52:00 行情登录成功OnRspUserLogin
2021-11-27 13:52:43 行情接口配置文件读取成功
2021-11-27 13:52:43 发送登录行情服务器请求失败
2021-11-27 13:52:43 连接行情服务器成功OnFrontConnected
2021-11-27 13:52:43 行情登录成功OnRspUserLogin
2021-11-27 13:54:39 行情接口配置文件读取成功
2021-11-27 13:54:39 发送登录行情服务器请求失败
2021-11-27 13:54:39 连接行情服务器成功OnFrontConnected
2021-11-27 13:54:39 行情登录成功OnRspUserLogin
2021-11-27 13:56:04 行情接口配置文件读取成功
2021-11-27 13:56:04 发送登录行情服务器请求失败
2021-11-27 13:56:04 连接行情服务器成功OnFrontConnected
2021-11-27 13:56:04 行情登录成功OnRspUserLogin
2021-11-27 14:01:07 行情接口配置文件读取成功
2021-11-27 14:01:07 发送登录行情服务器请求失败
2021-11-27 14:01:07 连接行情服务器成功OnFrontConnected
2021-11-27 14:01:07 行情登录成功OnRspUserLogin
2021-11-27 14:02:23 行情接口配置文件读取成功
2021-11-27 14:02:23 发送登录行情服务器请求失败
2021-11-27 14:02:23 连接行情服务器成功OnFrontConnected
2021-11-27 14:02:23 行情登录成功OnRspUserLogin
2021-11-27 14:02:36 行情接口配置文件读取成功
2021-11-27 14:02:36 发送登录行情服务器请求失败
2021-11-27 14:02:36 连接行情服务器成功OnFrontConnected
2021-11-27 14:02:36 行情登录成功OnRspUserLogin
2021-11-27 14:04:24 行情接口配置文件读取成功
2021-11-27 14:04:24 发送登录行情服务器请求失败
2021-11-27 14:04:24 连接行情服务器成功OnFrontConnected
2021-11-27 14:04:24 行情登录成功OnRspUserLogin
2021-11-27 14:05:13 行情接口配置文件读取成功
2021-11-27 14:05:13 发送登录行情服务器请求失败
2021-11-27 14:05:13 连接行情服务器成功OnFrontConnected
2021-11-27 14:05:13 行情登录成功OnRspUserLogin
2021-11-27 14:10:43 行情接口配置文件读取成功
2021-11-27 14:10:43 发送登录行情服务器请求失败
2021-11-27 14:10:43 连接行情服务器成功OnFrontConnected
2021-11-27 14:10:43 行情登录成功OnRspUserLogin
2021-11-27 14:12:32 行情接口配置文件读取成功
2021-11-27 14:12:32 发送登录行情服务器请求失败
2021-11-27 14:12:32 连接行情服务器成功OnFrontConnected
2021-11-27 14:12:32 行情登录成功OnRspUserLogin
2021-11-27 14:13:24 行情接口配置文件读取成功
2021-11-27 14:13:24 发送登录行情服务器请求失败
2021-11-27 14:13:24 连接行情服务器成功OnFrontConnected
2021-11-27 14:13:24 行情登录成功OnRspUserLogin
2021-11-27 14:15:11 行情接口配置文件读取成功
2021-11-27 14:15:11 发送登录行情服务器请求失败
2021-11-27 14:15:11 连接行情服务器成功OnFrontConnected
2021-11-27 14:15:11 行情登录成功OnRspUserLogin
2021-11-27 14:16:07 行情接口配置文件读取成功
2021-11-27 14:16:07 发送登录行情服务器请求失败
2021-11-27 14:16:07 连接行情服务器成功OnFrontConnected
2021-11-27 14:16:07 行情登录成功OnRspUserLogin
2021-11-27 14:19:20 行情接口配置文件读取成功
2021-11-27 14:19:20 发送登录行情服务器请求失败
2021-11-27 14:19:20 连接行情服务器成功OnFrontConnected
2021-11-27 14:19:20 行情登录成功OnRspUserLogin
2021-11-27 14:21:52 行情接口配置文件读取成功
2021-11-27 14:21:52 发送登录行情服务器请求失败
2021-11-27 14:21:52 连接行情服务器成功OnFrontConnected
2021-11-27 14:21:52 行情登录成功OnRspUserLogin
2021-11-27 14:23:27 行情接口配置文件读取成功
2021-11-27 14:23:27 发送登录行情服务器请求失败
2021-11-27 14:23:27 连接行情服务器成功OnFrontConnected
2021-11-27 14:23:27 行情登录成功OnRspUserLogin
2021-11-27 14:24:16 行情接口配置文件读取成功
2021-11-27 14:24:16 发送登录行情服务器请求失败
2021-11-27 14:24:16 连接行情服务器成功OnFrontConnected
2021-11-27 14:24:16 行情登录成功OnRspUserLogin
2021-11-27 15:55:32 行情接口配置文件读取成功
2021-11-27 15:55:32 发送登录行情服务器请求失败
2021-11-27 15:55:32 连接行情服务器成功OnFrontConnected
2021-11-27 15:55:32 行情登录成功OnRspUserLogin
2021-11-27 15:56:35 行情接口配置文件读取成功
2021-11-27 15:56:35 发送登录行情服务器请求失败
2021-11-27 15:56:35 连接行情服务器成功OnFrontConnected
2021-11-27 15:56:35 行情登录成功OnRspUserLogin
2021-11-27 16:07:20 行情接口配置文件读取成功
2021-11-27 16:07:20 发送登录行情服务器请求失败
2021-11-27 16:07:20 连接行情服务器成功OnFrontConnected
2021-11-27 16:07:20 行情登录成功OnRspUserLogin
2021-11-27 16:08:58 行情接口配置文件读取成功
2021-11-27 16:08:58 发送登录行情服务器请求失败
2021-11-27 16:08:58 连接行情服务器成功OnFrontConnected
2021-11-27 16:08:58 行情登录成功OnRspUserLogin
2021-11-27 16:10:44 行情接口配置文件读取成功
2021-11-27 16:10:44 发送登录行情服务器请求失败
2021-11-27 16:10:44 连接行情服务器成功OnFrontConnected
2021-11-27 16:10:44 行情登录成功OnRspUserLogin
2021-11-27 16:11:49 行情接口配置文件读取成功
2021-11-27 16:11:49 发送登录行情服务器请求失败
2021-11-27 16:11:49 连接行情服务器成功OnFrontConnected
2021-11-27 16:11:49 行情登录成功OnRspUserLogin
2021-11-27 16:12:47 行情接口配置文件读取成功
2021-11-27 16:12:47 发送登录行情服务器请求失败
2021-11-27 16:12:47 连接行情服务器成功OnFrontConnected
2021-11-27 16:12:47 行情登录成功OnRspUserLogin
2021-11-27 16:13:29 行情接口配置文件读取成功
2021-11-27 16:13:29 发送登录行情服务器请求失败
2021-11-27 16:13:29 连接行情服务器成功OnFrontConnected
2021-11-27 16:13:29 行情登录成功OnRspUserLogin
2021-11-27 16:16:38 行情接口配置文件读取成功
2021-11-27 16:16:38 发送登录行情服务器请求失败
2021-11-27 16:16:38 连接行情服务器成功OnFrontConnected
2021-11-27 16:16:38 行情登录成功OnRspUserLogin
2021-11-27 16:17:28 行情接口配置文件读取成功
2021-11-27 16:17:28 发送登录行情服务器请求失败
2021-11-27 16:17:28 连接行情服务器成功OnFrontConnected
2021-11-27 16:17:28 行情登录成功OnRspUserLogin
2021-11-27 16:19:36 行情接口配置文件读取成功
2021-11-27 16:19:36 发送登录行情服务器请求失败
2021-11-27 16:19:36 连接行情服务器成功OnFrontConnected
2021-11-27 16:19:36 行情登录成功OnRspUserLogin
2021-11-27 16:21:28 行情接口配置文件读取成功
2021-11-27 16:21:28 发送登录行情服务器请求失败
2021-11-27 16:21:28 连接行情服务器成功OnFrontConnected
2021-11-27 16:21:28 行情登录成功OnRspUserLogin
2021-11-27 16:23:15 行情接口配置文件读取成功
2021-11-27 16:23:15 发送登录行情服务器请求失败
2021-11-27 16:23:15 连接行情服务器成功OnFrontConnected
2021-11-27 16:23:15 行情登录成功OnRspUserLogin
2021-11-27 16:25:34 行情接口配置文件读取成功
2021-11-27 16:25:34 发送登录行情服务器请求失败
2021-11-27 16:25:34 连接行情服务器成功OnFrontConnected
2021-11-27 16:25:34 行情登录成功OnRspUserLogin
2021-11-27 16:26:43 行情接口配置文件读取成功
2021-11-27 16:26:43 发送登录行情服务器请求失败
2021-11-27 16:26:43 连接行情服务器成功OnFrontConnected
2021-11-27 16:26:43 行情登录成功OnRspUserLogin
2021-11-27 16:32:59 行情接口配置文件读取成功
2021-11-27 16:32:59 发送登录行情服务器请求失败
2021-11-27 16:32:59 连接行情服务器成功OnFrontConnected
2021-11-27 16:32:59 行情登录成功OnRspUserLogin
2021-11-27 16:41:31 行情接口配置文件读取成功
2021-11-27 16:41:31 发送登录行情服务器请求失败
2021-11-27 16:41:31 连接行情服务器成功OnFrontConnected
2021-11-27 16:41:31 行情登录成功OnRspUserLogin
2021-11-27 16:43:51 行情接口配置文件读取成功
2021-11-27 16:43:51 发送登录行情服务器请求失败
2021-11-27 16:43:51 连接行情服务器成功OnFrontConnected
2021-11-27 16:43:51 行情登录成功OnRspUserLogin
2021-11-27 17:10:49 行情接口配置文件读取成功
2021-11-27 17:10:49 发送登录行情服务器请求失败
2021-11-27 17:10:49 连接行情服务器成功OnFrontConnected
2021-11-27 17:10:49 行情登录成功OnRspUserLogin
2021-11-27 17:15:55 行情接口配置文件读取成功
2021-11-27 17:15:55 发送登录行情服务器请求失败
2021-11-27 17:15:55 连接行情服务器成功OnFrontConnected
2021-11-27 17:15:55 行情登录成功OnRspUserLogin
2021-11-27 17:22:20 行情接口配置文件读取成功
2021-11-27 17:22:20 发送登录行情服务器请求失败
2021-11-27 17:22:21 连接行情服务器成功OnFrontConnected
2021-11-27 17:22:21 行情登录成功OnRspUserLogin
2021-11-27 17:24:22 行情接口配置文件读取成功
2021-11-27 17:24:22 发送登录行情服务器请求失败
2021-11-27 17:24:22 连接行情服务器成功OnFrontConnected
2021-11-27 17:24:22 行情登录成功OnRspUserLogin
2021-11-27 17:25:44 行情接口配置文件读取成功
2021-11-27 17:25:44 发送登录行情服务器请求失败
2021-11-27 17:25:44 连接行情服务器成功OnFrontConnected
2021-11-27 17:25:44 行情登录成功OnRspUserLogin
2021-11-27 17:28:36 行情接口配置文件读取成功
2021-11-27 17:28:36 发送登录行情服务器请求失败
2021-11-27 17:28:36 连接行情服务器成功OnFrontConnected
2021-11-27 17:28:36 行情登录成功OnRspUserLogin
2021-11-27 17:31:41 行情接口配置文件读取成功
2021-11-27 17:31:41 发送登录行情服务器请求失败
2021-11-27 17:31:42 连接行情服务器成功OnFrontConnected
2021-11-27 17:31:42 行情登录成功OnRspUserLogin
2021-11-27 17:32:45 行情接口配置文件读取成功
2021-11-27 17:32:45 发送登录行情服务器请求失败
2021-11-27 17:32:45 连接行情服务器成功OnFrontConnected
2021-11-27 17:32:45 行情登录成功OnRspUserLogin
2021-11-27 17:42:19 行情接口配置文件读取成功
2021-11-27 17:42:19 发送登录行情服务器请求失败
2021-11-27 17:42:19 连接行情服务器成功OnFrontConnected
2021-11-27 17:42:19 行情登录成功OnRspUserLogin
2021-11-27 17:43:41 行情接口配置文件读取成功
2021-11-27 17:43:41 发送登录行情服务器请求失败
2021-11-27 17:43:41 连接行情服务器成功OnFrontConnected
2021-11-27 17:43:41 行情登录成功OnRspUserLogin
2021-11-27 17:44:13 行情接口配置文件读取成功
2021-11-27 17:44:13 发送登录行情服务器请求失败
2021-11-27 17:44:13 连接行情服务器成功OnFrontConnected
2021-11-27 17:44:13 行情登录成功OnRspUserLogin
2021-11-27 17:45:01 行情接口配置文件读取成功
2021-11-27 17:45:01 发送登录行情服务器请求失败
2021-11-27 17:45:01 连接行情服务器成功OnFrontConnected
2021-11-27 17:45:01 行情登录成功OnRspUserLogin
2021-11-27 17:59:57 断开与行情服务器连接OnFrontDisconnected
2021-11-27 20:46:40 连接行情服务器成功OnFrontConnected
2021-11-27 20:46:40 行情登录成功OnRspUserLogin
2021-11-27 20:48:43 行情接口配置文件读取成功
2021-11-27 20:48:43 发送登录行情服务器请求失败
2021-11-27 20:48:43 连接行情服务器成功OnFrontConnected
2021-11-27 20:48:43 行情登录成功OnRspUserLogin
2021-11-27 20:50:21 行情接口配置文件读取成功
2021-11-27 20:50:22 发送登录行情服务器请求失败
2021-11-27 20:50:22 连接行情服务器成功OnFrontConnected
2021-11-27 20:50:22 行情登录成功OnRspUserLogin
2021-11-27 20:51:11 行情接口配置文件读取成功
2021-11-27 20:51:11 发送登录行情服务器请求失败
2021-11-27 20:51:11 连接行情服务器成功OnFrontConnected
2021-11-27 20:51:11 行情登录成功OnRspUserLogin
2021-11-27 20:51:20 行情接口配置文件读取成功
2021-11-27 20:51:20 发送登录行情服务器请求失败
2021-11-27 20:51:20 连接行情服务器成功OnFrontConnected
2021-11-27 20:51:20 行情登录成功OnRspUserLogin
2021-11-27 21:31:01 行情接口配置文件读取成功
2021-11-27 21:31:01 发送登录行情服务器请求失败
2021-11-27 21:31:04 断开与行情服务器连接OnFrontDisconnected
2021-11-27 21:31:04 连接行情服务器成功OnFrontConnected
2021-11-27 21:31:04 行情登录成功OnRspUserLogin
2021-11-27 21:37:59 行情接口配置文件读取成功
2021-11-27 21:37:59 发送登录行情服务器请求失败
2021-11-27 21:37:59 连接行情服务器成功OnFrontConnected
2021-11-27 21:37:59 行情登录成功OnRspUserLogin
2021-11-27 21:40:28 行情接口配置文件读取成功
2021-11-27 21:40:28 发送登录行情服务器请求失败
2021-11-27 21:40:28 连接行情服务器成功OnFrontConnected
2021-11-27 21:40:28 行情登录成功OnRspUserLogin
2021-11-27 21:44:44 行情接口配置文件读取成功
2021-11-27 21:44:44 发送登录行情服务器请求失败
2021-11-27 21:44:48 断开与行情服务器连接OnFrontDisconnected
2021-11-27 21:44:48 连接行情服务器成功OnFrontConnected
2021-11-27 21:44:48 行情登录成功OnRspUserLogin
2021-11-27 21:46:20 行情接口配置文件读取成功
2021-11-27 21:46:20 发送登录行情服务器请求失败
2021-11-27 21:46:20 连接行情服务器成功OnFrontConnected
2021-11-27 21:46:20 行情登录成功OnRspUserLogin
2021-11-27 21:48:10 行情接口配置文件读取成功
2021-11-27 21:48:10 发送登录行情服务器请求失败
2021-11-27 21:48:10 连接行情服务器成功OnFrontConnected
2021-11-27 21:48:10 行情登录成功OnRspUserLogin
2021-11-27 21:49:40 行情接口配置文件读取成功
2021-11-27 21:49:40 发送登录行情服务器请求失败
2021-11-27 21:49:40 连接行情服务器成功OnFrontConnected
2021-11-27 21:49:40 行情登录成功OnRspUserLogin
2021-11-27 21:51:44 行情接口配置文件读取成功
2021-11-27 21:51:44 发送登录行情服务器请求失败
2021-11-27 21:51:44 连接行情服务器成功OnFrontConnected
2021-11-27 21:51:44 行情登录成功OnRspUserLogin
2021-11-27 21:51:58 行情接口配置文件读取成功
2021-11-27 21:51:58 发送登录行情服务器请求失败
2021-11-27 21:51:59 连接行情服务器成功OnFrontConnected
2021-11-27 21:51:59 行情登录成功OnRspUserLogin
2021-11-27 22:08:59 行情接口配置文件读取成功
2021-11-27 22:08:59 发送登录行情服务器请求失败
2021-11-27 22:08:59 连接行情服务器成功OnFrontConnected
2021-11-27 22:08:59 行情登录成功OnRspUserLogin
2021-11-27 22:11:27 行情接口配置文件读取成功
2021-11-27 22:11:27 发送登录行情服务器请求失败
2021-11-27 22:11:27 连接行情服务器成功OnFrontConnected
2021-11-27 22:11:27 行情登录成功OnRspUserLogin
2021-11-27 22:21:36 行情接口配置文件读取成功
2021-11-27 22:21:36 发送登录行情服务器请求失败
2021-11-27 22:21:36 连接行情服务器成功OnFrontConnected
2021-11-27 22:21:36 行情登录成功OnRspUserLogin
2021-11-27 22:23:47 行情接口配置文件读取成功
2021-11-27 22:23:47 发送登录行情服务器请求失败
2021-11-27 22:23:47 连接行情服务器成功OnFrontConnected
2021-11-27 22:23:47 行情登录成功OnRspUserLogin
2021-11-27 22:24:58 行情接口配置文件读取成功
2021-11-27 22:24:58 发送登录行情服务器请求失败
2021-11-27 22:24:58 连接行情服务器成功OnFrontConnected
2021-11-27 22:24:58 行情登录成功OnRspUserLogin
2021-11-27 22:25:31 行情接口配置文件读取成功
2021-11-27 22:25:31 发送登录行情服务器请求失败
2021-11-27 22:25:31 连接行情服务器成功OnFrontConnected
2021-11-27 22:25:31 行情登录成功OnRspUserLogin
2021-11-27 22:27:10 行情接口配置文件读取成功
2021-11-27 22:27:10 发送登录行情服务器请求失败
2021-11-27 22:27:10 连接行情服务器成功OnFrontConnected
2021-11-27 22:27:10 行情登录成功OnRspUserLogin
2021-11-27 22:28:04 行情接口配置文件读取成功
2021-11-27 22:28:04 发送登录行情服务器请求失败
2021-11-27 22:28:04 连接行情服务器成功OnFrontConnected
2021-11-27 22:28:04 行情登录成功OnRspUserLogin
2021-11-27 23:01:10 行情接口配置文件读取成功
2021-11-27 23:01:10 发送登录行情服务器请求失败
2021-11-27 23:01:10 连接行情服务器成功OnFrontConnected
2021-11-27 23:01:10 行情登录成功OnRspUserLogin
2021-11-27 23:09:49 行情接口配置文件读取成功
2021-11-27 23:09:49 发送登录行情服务器请求失败
2021-11-27 23:09:49 连接行情服务器成功OnFrontConnected
2021-11-27 23:09:49 行情登录成功OnRspUserLogin
2021-11-27 23:10:07 行情接口配置文件读取成功
2021-11-27 23:10:07 发送登录行情服务器请求失败
2021-11-27 23:10:07 连接行情服务器成功OnFrontConnected
2021-11-27 23:10:07 行情登录成功OnRspUserLogin
2021-11-27 23:10:59 行情接口配置文件读取成功
2021-11-27 23:10:59 发送登录行情服务器请求失败
2021-11-27 23:10:59 连接行情服务器成功OnFrontConnected
2021-11-27 23:10:59 行情登录成功OnRspUserLogin
2021-11-27 23:11:46 行情接口配置文件读取成功
2021-11-27 23:11:46 发送登录行情服务器请求失败
2021-11-27 23:11:46 连接行情服务器成功OnFrontConnected
2021-11-27 23:11:46 行情登录成功OnRspUserLogin
2021-11-27 23:12:42 行情接口配置文件读取成功
2021-11-27 23:12:42 发送登录行情服务器请求失败
2021-11-27 23:12:42 连接行情服务器成功OnFrontConnected
2021-11-27 23:12:42 行情登录成功OnRspUserLogin
2021-11-27 23:13:07 行情接口配置文件读取成功
2021-11-27 23:13:07 发送登录行情服务器请求失败
2021-11-27 23:13:07 连接行情服务器成功OnFrontConnected
2021-11-27 23:13:07 行情登录成功OnRspUserLogin
2021-11-27 23:14:55 行情接口配置文件读取成功
2021-11-27 23:14:55 发送登录行情服务器请求失败
2021-11-27 23:14:55 连接行情服务器成功OnFrontConnected
2021-11-27 23:14:55 行情登录成功OnRspUserLogin
2021-11-27 23:15:53 行情接口配置文件读取成功
2021-11-27 23:15:53 发送登录行情服务器请求失败
2021-11-27 23:15:53 连接行情服务器成功OnFrontConnected
2021-11-27 23:15:53 行情登录成功OnRspUserLogin
