2021-12-18 16:11:46 行情接口配置文件读取成功
2021-12-18 16:11:46 发送登录行情服务器请求失败
2021-12-18 16:11:46 连接行情服务器成功OnFrontConnected
2021-12-18 16:11:46 行情登录成功OnRspUserLogin
2021-12-18 16:16:18 行情接口配置文件读取成功
2021-12-18 16:16:18 发送登录行情服务器请求失败
2021-12-18 16:16:18 连接行情服务器成功OnFrontConnected
2021-12-18 16:16:18 行情登录成功OnRspUserLogin
2021-12-18 16:17:21 行情接口配置文件读取成功
2021-12-18 16:17:21 发送登录行情服务器请求失败
2021-12-18 16:17:21 连接行情服务器成功OnFrontConnected
2021-12-18 16:17:21 行情登录成功OnRspUserLogin
2021-12-18 21:45:02 行情接口配置文件读取成功
2021-12-18 21:45:02 发送登录行情服务器请求失败
2021-12-18 21:45:02 连接行情服务器成功OnFrontConnected
2021-12-18 21:45:02 行情登录成功OnRspUserLogin
2021-12-18 21:58:08 行情接口配置文件读取成功
2021-12-18 21:58:08 发送登录行情服务器请求失败
2021-12-18 21:58:09 连接行情服务器成功OnFrontConnected
2021-12-18 21:58:09 行情登录成功OnRspUserLogin
2021-12-18 22:15:13 行情接口配置文件读取成功
2021-12-18 22:15:13 发送登录行情服务器请求失败
2021-12-18 22:15:13 连接行情服务器成功OnFrontConnected
2021-12-18 22:15:13 行情登录成功OnRspUserLogin
2021-12-18 22:47:06 行情接口配置文件读取成功
2021-12-18 22:47:06 发送登录行情服务器请求失败
2021-12-18 22:47:06 连接行情服务器成功OnFrontConnected
2021-12-18 22:47:06 行情登录成功OnRspUserLogin
2021-12-18 23:09:26 行情接口配置文件读取成功
2021-12-18 23:09:26 发送登录行情服务器请求失败
2021-12-18 23:09:26 连接行情服务器成功OnFrontConnected
2021-12-18 23:09:26 行情登录成功OnRspUserLogin
2021-12-18 23:15:28 行情接口配置文件读取成功
2021-12-18 23:15:28 发送登录行情服务器请求失败
2021-12-18 23:15:28 连接行情服务器成功OnFrontConnected
2021-12-18 23:15:28 行情登录成功OnRspUserLogin
2021-12-18 23:15:51 行情接口配置文件读取成功
2021-12-18 23:15:51 发送登录行情服务器请求失败
2021-12-18 23:15:51 连接行情服务器成功OnFrontConnected
2021-12-18 23:15:51 行情登录成功OnRspUserLogin
2021-12-18 23:16:31 行情接口配置文件读取成功
2021-12-18 23:16:31 发送登录行情服务器请求失败
2021-12-18 23:16:31 连接行情服务器成功OnFrontConnected
2021-12-18 23:16:31 行情登录成功OnRspUserLogin
2021-12-18 23:17:11 行情接口配置文件读取成功
2021-12-18 23:17:11 发送登录行情服务器请求失败
2021-12-18 23:17:11 连接行情服务器成功OnFrontConnected
2021-12-18 23:17:11 行情登录成功OnRspUserLogin
2021-12-18 23:20:02 行情接口配置文件读取成功
2021-12-18 23:20:02 发送登录行情服务器请求失败
2021-12-18 23:20:02 连接行情服务器成功OnFrontConnected
2021-12-18 23:20:02 行情登录成功OnRspUserLogin
2021-12-18 23:21:09 行情接口配置文件读取成功
2021-12-18 23:21:09 发送登录行情服务器请求失败
2021-12-18 23:21:09 连接行情服务器成功OnFrontConnected
2021-12-18 23:21:09 行情登录成功OnRspUserLogin
2021-12-18 23:22:41 行情接口配置文件读取成功
2021-12-18 23:22:41 发送登录行情服务器请求失败
2021-12-18 23:22:41 连接行情服务器成功OnFrontConnected
2021-12-18 23:22:41 行情登录成功OnRspUserLogin
2021-12-18 23:29:26 行情接口配置文件读取成功
2021-12-18 23:29:26 发送登录行情服务器请求失败
2021-12-18 23:29:26 连接行情服务器成功OnFrontConnected
2021-12-18 23:29:26 行情登录成功OnRspUserLogin
