2022-01-01 04:19:22 行情接口配置文件读取成功
2022-01-01 04:19:22 发送登录行情服务器请求成功
2022-01-01 04:19:22 断开与行情服务器连接OnFrontDisconnected
2022-01-01 04:19:22 连接行情服务器成功OnFrontConnected
2022-01-01 04:19:22 行情登录成功OnRspUserLogin
2022-01-01 04:27:15 行情接口配置文件读取成功
2022-01-01 04:27:15 发送登录行情服务器请求失败
2022-01-01 04:27:15 连接行情服务器成功OnFrontConnected
2022-01-01 04:27:15 行情登录成功OnRspUserLogin
2022-01-01 04:27:43 行情接口配置文件读取成功
2022-01-01 04:27:43 发送登录行情服务器请求失败
2022-01-01 04:27:43 连接行情服务器成功OnFrontConnected
2022-01-01 04:27:43 行情登录成功OnRspUserLogin
2022-01-01 04:30:01 行情接口配置文件读取成功
2022-01-01 04:30:01 发送登录行情服务器请求失败
2022-01-01 04:30:01 连接行情服务器成功OnFrontConnected
2022-01-01 04:30:01 行情登录成功OnRspUserLogin
2022-01-01 04:30:08 行情接口配置文件读取成功
2022-01-01 04:30:08 发送登录行情服务器请求失败
2022-01-01 04:30:08 连接行情服务器成功OnFrontConnected
2022-01-01 04:30:08 行情登录成功OnRspUserLogin
2022-01-01 04:31:06 行情接口配置文件读取成功
2022-01-01 04:31:06 发送登录行情服务器请求失败
2022-01-01 04:31:07 连接行情服务器成功OnFrontConnected
2022-01-01 04:31:07 行情登录成功OnRspUserLogin
2022-01-01 04:32:19 行情接口配置文件读取成功
2022-01-01 04:32:19 发送登录行情服务器请求失败
2022-01-01 04:32:19 连接行情服务器成功OnFrontConnected
2022-01-01 04:32:19 行情登录成功OnRspUserLogin
2022-01-01 04:34:46 行情接口配置文件读取成功
2022-01-01 04:34:46 发送登录行情服务器请求失败
2022-01-01 04:34:46 连接行情服务器成功OnFrontConnected
2022-01-01 04:34:46 行情登录成功OnRspUserLogin
2022-01-01 04:46:12 行情接口配置文件读取成功
2022-01-01 04:46:12 发送登录行情服务器请求失败
2022-01-01 04:46:12 连接行情服务器成功OnFrontConnected
2022-01-01 04:46:12 行情登录成功OnRspUserLogin
2022-01-01 04:51:24 行情接口配置文件读取成功
2022-01-01 04:51:24 发送登录行情服务器请求失败
2022-01-01 04:51:24 连接行情服务器成功OnFrontConnected
2022-01-01 04:51:24 行情登录成功OnRspUserLogin
2022-01-01 04:51:55 行情接口配置文件读取成功
2022-01-01 04:51:55 发送登录行情服务器请求失败
2022-01-01 04:51:55 连接行情服务器成功OnFrontConnected
2022-01-01 04:51:55 行情登录成功OnRspUserLogin
2022-01-01 04:53:46 行情接口配置文件读取成功
2022-01-01 04:53:46 发送登录行情服务器请求失败
2022-01-01 04:53:46 连接行情服务器成功OnFrontConnected
2022-01-01 04:53:46 行情登录成功OnRspUserLogin
2022-01-01 04:54:37 行情接口配置文件读取成功
2022-01-01 04:54:37 发送登录行情服务器请求失败
2022-01-01 04:54:37 连接行情服务器成功OnFrontConnected
2022-01-01 04:54:37 行情登录成功OnRspUserLogin
2022-01-01 05:00:06 行情接口配置文件读取成功
2022-01-01 05:00:06 发送登录行情服务器请求失败
2022-01-01 05:00:06 连接行情服务器成功OnFrontConnected
2022-01-01 05:00:06 行情登录成功OnRspUserLogin
2022-01-01 05:02:55 行情接口配置文件读取成功
2022-01-01 05:02:55 发送登录行情服务器请求失败
2022-01-01 05:02:55 连接行情服务器成功OnFrontConnected
2022-01-01 05:02:56 行情登录成功OnRspUserLogin
2022-01-01 05:03:37 行情接口配置文件读取成功
2022-01-01 05:03:37 发送登录行情服务器请求失败
2022-01-01 05:03:37 连接行情服务器成功OnFrontConnected
2022-01-01 05:03:37 行情登录成功OnRspUserLogin
2022-01-01 05:04:16 行情接口配置文件读取成功
2022-01-01 05:04:16 发送登录行情服务器请求失败
2022-01-01 05:04:16 连接行情服务器成功OnFrontConnected
2022-01-01 05:04:16 行情登录成功OnRspUserLogin
2022-01-01 05:05:23 行情接口配置文件读取成功
2022-01-01 05:05:23 发送登录行情服务器请求失败
2022-01-01 05:05:23 连接行情服务器成功OnFrontConnected
2022-01-01 05:05:23 行情登录成功OnRspUserLogin
2022-01-01 05:07:03 行情接口配置文件读取成功
2022-01-01 05:07:03 发送登录行情服务器请求失败
2022-01-01 05:07:03 连接行情服务器成功OnFrontConnected
2022-01-01 05:07:03 行情登录成功OnRspUserLogin
2022-01-01 05:07:34 行情接口配置文件读取成功
2022-01-01 05:07:34 发送登录行情服务器请求失败
2022-01-01 05:07:34 连接行情服务器成功OnFrontConnected
2022-01-01 05:07:34 行情登录成功OnRspUserLogin
2022-01-01 05:10:34 行情接口配置文件读取成功
2022-01-01 05:10:34 发送登录行情服务器请求失败
2022-01-01 05:10:34 连接行情服务器成功OnFrontConnected
2022-01-01 05:10:34 行情登录成功OnRspUserLogin
2022-01-01 05:10:50 行情接口配置文件读取成功
2022-01-01 05:10:50 发送登录行情服务器请求成功
2022-01-01 05:10:50 断开与行情服务器连接OnFrontDisconnected
2022-01-01 05:10:50 连接行情服务器成功OnFrontConnected
2022-01-01 05:10:50 行情登录成功OnRspUserLogin
2022-01-01 05:11:47 行情接口配置文件读取成功
2022-01-01 05:11:47 发送登录行情服务器请求失败
2022-01-01 05:11:47 连接行情服务器成功OnFrontConnected
2022-01-01 05:11:47 行情登录成功OnRspUserLogin
2022-01-01 05:14:19 行情接口配置文件读取成功
2022-01-01 05:14:19 发送登录行情服务器请求失败
2022-01-01 05:14:19 连接行情服务器成功OnFrontConnected
2022-01-01 05:14:19 行情登录成功OnRspUserLogin
2022-01-01 05:15:22 行情接口配置文件读取成功
2022-01-01 05:15:22 发送登录行情服务器请求失败
2022-01-01 05:15:22 连接行情服务器成功OnFrontConnected
2022-01-01 05:15:22 行情登录成功OnRspUserLogin
2022-01-01 05:28:40 行情接口配置文件读取成功
2022-01-01 05:28:40 发送登录行情服务器请求失败
2022-01-01 05:28:40 连接行情服务器成功OnFrontConnected
2022-01-01 05:28:40 行情登录成功OnRspUserLogin
2022-01-01 05:31:41 行情接口配置文件读取成功
2022-01-01 05:31:41 发送登录行情服务器请求失败
2022-01-01 05:31:41 连接行情服务器成功OnFrontConnected
2022-01-01 05:31:41 行情登录成功OnRspUserLogin
2022-01-01 05:32:34 行情接口配置文件读取成功
2022-01-01 05:32:34 发送登录行情服务器请求失败
2022-01-01 05:32:35 连接行情服务器成功OnFrontConnected
2022-01-01 05:32:35 行情登录成功OnRspUserLogin
2022-01-01 05:34:49 行情接口配置文件读取成功
2022-01-01 05:34:49 发送登录行情服务器请求失败
2022-01-01 05:34:49 连接行情服务器成功OnFrontConnected
2022-01-01 05:34:49 行情登录成功OnRspUserLogin
2022-01-01 05:35:23 行情接口配置文件读取成功
2022-01-01 05:35:23 发送登录行情服务器请求失败
2022-01-01 05:35:23 连接行情服务器成功OnFrontConnected
2022-01-01 05:35:23 行情登录成功OnRspUserLogin
2022-01-01 05:40:58 行情接口配置文件读取成功
2022-01-01 05:40:58 发送登录行情服务器请求失败
2022-01-01 05:40:58 连接行情服务器成功OnFrontConnected
2022-01-01 05:40:58 行情登录成功OnRspUserLogin
2022-01-01 05:41:05 行情接口配置文件读取成功
2022-01-01 05:41:05 发送登录行情服务器请求失败
2022-01-01 05:41:05 连接行情服务器成功OnFrontConnected
2022-01-01 05:41:05 行情登录成功OnRspUserLogin
2022-01-01 05:41:21 行情接口配置文件读取成功
2022-01-01 05:41:21 发送登录行情服务器请求失败
2022-01-01 05:41:21 连接行情服务器成功OnFrontConnected
2022-01-01 05:41:21 行情登录成功OnRspUserLogin
2022-01-01 05:41:56 行情接口配置文件读取成功
2022-01-01 05:41:56 发送登录行情服务器请求失败
2022-01-01 05:41:56 连接行情服务器成功OnFrontConnected
2022-01-01 05:41:56 行情登录成功OnRspUserLogin
2022-01-01 05:42:53 行情接口配置文件读取成功
2022-01-01 05:42:53 发送登录行情服务器请求失败
2022-01-01 05:42:53 连接行情服务器成功OnFrontConnected
2022-01-01 05:42:53 行情登录成功OnRspUserLogin
2022-01-01 05:44:19 行情接口配置文件读取成功
2022-01-01 05:44:19 发送登录行情服务器请求失败
2022-01-01 05:44:19 连接行情服务器成功OnFrontConnected
2022-01-01 05:44:19 行情登录成功OnRspUserLogin
2022-01-01 16:45:47 行情接口配置文件读取成功
2022-01-01 16:45:47 发送登录行情服务器请求失败
2022-01-01 16:47:10 行情接口配置文件读取成功
2022-01-01 16:47:10 发送登录行情服务器请求失败
2022-01-01 16:47:35 断开与行情服务器连接OnFrontDisconnected
2022-01-01 16:48:18 行情接口配置文件读取成功
2022-01-01 16:48:18 发送登录行情服务器请求失败
2022-01-01 16:48:31 行情接口配置文件读取成功
2022-01-01 16:48:31 发送登录行情服务器请求失败
2022-01-01 16:49:10 行情接口配置文件读取成功
2022-01-01 16:49:10 发送登录行情服务器请求失败
2022-01-01 16:49:27 行情接口配置文件读取成功
2022-01-01 16:49:27 发送登录行情服务器请求失败
2022-01-01 16:51:02 行情接口配置文件读取成功
2022-01-01 16:51:02 发送登录行情服务器请求失败
2022-01-01 16:52:04 行情接口配置文件读取成功
2022-01-01 16:52:04 发送登录行情服务器请求失败
2022-01-01 16:53:32 行情接口配置文件读取成功
2022-01-01 16:53:32 发送登录行情服务器请求失败
2022-01-01 16:55:09 行情接口配置文件读取成功
2022-01-01 16:55:09 发送登录行情服务器请求失败
2022-01-01 16:55:23 行情接口配置文件读取成功
2022-01-01 16:55:23 发送登录行情服务器请求失败
2022-01-01 16:57:03 行情接口配置文件读取成功
2022-01-01 16:57:03 发送登录行情服务器请求失败
2022-01-01 17:05:23 行情接口配置文件读取成功
2022-01-01 17:05:23 发送登录行情服务器请求失败
2022-01-01 17:06:31 行情接口配置文件读取成功
2022-01-01 17:06:31 发送登录行情服务器请求失败
2022-01-01 17:09:51 行情接口配置文件读取成功
2022-01-01 17:09:51 发送登录行情服务器请求失败
2022-01-01 17:11:25 行情接口配置文件读取成功
2022-01-01 17:11:25 发送登录行情服务器请求失败
2022-01-01 17:13:08 行情接口配置文件读取成功
2022-01-01 17:13:08 发送登录行情服务器请求失败
2022-01-01 17:14:07 行情接口配置文件读取成功
2022-01-01 17:14:07 发送登录行情服务器请求失败
2022-01-01 17:15:08 行情接口配置文件读取成功
2022-01-01 17:15:08 发送登录行情服务器请求失败
2022-01-01 17:15:29 行情接口配置文件读取成功
2022-01-01 17:15:29 发送登录行情服务器请求失败
2022-01-01 17:16:06 行情接口配置文件读取成功
2022-01-01 17:16:06 发送登录行情服务器请求失败
2022-01-01 17:16:13 行情接口配置文件读取成功
2022-01-01 17:16:13 发送登录行情服务器请求失败
2022-01-01 17:16:57 行情接口配置文件读取成功
2022-01-01 17:16:57 发送登录行情服务器请求失败
2022-01-01 17:17:52 行情接口配置文件读取成功
2022-01-01 17:17:52 发送登录行情服务器请求失败
2022-01-01 17:18:02 行情接口配置文件读取成功
2022-01-01 17:18:02 发送登录行情服务器请求失败
2022-01-01 17:18:41 行情接口配置文件读取成功
2022-01-01 17:18:41 发送登录行情服务器请求失败
2022-01-01 17:19:11 行情接口配置文件读取成功
2022-01-01 17:19:11 发送登录行情服务器请求失败
2022-01-01 17:20:05 断开与行情服务器连接OnFrontDisconnected
2022-01-01 17:20:46 行情接口配置文件读取成功
2022-01-01 17:20:46 发送登录行情服务器请求失败
2022-01-01 17:21:05 行情接口配置文件读取成功
2022-01-01 17:21:05 发送登录行情服务器请求失败
2022-01-01 17:25:37 行情接口配置文件读取成功
2022-01-01 17:25:37 发送登录行情服务器请求失败
2022-01-01 17:25:41 断开与行情服务器连接OnFrontDisconnected
2022-01-01 17:26:26 行情接口配置文件读取成功
2022-01-01 17:26:26 发送登录行情服务器请求失败
2022-01-01 17:27:10 行情接口配置文件读取成功
2022-01-01 17:27:10 发送登录行情服务器请求失败
2022-01-01 17:28:02 行情接口配置文件读取成功
2022-01-01 17:28:02 发送登录行情服务器请求失败
2022-01-01 17:28:12 行情接口配置文件读取成功
2022-01-01 17:28:12 发送登录行情服务器请求失败
2022-01-01 17:28:37 行情接口配置文件读取成功
2022-01-01 17:28:37 发送登录行情服务器请求失败
2022-01-01 17:34:41 行情接口配置文件读取成功
2022-01-01 17:34:41 发送登录行情服务器请求失败
2022-01-01 17:34:59 行情接口配置文件读取成功
2022-01-01 17:34:59 发送登录行情服务器请求失败
2022-01-01 17:36:40 行情接口配置文件读取成功
2022-01-01 17:36:40 发送登录行情服务器请求失败
2022-01-01 17:36:50 行情接口配置文件读取成功
2022-01-01 17:36:50 发送登录行情服务器请求失败
2022-01-01 17:37:37 行情接口配置文件读取成功
2022-01-01 17:37:37 发送登录行情服务器请求失败
2022-01-01 17:38:59 行情接口配置文件读取成功
2022-01-01 17:38:59 发送登录行情服务器请求失败
2022-01-01 17:39:15 行情接口配置文件读取成功
2022-01-01 17:39:15 发送登录行情服务器请求失败
2022-01-01 17:40:32 行情接口配置文件读取成功
2022-01-01 17:40:32 发送登录行情服务器请求失败
2022-01-01 17:41:25 行情接口配置文件读取成功
2022-01-01 17:41:25 发送登录行情服务器请求失败
2022-01-01 17:44:00 断开与行情服务器连接OnFrontDisconnected
