2022-01-22 00:36:49 行情接口配置文件读取成功
2022-01-22 00:36:49 发送登录行情服务器请求失败
2022-01-22 00:36:49 连接行情服务器成功OnFrontConnected
2022-01-22 00:36:49 行情登录成功OnRspUserLogin
2022-01-22 00:38:53 行情接口配置文件读取成功
2022-01-22 00:38:53 发送登录行情服务器请求失败
2022-01-22 00:38:53 连接行情服务器成功OnFrontConnected
2022-01-22 00:38:53 行情登录成功OnRspUserLogin
2022-01-22 00:39:42 行情接口配置文件读取成功
2022-01-22 00:39:42 发送登录行情服务器请求失败
2022-01-22 00:39:42 连接行情服务器成功OnFrontConnected
2022-01-22 00:39:42 行情登录成功OnRspUserLogin
2022-01-22 00:40:26 行情接口配置文件读取成功
2022-01-22 00:40:26 发送登录行情服务器请求失败
2022-01-22 00:40:26 连接行情服务器成功OnFrontConnected
2022-01-22 00:40:26 行情登录成功OnRspUserLogin
2022-01-22 00:43:24 行情接口配置文件读取成功
2022-01-22 00:43:24 发送登录行情服务器请求失败
2022-01-22 00:43:25 连接行情服务器成功OnFrontConnected
2022-01-22 00:43:25 行情登录成功OnRspUserLogin
2022-01-22 00:44:03 行情接口配置文件读取成功
2022-01-22 00:44:03 发送登录行情服务器请求失败
2022-01-22 00:44:03 连接行情服务器成功OnFrontConnected
2022-01-22 00:44:03 行情登录成功OnRspUserLogin
2022-01-22 00:44:27 行情接口配置文件读取成功
2022-01-22 00:44:27 发送登录行情服务器请求失败
2022-01-22 00:44:27 连接行情服务器成功OnFrontConnected
2022-01-22 00:44:27 行情登录成功OnRspUserLogin
2022-01-22 00:44:37 行情接口配置文件读取成功
2022-01-22 00:44:37 发送登录行情服务器请求失败
2022-01-22 00:44:37 连接行情服务器成功OnFrontConnected
2022-01-22 00:44:37 行情登录成功OnRspUserLogin
2022-01-22 00:45:10 行情接口配置文件读取成功
2022-01-22 00:45:10 发送登录行情服务器请求失败
2022-01-22 00:45:10 连接行情服务器成功OnFrontConnected
2022-01-22 00:45:10 行情登录成功OnRspUserLogin
2022-01-22 00:45:36 行情接口配置文件读取成功
2022-01-22 00:45:36 发送登录行情服务器请求失败
2022-01-22 00:45:36 连接行情服务器成功OnFrontConnected
2022-01-22 00:45:36 行情登录成功OnRspUserLogin
2022-01-22 00:46:18 行情接口配置文件读取成功
2022-01-22 00:46:18 发送登录行情服务器请求失败
2022-01-22 00:46:18 连接行情服务器成功OnFrontConnected
2022-01-22 00:46:18 行情登录成功OnRspUserLogin
2022-01-22 00:47:39 行情接口配置文件读取成功
2022-01-22 00:47:39 发送登录行情服务器请求失败
2022-01-22 00:47:39 连接行情服务器成功OnFrontConnected
2022-01-22 00:47:39 行情登录成功OnRspUserLogin
2022-01-22 00:48:39 行情接口配置文件读取成功
2022-01-22 00:48:39 发送登录行情服务器请求失败
2022-01-22 00:48:39 连接行情服务器成功OnFrontConnected
2022-01-22 00:48:39 行情登录成功OnRspUserLogin
2022-01-22 00:49:25 行情接口配置文件读取成功
2022-01-22 00:49:25 发送登录行情服务器请求失败
2022-01-22 00:49:25 连接行情服务器成功OnFrontConnected
2022-01-22 00:49:25 行情登录成功OnRspUserLogin
2022-01-22 00:49:57 行情接口配置文件读取成功
2022-01-22 00:49:57 发送登录行情服务器请求失败
2022-01-22 00:49:57 连接行情服务器成功OnFrontConnected
2022-01-22 00:49:57 行情登录成功OnRspUserLogin
2022-01-22 00:50:35 行情接口配置文件读取成功
2022-01-22 00:50:35 发送登录行情服务器请求失败
2022-01-22 00:50:35 连接行情服务器成功OnFrontConnected
2022-01-22 00:50:35 行情登录成功OnRspUserLogin
2022-01-22 00:51:10 行情接口配置文件读取成功
2022-01-22 00:51:10 发送登录行情服务器请求失败
2022-01-22 00:51:10 连接行情服务器成功OnFrontConnected
2022-01-22 00:51:10 行情登录成功OnRspUserLogin
2022-01-22 00:52:07 行情接口配置文件读取成功
2022-01-22 00:52:07 发送登录行情服务器请求失败
2022-01-22 00:52:07 连接行情服务器成功OnFrontConnected
2022-01-22 00:52:07 行情登录成功OnRspUserLogin
2022-01-22 01:04:25 行情接口配置文件读取成功
2022-01-22 01:04:25 发送登录行情服务器请求成功
2022-01-22 01:04:26 断开与行情服务器连接OnFrontDisconnected
2022-01-22 01:04:26 连接行情服务器成功OnFrontConnected
2022-01-22 01:04:26 行情登录成功OnRspUserLogin
2022-01-22 01:06:26 行情接口配置文件读取成功
2022-01-22 01:06:26 发送登录行情服务器请求失败
2022-01-22 01:06:26 连接行情服务器成功OnFrontConnected
2022-01-22 01:06:26 行情登录成功OnRspUserLogin
2022-01-22 01:07:53 行情接口配置文件读取成功
2022-01-22 01:07:53 发送登录行情服务器请求失败
2022-01-22 01:07:53 连接行情服务器成功OnFrontConnected
2022-01-22 01:07:53 行情登录成功OnRspUserLogin
2022-01-22 01:08:12 行情接口配置文件读取成功
2022-01-22 01:08:12 发送登录行情服务器请求失败
2022-01-22 01:08:12 连接行情服务器成功OnFrontConnected
2022-01-22 01:08:12 行情登录成功OnRspUserLogin
2022-01-22 01:08:41 行情接口配置文件读取成功
2022-01-22 01:08:41 发送登录行情服务器请求失败
2022-01-22 01:08:41 连接行情服务器成功OnFrontConnected
2022-01-22 01:08:41 行情登录成功OnRspUserLogin
2022-01-22 01:09:38 行情接口配置文件读取成功
2022-01-22 01:09:38 发送登录行情服务器请求失败
2022-01-22 01:09:38 连接行情服务器成功OnFrontConnected
2022-01-22 01:09:38 行情登录成功OnRspUserLogin
2022-01-22 01:10:00 行情接口配置文件读取成功
2022-01-22 01:10:00 发送登录行情服务器请求失败
2022-01-22 01:10:00 连接行情服务器成功OnFrontConnected
2022-01-22 01:10:00 行情登录成功OnRspUserLogin
2022-01-22 01:12:47 行情接口配置文件读取成功
2022-01-22 01:12:47 发送登录行情服务器请求失败
2022-01-22 01:12:47 连接行情服务器成功OnFrontConnected
2022-01-22 01:12:47 行情登录成功OnRspUserLogin
2022-01-22 01:13:15 行情接口配置文件读取成功
2022-01-22 01:13:15 发送登录行情服务器请求失败
2022-01-22 01:13:15 连接行情服务器成功OnFrontConnected
2022-01-22 01:13:15 行情登录成功OnRspUserLogin
2022-01-22 01:13:49 行情接口配置文件读取成功
2022-01-22 01:13:49 发送登录行情服务器请求失败
2022-01-22 01:13:49 连接行情服务器成功OnFrontConnected
2022-01-22 01:13:49 行情登录成功OnRspUserLogin
2022-01-22 01:14:38 行情接口配置文件读取成功
2022-01-22 01:14:38 发送登录行情服务器请求失败
2022-01-22 01:14:38 连接行情服务器成功OnFrontConnected
2022-01-22 01:14:38 行情登录成功OnRspUserLogin
2022-01-22 01:15:33 行情接口配置文件读取成功
2022-01-22 01:15:33 发送登录行情服务器请求失败
2022-01-22 01:15:33 连接行情服务器成功OnFrontConnected
2022-01-22 01:15:33 行情登录成功OnRspUserLogin
2022-01-22 01:17:02 行情接口配置文件读取成功
2022-01-22 01:17:02 发送登录行情服务器请求失败
2022-01-22 01:17:02 连接行情服务器成功OnFrontConnected
2022-01-22 01:17:02 行情登录成功OnRspUserLogin
2022-01-22 01:17:23 行情接口配置文件读取成功
2022-01-22 01:17:23 发送登录行情服务器请求失败
2022-01-22 01:17:23 连接行情服务器成功OnFrontConnected
2022-01-22 01:17:23 行情登录成功OnRspUserLogin
2022-01-22 01:17:50 行情接口配置文件读取成功
2022-01-22 01:17:50 发送登录行情服务器请求失败
2022-01-22 01:17:50 连接行情服务器成功OnFrontConnected
2022-01-22 01:17:50 行情登录成功OnRspUserLogin
2022-01-22 01:18:48 行情接口配置文件读取成功
2022-01-22 01:18:48 发送登录行情服务器请求失败
2022-01-22 01:18:48 连接行情服务器成功OnFrontConnected
2022-01-22 01:18:48 行情登录成功OnRspUserLogin
2022-01-22 01:20:30 行情接口配置文件读取成功
2022-01-22 01:20:30 发送登录行情服务器请求失败
2022-01-22 01:20:30 连接行情服务器成功OnFrontConnected
2022-01-22 01:20:30 行情登录成功OnRspUserLogin
2022-01-22 01:20:50 行情接口配置文件读取成功
2022-01-22 01:20:50 发送登录行情服务器请求失败
2022-01-22 01:20:50 连接行情服务器成功OnFrontConnected
2022-01-22 01:20:50 行情登录成功OnRspUserLogin
2022-01-22 01:21:56 行情接口配置文件读取成功
2022-01-22 01:21:56 发送登录行情服务器请求失败
2022-01-22 01:21:56 连接行情服务器成功OnFrontConnected
2022-01-22 01:21:56 行情登录成功OnRspUserLogin
2022-01-22 01:22:09 行情接口配置文件读取成功
2022-01-22 01:22:09 发送登录行情服务器请求失败
2022-01-22 01:22:09 连接行情服务器成功OnFrontConnected
2022-01-22 01:22:09 行情登录成功OnRspUserLogin
2022-01-22 01:22:33 行情接口配置文件读取成功
2022-01-22 01:22:33 发送登录行情服务器请求失败
2022-01-22 01:22:33 连接行情服务器成功OnFrontConnected
2022-01-22 01:22:33 行情登录成功OnRspUserLogin
2022-01-22 01:23:02 行情接口配置文件读取成功
2022-01-22 01:23:02 发送登录行情服务器请求失败
2022-01-22 01:23:02 连接行情服务器成功OnFrontConnected
2022-01-22 01:23:02 行情登录成功OnRspUserLogin
2022-01-22 01:24:06 行情接口配置文件读取成功
2022-01-22 01:24:06 发送登录行情服务器请求失败
2022-01-22 01:24:06 连接行情服务器成功OnFrontConnected
2022-01-22 01:24:06 行情登录成功OnRspUserLogin
2022-01-22 01:25:14 行情接口配置文件读取成功
2022-01-22 01:25:14 发送登录行情服务器请求失败
2022-01-22 01:25:14 连接行情服务器成功OnFrontConnected
2022-01-22 01:25:14 行情登录成功OnRspUserLogin
2022-01-22 01:25:56 行情接口配置文件读取成功
2022-01-22 01:25:56 发送登录行情服务器请求失败
2022-01-22 01:25:56 连接行情服务器成功OnFrontConnected
2022-01-22 01:25:56 行情登录成功OnRspUserLogin
2022-01-22 01:26:38 行情接口配置文件读取成功
2022-01-22 01:26:38 发送登录行情服务器请求失败
2022-01-22 01:26:38 连接行情服务器成功OnFrontConnected
2022-01-22 01:26:38 行情登录成功OnRspUserLogin
2022-01-22 02:49:56 断开与行情服务器连接OnFrontDisconnected
2022-01-22 02:49:57 连接行情服务器成功OnFrontConnected
2022-01-22 02:49:57 行情登录成功OnRspUserLogin
2022-01-22 10:15:51 行情接口配置文件读取成功
2022-01-22 10:15:51 发送登录行情服务器请求失败
2022-01-22 10:15:51 连接行情服务器成功OnFrontConnected
2022-01-22 10:15:51 行情登录成功OnRspUserLogin
2022-01-22 10:18:26 行情接口配置文件读取成功
2022-01-22 10:18:26 发送登录行情服务器请求失败
2022-01-22 10:18:26 连接行情服务器成功OnFrontConnected
2022-01-22 10:18:26 行情登录成功OnRspUserLogin
2022-01-22 10:22:24 行情接口配置文件读取成功
2022-01-22 10:22:24 发送登录行情服务器请求失败
2022-01-22 10:22:24 连接行情服务器成功OnFrontConnected
2022-01-22 10:22:24 行情登录成功OnRspUserLogin
2022-01-22 10:23:12 行情接口配置文件读取成功
2022-01-22 10:23:12 发送登录行情服务器请求失败
2022-01-22 10:23:12 连接行情服务器成功OnFrontConnected
2022-01-22 10:23:12 行情登录成功OnRspUserLogin
2022-01-22 10:28:16 行情接口配置文件读取成功
2022-01-22 10:28:16 发送登录行情服务器请求失败
2022-01-22 10:28:16 连接行情服务器成功OnFrontConnected
2022-01-22 10:28:16 行情登录成功OnRspUserLogin
2022-01-22 10:29:27 行情接口配置文件读取成功
2022-01-22 10:29:27 发送登录行情服务器请求失败
2022-01-22 10:29:27 连接行情服务器成功OnFrontConnected
2022-01-22 10:29:27 行情登录成功OnRspUserLogin
