2022-01-10 00:53:04 行情接口配置文件读取成功
2022-01-10 00:53:04 发送登录行情服务器请求失败
2022-01-10 00:53:04 连接行情服务器成功OnFrontConnected
2022-01-10 00:53:04 行情登录成功OnRspUserLogin
2022-01-10 00:53:34 行情接口配置文件读取成功
2022-01-10 00:53:34 发送登录行情服务器请求失败
2022-01-10 00:53:34 连接行情服务器成功OnFrontConnected
2022-01-10 00:53:34 行情登录成功OnRspUserLogin
2022-01-10 00:55:28 行情接口配置文件读取成功
2022-01-10 00:55:28 发送登录行情服务器请求失败
2022-01-10 00:55:28 连接行情服务器成功OnFrontConnected
2022-01-10 00:55:28 行情登录成功OnRspUserLogin
2022-01-10 00:56:55 行情接口配置文件读取成功
2022-01-10 00:56:55 发送登录行情服务器请求失败
2022-01-10 00:56:55 连接行情服务器成功OnFrontConnected
2022-01-10 00:56:55 行情登录成功OnRspUserLogin
2022-01-10 01:01:00 行情接口配置文件读取成功
2022-01-10 01:01:00 发送登录行情服务器请求失败
2022-01-10 01:01:00 连接行情服务器成功OnFrontConnected
2022-01-10 01:01:00 行情登录成功OnRspUserLogin
2022-01-10 01:02:32 行情接口配置文件读取成功
2022-01-10 01:02:32 发送登录行情服务器请求失败
2022-01-10 01:02:32 连接行情服务器成功OnFrontConnected
2022-01-10 01:02:32 行情登录成功OnRspUserLogin
2022-01-10 01:03:55 行情接口配置文件读取成功
2022-01-10 01:03:55 发送登录行情服务器请求失败
2022-01-10 01:03:55 连接行情服务器成功OnFrontConnected
2022-01-10 01:03:55 行情登录成功OnRspUserLogin
2022-01-10 01:04:19 行情接口配置文件读取成功
2022-01-10 01:04:19 发送登录行情服务器请求失败
2022-01-10 01:04:19 连接行情服务器成功OnFrontConnected
2022-01-10 01:04:19 行情登录成功OnRspUserLogin
2022-01-10 01:05:13 行情接口配置文件读取成功
2022-01-10 01:05:13 发送登录行情服务器请求失败
2022-01-10 01:05:13 连接行情服务器成功OnFrontConnected
2022-01-10 01:05:13 行情登录成功OnRspUserLogin
2022-01-10 01:37:30 行情接口配置文件读取成功
2022-01-10 01:37:30 发送登录行情服务器请求成功
2022-01-10 01:37:30 断开与行情服务器连接OnFrontDisconnected
2022-01-10 01:37:31 连接行情服务器成功OnFrontConnected
2022-01-10 01:37:31 行情登录成功OnRspUserLogin
2022-01-10 23:21:28 行情接口配置文件读取成功
2022-01-10 23:21:28 发送登录行情服务器请求成功
2022-01-10 23:21:28 断开与行情服务器连接OnFrontDisconnected
2022-01-10 23:21:28 连接行情服务器成功OnFrontConnected
2022-01-10 23:21:28 行情登录成功OnRspUserLogin
2022-01-10 23:22:02 行情接口配置文件读取成功
2022-01-10 23:22:02 发送登录行情服务器请求失败
2022-01-10 23:22:02 连接行情服务器成功OnFrontConnected
2022-01-10 23:22:02 行情登录成功OnRspUserLogin
2022-01-10 23:22:50 行情接口配置文件读取成功
2022-01-10 23:22:50 发送登录行情服务器请求失败
2022-01-10 23:22:50 连接行情服务器成功OnFrontConnected
2022-01-10 23:22:50 行情登录成功OnRspUserLogin
2022-01-10 23:23:13 行情接口配置文件读取成功
2022-01-10 23:23:13 发送登录行情服务器请求失败
2022-01-10 23:23:13 连接行情服务器成功OnFrontConnected
2022-01-10 23:23:13 行情登录成功OnRspUserLogin
2022-01-10 23:26:43 行情接口配置文件读取成功
2022-01-10 23:26:43 发送登录行情服务器请求失败
2022-01-10 23:26:43 连接行情服务器成功OnFrontConnected
2022-01-10 23:26:43 行情登录成功OnRspUserLogin
2022-01-10 23:27:19 行情接口配置文件读取成功
2022-01-10 23:27:19 发送登录行情服务器请求失败
2022-01-10 23:27:19 连接行情服务器成功OnFrontConnected
2022-01-10 23:27:19 行情登录成功OnRspUserLogin
2022-01-10 23:30:40 行情接口配置文件读取成功
2022-01-10 23:30:40 发送登录行情服务器请求失败
2022-01-10 23:30:40 连接行情服务器成功OnFrontConnected
2022-01-10 23:30:40 行情登录成功OnRspUserLogin
2022-01-10 23:35:31 行情接口配置文件读取成功
2022-01-10 23:35:31 发送登录行情服务器请求失败
2022-01-10 23:35:31 连接行情服务器成功OnFrontConnected
2022-01-10 23:35:31 行情登录成功OnRspUserLogin
2022-01-10 23:36:59 行情接口配置文件读取成功
2022-01-10 23:36:59 发送登录行情服务器请求失败
2022-01-10 23:36:59 连接行情服务器成功OnFrontConnected
2022-01-10 23:36:59 行情登录成功OnRspUserLogin
2022-01-10 23:50:36 行情接口配置文件读取成功
2022-01-10 23:50:36 发送登录行情服务器请求失败
2022-01-10 23:50:36 连接行情服务器成功OnFrontConnected
2022-01-10 23:50:36 行情登录成功OnRspUserLogin
