2022-02-05 15:52:05 行情接口配置文件读取成功
2022-02-05 15:52:05 发送登录行情服务器请求失败
2022-02-05 15:54:31 行情接口配置文件读取成功
2022-02-05 15:54:31 发送登录行情服务器请求失败
2022-02-05 15:57:35 行情接口配置文件读取成功
2022-02-05 15:57:35 发送登录行情服务器请求失败
2022-02-05 17:46:33 行情接口配置文件读取成功
2022-02-05 17:46:33 发送登录行情服务器请求失败
2022-02-05 21:32:13 行情接口配置文件读取成功
2022-02-05 21:32:13 发送登录行情服务器请求失败
2022-02-05 21:47:16 行情接口配置文件读取成功
2022-02-05 21:47:16 发送登录行情服务器请求失败
2022-02-05 21:50:44 行情接口配置文件读取成功
2022-02-05 21:50:44 发送登录行情服务器请求失败
2022-02-05 21:52:19 行情接口配置文件读取成功
2022-02-05 21:52:19 发送登录行情服务器请求失败
2022-02-05 21:53:58 行情接口配置文件读取成功
2022-02-05 21:53:58 发送登录行情服务器请求失败
2022-02-05 21:55:58 行情接口配置文件读取成功
2022-02-05 21:55:58 发送登录行情服务器请求失败
2022-02-05 22:00:14 行情接口配置文件读取成功
2022-02-05 22:00:14 发送登录行情服务器请求失败
2022-02-05 22:02:33 行情接口配置文件读取成功
2022-02-05 22:02:33 发送登录行情服务器请求失败
2022-02-05 22:06:24 行情接口配置文件读取成功
2022-02-05 22:06:24 发送登录行情服务器请求失败
2022-02-05 22:08:33 行情接口配置文件读取成功
2022-02-05 22:08:33 发送登录行情服务器请求失败
2022-02-05 22:10:40 行情接口配置文件读取成功
2022-02-05 22:10:40 发送登录行情服务器请求失败
2022-02-05 22:11:26 行情接口配置文件读取成功
2022-02-05 22:11:26 发送登录行情服务器请求失败
2022-02-05 22:12:46 行情接口配置文件读取成功
2022-02-05 22:12:46 发送登录行情服务器请求失败
2022-02-05 22:19:09 行情接口配置文件读取成功
2022-02-05 22:19:09 发送登录行情服务器请求失败
2022-02-05 22:22:05 行情接口配置文件读取成功
2022-02-05 22:22:05 发送登录行情服务器请求失败
2022-02-05 22:25:13 行情接口配置文件读取成功
2022-02-05 22:25:13 发送登录行情服务器请求失败
2022-02-05 22:26:45 行情接口配置文件读取成功
2022-02-05 22:26:45 发送登录行情服务器请求失败
2022-02-05 22:27:59 行情接口配置文件读取成功
2022-02-05 22:27:59 发送登录行情服务器请求失败
