2022-01-03 00:04:48 断开与行情服务器连接OnFrontDisconnected
2022-01-03 00:15:24 断开与行情服务器连接OnFrontDisconnected
2022-01-03 00:22:51 断开与行情服务器连接OnFrontDisconnected
2022-01-03 00:28:08 断开与行情服务器连接OnFrontDisconnected
2022-01-03 00:44:55 断开与行情服务器连接OnFrontDisconnected
2022-01-03 00:50:00 断开与行情服务器连接OnFrontDisconnected
2022-01-03 01:00:46 断开与行情服务器连接OnFrontDisconnected
2022-01-03 01:01:24 行情接口配置文件读取成功
2022-01-03 01:01:24 发送登录行情服务器请求失败
2022-01-03 01:06:05 行情接口配置文件读取成功
2022-01-03 01:06:05 发送登录行情服务器请求失败
2022-01-03 01:08:03 行情接口配置文件读取成功
2022-01-03 01:08:03 发送登录行情服务器请求失败
2022-01-03 01:14:09 断开与行情服务器连接OnFrontDisconnected
2022-01-03 01:46:19 断开与行情服务器连接OnFrontDisconnected
2022-01-03 02:00:48 断开与行情服务器连接OnFrontDisconnected
2022-01-03 02:10:55 断开与行情服务器连接OnFrontDisconnected
2022-01-03 02:22:11 断开与行情服务器连接OnFrontDisconnected
2022-01-03 02:24:46 行情接口配置文件读取成功
2022-01-03 02:24:46 发送登录行情服务器请求失败
2022-01-03 02:31:47 行情接口配置文件读取成功
2022-01-03 02:31:47 发送登录行情服务器请求失败
2022-01-03 02:33:30 行情接口配置文件读取成功
2022-01-03 02:33:30 发送登录行情服务器请求失败
2022-01-03 02:37:52 行情接口配置文件读取成功
2022-01-03 02:37:52 发送登录行情服务器请求失败
2022-01-03 02:39:35 行情接口配置文件读取成功
2022-01-03 02:39:35 发送登录行情服务器请求失败
2022-01-03 02:47:55 行情接口配置文件读取成功
2022-01-03 02:47:55 发送登录行情服务器请求失败
2022-01-03 02:49:19 断开与行情服务器连接OnFrontDisconnected
2022-01-03 02:51:15 行情接口配置文件读取成功
2022-01-03 02:51:15 发送登录行情服务器请求失败
2022-01-03 02:52:27 行情接口配置文件读取成功
2022-01-03 02:52:27 发送登录行情服务器请求失败
2022-01-03 02:52:35 行情接口配置文件读取成功
2022-01-03 02:52:35 发送登录行情服务器请求失败
2022-01-03 02:55:09 行情接口配置文件读取成功
2022-01-03 02:55:09 发送登录行情服务器请求失败
2022-01-03 02:56:17 行情接口配置文件读取成功
2022-01-03 02:56:17 发送登录行情服务器请求失败
2022-01-03 02:58:05 行情接口配置文件读取成功
2022-01-03 02:58:05 发送登录行情服务器请求失败
2022-01-03 03:07:22 行情接口配置文件读取成功
2022-01-03 03:07:22 发送登录行情服务器请求失败
2022-01-03 03:09:28 断开与行情服务器连接OnFrontDisconnected
2022-01-03 03:10:31 行情接口配置文件读取成功
2022-01-03 03:10:31 发送登录行情服务器请求失败
2022-01-03 13:35:12 行情接口配置文件读取成功
2022-01-03 13:35:12 发送登录行情服务器请求失败
2022-01-03 13:44:50 行情接口配置文件读取成功
2022-01-03 13:44:50 发送登录行情服务器请求失败
2022-01-03 13:45:55 行情接口配置文件读取成功
2022-01-03 13:45:55 发送登录行情服务器请求失败
2022-01-03 13:47:22 行情接口配置文件读取成功
2022-01-03 13:47:22 发送登录行情服务器请求失败
2022-01-03 13:48:35 行情接口配置文件读取成功
2022-01-03 13:48:35 发送登录行情服务器请求失败
2022-01-03 13:49:28 断开与行情服务器连接OnFrontDisconnected
2022-01-03 13:49:49 行情接口配置文件读取成功
2022-01-03 13:49:49 发送登录行情服务器请求失败
2022-01-03 13:50:17 行情接口配置文件读取成功
2022-01-03 13:50:17 发送登录行情服务器请求失败
2022-01-03 13:58:49 行情接口配置文件读取成功
2022-01-03 13:58:49 发送登录行情服务器请求失败
2022-01-03 13:59:37 行情接口配置文件读取成功
2022-01-03 13:59:37 发送登录行情服务器请求失败
2022-01-03 14:02:23 断开与行情服务器连接OnFrontDisconnected
2022-01-03 14:03:15 行情接口配置文件读取成功
2022-01-03 14:03:15 发送登录行情服务器请求失败
2022-01-03 14:04:58 行情接口配置文件读取成功
2022-01-03 14:04:58 发送登录行情服务器请求失败
2022-01-03 14:08:49 行情接口配置文件读取成功
2022-01-03 14:08:49 发送登录行情服务器请求失败
2022-01-03 14:09:16 行情接口配置文件读取成功
2022-01-03 14:09:16 发送登录行情服务器请求失败
2022-01-03 14:53:19 行情接口配置文件读取成功
2022-01-03 14:53:19 发送登录行情服务器请求失败
2022-01-03 14:53:42 断开与行情服务器连接OnFrontDisconnected
2022-01-03 14:57:19 行情接口配置文件读取成功
2022-01-03 14:57:19 发送登录行情服务器请求失败
